CLASS3
[(1.0, 'while'), (0.26931211602376876, 'well'), (0.2689092557155806, 'other'), (0.26830496525329844, 'state'), (0.2658878034041696, 'onli')]
CLASS5
[(0.31736161113656697, 'work'), (0.26490803168161287, 'well'), (0.2622460779821518, 'howev'), (0.25886408762627916, 'new'), (0.25714036350941505, 'state')]
