Files are arxiv_abs/cs.updates.on.arXiv.org  arxiv_abs/hep-ph.updates.on.arXiv.org
Similarity = 0.00464
Similarity = 0.01251
Similarity = 0.01798
Similarity = 0.00586
Similarity = 0.0038
Similarity = 0.01662
Similarity = 0.00478
Similarity = 0.01481
Similarity = 0.0075
Similarity = 0.00493
Similarity = 0.00755
Similarity = 0.00702
Similarity = 0.01098
Similarity = 0.01883
Similarity = 0.00813
Similarity = 0.00545
Similarity = 0.0067
Similarity = 0.01
Similarity = 0.00539
Similarity = 0.01161
Similarity = 0.00459
Similarity = 0.00681
Similarity = 0.0064
Similarity = 0.00624
Similarity = 0.00306
Similarity = 0.0064
Similarity = 0.0116
Similarity = 0.00704
Similarity = 0.01173
Similarity = 0.0072
Similarity = 0.00821
Similarity = 0.00496
Similarity = 0.01142
Similarity = 0.00637
Similarity = 0.00706
Similarity = 0.00525
Similarity = 0.00248
Similarity = 0.01327
Similarity = 0.00678
Similarity = 0.00497
Similarity = 0.01455
Similarity = 0.00972
Similarity = 0.00442
Similarity = 0.00606
Similarity = 0.00667
Similarity = 0.00147
Similarity = 0.01422
Similarity = 0.00866
Similarity = 0.00928
Similarity = 0.00781
Similarity = 0.01131
Similarity = 0.00586
Similarity = 0.03646
Similarity = 0.01397
Similarity = 0.01354
Similarity = 0.05413
Similarity = 0.01334
Similarity = 0.01529
Similarity = 0.01219
Similarity = 0.0121
Similarity = 0.00661
Similarity = 0.00868
Similarity = 0.02191
Similarity = 0.02353
Similarity = 0.00426
Similarity = 0.01484
Similarity = 0.02669
Similarity = 0.01688
Similarity = 0.01674
Similarity = 0.01351
Similarity = 0.00507
Similarity = 0.00828
Similarity = 0.00904
Similarity = 0.00736
Similarity = 0.00951
Similarity = 0.01307
Similarity = 0.01963
Similarity = 0.0084
Similarity = 0.0138
Similarity = 0.00829
Similarity = 0.02909
Similarity = 0.01091
Similarity = 0.00436
Similarity = 0.00699
Similarity = 0.00704
Similarity = 0.01275
Similarity = 0.0211
Similarity = 0.00787
Similarity = 0.01186
Similarity = 0.02484
Similarity = 0.00868
Similarity = 0.01891
Similarity = 0.00871
Similarity = 0.01019
Similarity = 0.01156
Similarity = 0.00596
Similarity = 0.00753
Similarity = 0.0032
Similarity = 0.02423
Similarity = 0.005
Similarity = 0.01969
Similarity = 0.0072
Similarity = 0.03633
Similarity = 0.00623
Similarity = 0.00975
Similarity = 0.01647
Similarity = 0.0148
Similarity = 0.00775
Similarity = 0.01409
Similarity = 0.00691
Similarity = 0.00975
Similarity = 0.00949
Similarity = 0.00922
Similarity = 0.00864
Similarity = 0.01142
Similarity = 0.00716
Similarity = 0.01445
Similarity = 0.01547
Similarity = 0.00423
Similarity = 0.02181
Similarity = 0.00944
Similarity = 0.00819
Similarity = 0.00584
Similarity = 0.01903
Similarity = 0.00279
Similarity = 0.00481
Similarity = 0.03043
Similarity = 0.01165
Similarity = 0.00745
Similarity = 0.01349
Similarity = 0.01328
Similarity = 0.0032
Similarity = 0.01243
Similarity = 0.01103
Similarity = 0.00666
Similarity = 0.00667
Similarity = 0.00795
Similarity = 0.0098
Similarity = 0.00338
Similarity = 0.02151
Similarity = 0.00543
Similarity = 0.01834
Similarity = 0.00665
Similarity = 0.03198
Similarity = 0.00687
Similarity = 0.00359
Similarity = 0.0054
Similarity = 0.00464
Similarity = 0.01034
Similarity = 0.0109
Similarity = 0.01023
Similarity = 0.00914
Similarity = 0.01735
Similarity = 0.01098
Similarity = 0.01136
Similarity = 0.01414
Similarity = 0.0119
Similarity = 0.01368
Similarity = 0.00555
Similarity = 0.01046
Similarity = 0.01164
Similarity = 0.00908
Similarity = 0.0099
Similarity = 0.00632
Similarity = 0.00814
Similarity = 0.0072
Similarity = 0.00688
Similarity = 0.00345
Similarity = 0.00579
Similarity = 0.01731
Similarity = 0.00315
Similarity = 0.00707
Similarity = 0.00473
Similarity = 0.00225
Similarity = 0.00435
Similarity = 0.02204
Similarity = 0.01748
Similarity = 0.01044
Similarity = 0.00849
Similarity = 0.01069
Similarity = 0.01206
Similarity = 0.00491
Similarity = 0.00725
Similarity = 0.01164
Similarity = 0.01162
Similarity = 0.00403
Similarity = 0.01011
Similarity = 0.01362
Similarity = 0.00596
Similarity = 0.01633
Similarity = 0.00848
Similarity = 0.00916
Similarity = 0.01634
Similarity = 0.01666
Similarity = 0.00814
Similarity = 0.0078
Similarity = 0.01138
Similarity = 0.04003
Similarity = 0.01271
Similarity = 0.01382
Similarity = 0.00831
Similarity = 0.01183
Similarity = 0.01756
Similarity = 0.01283
Similarity = 0.00342
Similarity = 0.02553
Similarity = 0.00869
Similarity = 0.01125
Similarity = 0.01192
Similarity = 0.00617
Similarity = 0.00468
Similarity = 0.01012
Similarity = 0.01417
Similarity = 0.01582
Similarity = 0.01123
Similarity = 0.00562
Similarity = 0.02428
Similarity = 0.00601
Similarity = 0.02512
Similarity = 0.01618
Similarity = 0.00346
Similarity = 0.01174
Similarity = 0.02894
Similarity = 0.00716
Similarity = 0.00731
Similarity = 0.00579
Similarity = 0.01342
Similarity = 0.01403
Similarity = 0.0134
Similarity = 0.00905
Similarity = 0.01272
Similarity = 0.01215
Similarity = 0.00991
Similarity = 0.00655
Similarity = 0.00775
Similarity = 0.00795
Similarity = 0.01003
Similarity = 0.00832
Similarity = 0.0088
Similarity = 0.00792
Similarity = 0.00904
Similarity = 0.02376
Similarity = 0.00756
Similarity = 0.01575
Similarity = 0.00475
Similarity = 0.00726
Similarity = 0.00276
Similarity = 0.00845
Similarity = 0.01345
Similarity = 0.00617
Similarity = 0.01086
Similarity = 0.00598
Similarity = 0.00955
Similarity = 0.01104
Similarity = 0.00403
Similarity = 0.01151
Similarity = 0.0067
Similarity = 0.01677
Similarity = 0.01224
Similarity = 0.00407
Similarity = 0.00407
Similarity = 0.00407
Similarity = 0.01687
Similarity = 0.00965
Similarity = 0.00269
Similarity = 0.01049
Similarity = 0.01221
Similarity = 0.02143
Similarity = 0.01783
Similarity = 0.01183
Similarity = 0.00319
Similarity = 0.01075
Similarity = 0.00678
Similarity = 0.00486
Similarity = 0.00295
Similarity = 0.00952
Similarity = 0.0081
Similarity = 0.00595
Similarity = 0.0073
Similarity = 0.0056
Similarity = 0.02949
Similarity = 0.00271
Similarity = 0.00756
Similarity = 0.00292
Similarity = 0.00865
Similarity = 0.00862
Similarity = 0.02419
Similarity = 0.00159
Similarity = 0.00115
Similarity = 0.01773
Similarity = 0.01231
Similarity = 0.01489
Similarity = 0.00491
Similarity = 0.00621
Similarity = 0.00619
Similarity = 0.00897
Similarity = 0.00467
Similarity = 0.00449
Similarity = 0.00964
Similarity = 0.00676
Similarity = 0.01133
Similarity = 0.00678
Similarity = 0.01934
Similarity = 0.0059
Similarity = 0.01009
Similarity = 0.01554
Similarity = 0.00579
Similarity = 0.01146
Similarity = 0.00904
Similarity = 0.01459
Similarity = 0.01188
Similarity = 0.00474
Similarity = 0.01917
Similarity = 0.01357
Similarity = 0.00993
Similarity = 0.00343
Similarity = 0.01977
Similarity = 0.01708
Similarity = 0.00777
Similarity = 0.00777
Similarity = 0.01093
Similarity = 0.00956
Similarity = 0.00424
Similarity = 0.00859
Similarity = 0.00542
Similarity = 0.00936
Similarity = 0.01926
Similarity = 0.01961
Similarity = 0.0117
Similarity = 0.01655
Similarity = 0.00545
Similarity = 0.00434
Similarity = 0.00728
Similarity = 0.0065
Similarity = 0.00989
Similarity = 0.00766
Similarity = 0.00439
Similarity = 0.00874
Similarity = 0.00944
Similarity = 0.00696
Similarity = 0.01033
Similarity = 0.01655
Similarity = 0.00504
Similarity = 0.01125
Similarity = 0.01094
Similarity = 0.00372
Similarity = 0.00861
Similarity = 0.01323
Similarity = 0.02061
Similarity = 0.00614
Similarity = 0.01164
Similarity = 0.01075
Similarity = 0.01436
Similarity = 0.00964
Similarity = 0.00847
Similarity = 0.02593
Similarity = 0.01372
Similarity = 0.00812
Similarity = 0.0115
Similarity = 0.00596
Similarity = 0.00692
Similarity = 0.01131
Similarity = 0.01936
Similarity = 0.01677
Similarity = 0.00861
Similarity = 0.01206
Similarity = 0.017
Similarity = 0.0102
Similarity = 0.01226
Similarity = 0.02314
Similarity = 0.00591
Similarity = 0.01518
Similarity = 0.00959
Similarity = 0.01476
Similarity = 0.00789
Similarity = 0.00863
Similarity = 0.02887
Similarity = 0.01402
Similarity = 0.01035
Similarity = 0.01508
Similarity = 0.01077
Similarity = 0.01086
Similarity = 0.0063
Similarity = 0.00866
Similarity = 0.01342
Similarity = 0.01254
Similarity = 0.01112
Similarity = 0.01371
Similarity = 0.00598
Similarity = 0.01388
Similarity = 0.03654
Similarity = 0.01721
Similarity = 0.01102
Similarity = 0.01231
Similarity = 0.00792
Similarity = 0.00393
Similarity = 0.01428
Similarity = 0.01102
Similarity = 0.02483
Similarity = 0.01588
Similarity = 0.00779
Similarity = 0.00643
Similarity = 0.01198
Similarity = 0.014
Similarity = 0.00617
Similarity = 0.00672
Similarity = 0.00479
Similarity = 0.01368
Similarity = 0.00991
Similarity = 0.00283
Similarity = 0.00154
Similarity = 0.00252
Similarity = 0.01401
Similarity = 0.01988
Similarity = 0.00202
Similarity = 0.00591
Similarity = 0.00735
Similarity = 0.00779
Similarity = 0.00466
Similarity = 0.00674
Similarity = 0.00137
Similarity = 0.00307
Similarity = 0.00103
Similarity = 0.00311
Similarity = 0.0024
Similarity = 0.00565
Similarity = 0.00987
Similarity = 0.00689
Similarity = 0.00388
Similarity = 0.0055
Similarity = 0.01631
Similarity = 0.00464
Similarity = 0.00257
Similarity = 0.00587
Similarity = 0.00494
Similarity = 0.00414
Similarity = 0.00389
Similarity = 0.00334
Similarity = 0.00255
Similarity = 0.00318
Similarity = 0.00628
Similarity = 0.01693
Similarity = 0.00178
Similarity = 0.0055
Similarity = 0.00495
Similarity = 0.00159
Similarity = 0.00189
Similarity = 0.00404
Similarity = 0.00925
Similarity = 0.00458
Similarity = 0.00519
Similarity = 0.01438
Similarity = 0.01097
Similarity = 0.00238
Similarity = 0.00467
Similarity = 0.01325
Similarity = 0.00428
Similarity = 0.00781
Similarity = 0.00626
Similarity = 0.00619
Similarity = 0.0051
Similarity = 0.01045
Similarity = 0.00623
Similarity = 0.01682
Similarity = 0.00511
Similarity = 0.00634
Similarity = 0.03316
Similarity = 0.01819
Similarity = 0.00996
Similarity = 0.00868
Similarity = 0.00435
Similarity = 0.00918
Similarity = 0.01007
Similarity = 0.00346
Similarity = 0.0094
Similarity = 0.01646
Similarity = 0.01783
Similarity = 0.02728
Similarity = 0.0049
Similarity = 0.00631
Similarity = 0.02557
Similarity = 0.00727
Similarity = 0.00831
Similarity = 0.0217
Similarity = 0.02684
Similarity = 0.0081
Similarity = 0.00314
Similarity = 0.0118
Similarity = 0.00403
Similarity = 0.03129
Similarity = 0.0089
Similarity = 0.01334
Similarity = 0.00864
Similarity = 0.01101
Similarity = 0.00575
Similarity = 0.00156
Similarity = 0.00605
Similarity = 0.0014
Similarity = 0.0152
Similarity = 0.00478
Similarity = 0.01598
Similarity = 0.02409
Similarity = 0.02112
Similarity = 0.0061
Similarity = 0.01227
Similarity = 0.03484
Similarity = 0.0119
Similarity = 0.00623
Similarity = 0.01798
Similarity = 0.01063
Similarity = 0.00753
Similarity = 0.00927
Similarity = 0.03582
Similarity = 0.00703
Similarity = 0.0041
Similarity = 0.00617
Similarity = 0.02328
Similarity = 0.03254
Similarity = 0.00455
Similarity = 0.02109
Similarity = 0.00875
Similarity = 0.01144
Similarity = 0.00396
Similarity = 0.00935
Similarity = 0.01012
Similarity = 0.0221
Similarity = 0.00749
Similarity = 0.00985
Similarity = 0.0263
Similarity = 0.00651
Similarity = 0.01119
Similarity = 0.0083
Similarity = 0.0077
Similarity = 0.01017
Similarity = 0.01871
Similarity = 0.00368
Similarity = 0.01569
Similarity = 0.00963
Similarity = 0.00632
Similarity = 0.03628
Similarity = 0.02611
Similarity = 0.01691
Similarity = 0.00975
Similarity = 0.01651
Similarity = 0.01057
Similarity = 0.00844
Similarity = 0.01392
Similarity = 0.01117
Similarity = 0.02838
Similarity = 0.01097
Similarity = 0.00691
Similarity = 0.01267
Similarity = 0.01496
Similarity = 0.0122
Similarity = 0.01852
Similarity = 0.02609
Similarity = 0.01132
Similarity = 0.01423
Similarity = 0.00875
Similarity = 0.00664
Similarity = 0.00559
Similarity = 0.00666
Similarity = 0.0314
Similarity = 0.02255
Similarity = 0.01173
Similarity = 0.02119
Similarity = 0.01889
Similarity = 0.00487
Similarity = 0.00663
Similarity = 0.01329
Similarity = 0.01717
Similarity = 0.00693
Similarity = 0.00559
Similarity = 0.02097
Similarity = 0.00851
Similarity = 0.00707
Similarity = 0.02649
Similarity = 0.01193
Similarity = 0.00591
Similarity = 0.02129
Similarity = 0.00894
Similarity = 0.00646
Similarity = 0.01019
Similarity = 0.00478
Similarity = 0.01529
Similarity = 0.00832
Similarity = 0.0104
Similarity = 0.00319
Similarity = 0.00852
Similarity = 0.01978
Similarity = 0.00303
Similarity = 0.02545
Similarity = 0.00956
Similarity = 0.01403
Similarity = 0.0049
Similarity = 0.00784
Similarity = 0.01459
Similarity = 0.00731
Similarity = 0.02262
Similarity = 0.02092
Similarity = 0.01881
Similarity = 0.02983
Similarity = 0.01946
Similarity = 0.01213
Similarity = 0.02208
Similarity = 0.01294
Similarity = 0.012
Similarity = 0.00713
Similarity = 0.01313
Similarity = 0.01303
Similarity = 0.00488
Similarity = 0.02223
Similarity = 0.01821
Similarity = 0.02341
Similarity = 0.00918
Similarity = 0.00707
Similarity = 0.01102
Similarity = 0.01074
Similarity = 0.0138
Similarity = 0.03382
Similarity = 0.05578
Similarity = 0.01992
Similarity = 0.0208
Similarity = 0.00582
Similarity = 0.01042
Similarity = 0.05946
Similarity = 0.01508
Similarity = 0.02279
Similarity = 0.00926
Similarity = 0.01621
Similarity = 0.0061
Similarity = 0.025
Similarity = 0.00931
Similarity = 0.02925
Similarity = 0.01664
Similarity = 0.00825
Similarity = 0.01374
Similarity = 0.01816
Similarity = 0.00888
Similarity = 0.0105
Similarity = 0.02224
Similarity = 0.01832
Similarity = 0.01516
Similarity = 0.02657
Similarity = 0.03328
Similarity = 0.01339
Similarity = 0.01138
Similarity = 0.00794
Similarity = 0.02009
Similarity = 0.02844
Similarity = 0.01178
Similarity = 0.02419
Similarity = 0.01587
Similarity = 0.01231
Similarity = 0.00721
Similarity = 0.04024
Similarity = 0.01616
Similarity = 0.00969
Similarity = 0.00808
Similarity = 0.00801
Similarity = 0.00418
Similarity = 0.00608
Similarity = 0.01281
Similarity = 0.02411
Similarity = 0.01375
Similarity = 0.00808
Similarity = 0.03403
Similarity = 0.01467
Similarity = 0.01152
Similarity = 0.01948
Similarity = 0.00851
Similarity = 0.00905
Similarity = 0.00956
Similarity = 0.01505
Similarity = 0.01225
Similarity = 0.02165
Similarity = 0.032
Similarity = 0.0052
Similarity = 0.01505
Similarity = 0.02144
Similarity = 0.11311
Similarity = 0.01319
Similarity = 0.01555
Similarity = 0.01217
Similarity = 0.01688
Similarity = 0.0043
Similarity = 0.01113
Similarity = 0.01548
Similarity = 0.00588
Similarity = 0.022
Similarity = 0.01232
Similarity = 0.01964
Similarity = 0.00603
Similarity = 0.02702
Similarity = 0.00532
Similarity = 0.0126
Similarity = 0.02058
Similarity = 0.01521
Similarity = 0.03057
Similarity = 0.01042
Similarity = 0.00193
Similarity = 0.00701
Similarity = 0.00593
Similarity = 0.00483
Similarity = 0.0017
Similarity = 0.00692
Similarity = 0.00453
Similarity = 0.00092
Similarity = 0.00419
Similarity = 0.00468
Similarity = 0.00232
Similarity = 0.00828
Similarity = 0.00603
Similarity = 0.00384
Similarity = 0.00409
Similarity = 0.00871
Similarity = 0.01484
Similarity = 0.0113
Similarity = 0.00671
Similarity = 0.00811
Similarity = 0.00304
Similarity = 0.00104
Similarity = 0.00429
Similarity = 0.00361
Similarity = 0.0004
Similarity = 0.00384
Similarity = 0.01652
Similarity = 0.0109
Similarity = 0.00297
Similarity = 0.00411
Similarity = 0.00379
Similarity = 0.00553
Similarity = 0.00456
Similarity = 0.00087
Similarity = 0.00273
Similarity = 0.00047
Similarity = 0.00789
Similarity = 0.00256
Similarity = 0.00267
Similarity = 0.00188
Similarity = 0.00264
Similarity = 0.01654
Similarity = 0.0035
Similarity = 0.00601
Similarity = 0.00119
Similarity = 4e-05
Similarity = 0.00105
Similarity = 0.00342
Similarity = 0.00729
Similarity = 0.01351
Similarity = 0.01968
Similarity = 0.00885
Similarity = 0.02923
Similarity = 0.01649
Similarity = 0.01608
Similarity = 0.02765
Similarity = 0.01422
Similarity = 0.01355
Similarity = 0.01729
Similarity = 0.01379
Similarity = 0.00653
Similarity = 0.0194
Similarity = 0.01671
Similarity = 0.01325
Similarity = 0.0135
Similarity = 0.01133
Similarity = 0.02152
Similarity = 0.01715
Similarity = 0.01086
Similarity = 0.01735
Similarity = 0.01063
Similarity = 0.0091
Similarity = 0.01418
Similarity = 0.01485
Similarity = 0.00695
Similarity = 0.00961
Similarity = 0.02895
Similarity = 0.01596
Similarity = 0.01606
Similarity = 0.00928
Similarity = 0.01808
Similarity = 0.01447
Similarity = 0.01282
Similarity = 0.00947
Similarity = 0.00897
Similarity = 0.01052
Similarity = 0.01097
Similarity = 0.01352
Similarity = 0.00403
Similarity = 0.01541
Similarity = 0.02262
Similarity = 0.02675
Similarity = 0.01104
Similarity = 0.04038
Similarity = 0.01106
Similarity = 0.00675
Similarity = 0.00722
Similarity = 0.0137
Similarity = 0.01358
Similarity = 0.01945
Similarity = 0.02615
Similarity = 0.00882
Similarity = 0.08359
Similarity = 0.00717
Similarity = 0.00736
Similarity = 0.01417
Similarity = 0.00542
Similarity = 0.0071
Similarity = 0.02652
Similarity = 0.00502
Similarity = 0.0088
Similarity = 0.00645
Similarity = 0.01105
Similarity = 0.00648
Similarity = 0.03385
Similarity = 0.00783
Similarity = 0.00693
Similarity = 0.0031
Similarity = 0.01196
Similarity = 0.00727
Similarity = 0.00425
Similarity = 0.00511
Similarity = 0.01006
Similarity = 0.00697
Similarity = 0.00615
Similarity = 0.00749
Similarity = 0.00659
Similarity = 0.00734
Similarity = 0.00408
Similarity = 0.02309
Similarity = 0.01282
Similarity = 0.00818
Similarity = 0.00693
Similarity = 0.00831
Similarity = 0.01932
Similarity = 0.0054
Similarity = 0.00851
Similarity = 0.00476
Similarity = 0.00527
Similarity = 0.00488
Similarity = 0.00521
Similarity = 0.01523
Similarity = 0.00455
Similarity = 0.01232
Similarity = 0.02196
Similarity = 0.00419
Similarity = 0.00445
Similarity = 0.00843
Similarity = 0.00769
Similarity = 0.03348
Similarity = 0.01193
Similarity = 0.00909
Similarity = 0.02138
Similarity = 0.00739
Similarity = 0.00855
Similarity = 0.00886
Similarity = 0.00811
Similarity = 0.00772
Similarity = 0.00412
Similarity = 0.00647
Similarity = 0.01243
Similarity = 0.01035
Similarity = 0.01008
Similarity = 0.00497
Similarity = 0.01154
Similarity = 0.0041
Similarity = 0.00884
Similarity = 0.00819
Similarity = 0.00539
Similarity = 0.01334
Similarity = 0.00239
Similarity = 0.00561
Similarity = 0.00308
Similarity = 0.00403
Similarity = 0.00921
Similarity = 0.00484
Similarity = 0.00935
Similarity = 0.01312
Similarity = 0.01001
Similarity = 0.00555
Similarity = 0.01314
Similarity = 0.00312
Similarity = 0.0104
Similarity = 0.00434
Similarity = 0.00507
Similarity = 0.00485
Similarity = 0.00559
Similarity = 0.00468
Similarity = 0.00633
Similarity = 0.0198
Similarity = 0.00425
Similarity = 0.00539
Similarity = 0.00316
Similarity = 0.01302
Similarity = 0.00954
Similarity = 0.00172
Similarity = 0.00619
Similarity = 0.0159
Similarity = 0.01324
Similarity = 0.01228
Similarity = 0.02089
Similarity = 0.02507
Similarity = 0.0054
Similarity = 0.03015
Similarity = 0.00569
Similarity = 0.01828
Similarity = 0.01036
Similarity = 0.01335
Similarity = 0.00526
Similarity = 0.00353
Similarity = 0.00983
Similarity = 0.0064
Similarity = 0.00904
Similarity = 0.00759
Similarity = 0.01006
Similarity = 0.00338
Similarity = 0.01423
Similarity = 0.00201
Similarity = 0.01016
Similarity = 0.00531
Similarity = 0.00547
Similarity = 0.02335
Similarity = 0.00774
Similarity = 0.0201
Similarity = 0.01312
Similarity = 0.00412
Similarity = 0.01876
Similarity = 0.00849
Similarity = 0.00275
Similarity = 0.00769
Similarity = 0.00753
Similarity = 0.00677
Similarity = 0.00639
Similarity = 0.00387
Similarity = 0.01562
Similarity = 0.01076
Similarity = 0.02324
Similarity = 0.00623
Similarity = 0.00835
Similarity = 0.01456
Similarity = 0.00986
Similarity = 0.02936
Similarity = 0.00458
Similarity = 0.01264
Similarity = 0.00482
Similarity = 0.00371
Similarity = 0.02358
Similarity = 0.01216
Similarity = 0.01336
Similarity = 0.00675
Similarity = 0.01076
Similarity = 0.00872
Similarity = 0.02771
Similarity = 0.01812
Similarity = 0.01742
Similarity = 0.02036
Similarity = 0.00889
Similarity = 0.01627
Similarity = 0.00504
Similarity = 0.00576
Similarity = 0.09307
Similarity = 0.01464
Similarity = 0.00872
Similarity = 0.03321
Similarity = 0.0115
Similarity = 0.00895
Similarity = 0.01272
Similarity = 0.01099
Similarity = 0.02012
Similarity = 0.02609
Similarity = 0.02943
Similarity = 0.00754
Similarity = 0.01075
Similarity = 0.00748
Similarity = 0.01992
Similarity = 0.02237
Similarity = 0.01561
Similarity = 0.01063
Similarity = 0.00961
Similarity = 0.01489
Similarity = 0.02515
Similarity = 0.01112
Similarity = 0.0118
Similarity = 0.01699
Similarity = 0.00983
Similarity = 0.01145
Similarity = 0.01688
Similarity = 0.007
Similarity = 0.00509
Similarity = 0.02481
Similarity = 0.00998
Similarity = 0.01455
Similarity = 0.00715
Similarity = 0.02762
Similarity = 0.00966
Similarity = 0.02297
Similarity = 0.01017
Similarity = 0.00682
Similarity = 0.01572
Similarity = 0.00803
Similarity = 0.00887
Similarity = 0.01251
Similarity = 0.02566
Similarity = 0.0085
Similarity = 0.00983
Similarity = 0.01619
Similarity = 0.00721
Similarity = 0.0086
Similarity = 0.01243
Similarity = 0.00496
Similarity = 0.00425
Similarity = 0.00823
Similarity = 0.01396
Similarity = 0.02449
Similarity = 0.00301
Similarity = 0.00808
Similarity = 0.0089
Similarity = 0.00289
Similarity = 0.00408
Similarity = 0.01209
Similarity = 0.00428
Similarity = 0.00948
Similarity = 0.00293
Similarity = 0.00394
Similarity = 0.00252
Similarity = 0.01294
Similarity = 0.01294
Similarity = 0.01328
Similarity = 0.00502
Similarity = 0.02182
Similarity = 0.00702
Similarity = 0.006
Similarity = 0.01073
Similarity = 0.00341
Similarity = 0.00989
Similarity = 0.00672
Similarity = 0.00446
Similarity = 0.00362
Similarity = 0.00388
Similarity = 0.00904
Similarity = 0.00566
Similarity = 0.01179
Similarity = 0.00599
Similarity = 0.00872
Similarity = 0.00621
Similarity = 0.01655
Similarity = 0.00907
Similarity = 0.00271
Similarity = 0.01103
Similarity = 0.00989
Similarity = 0.00616
Similarity = 0.01163
Similarity = 0.02144
Similarity = 0.01634
Similarity = 0.01797
Similarity = 0.02189
Similarity = 0.0174
Similarity = 0.02423
Similarity = 0.00975
Similarity = 0.01617
Similarity = 0.01177
Similarity = 0.03792
Similarity = 0.02426
Similarity = 0.01582
Similarity = 0.01094
Similarity = 0.01622
Similarity = 0.02981
Similarity = 0.04063
Similarity = 0.02583
Similarity = 0.02989
Similarity = 0.02294
Similarity = 0.02161
Similarity = 0.01018
Similarity = 0.02401
Similarity = 0.02273
Similarity = 0.01458
Similarity = 0.03617
Similarity = 0.00951
Similarity = 0.00357
Similarity = 0.02113
Similarity = 0.01501
Similarity = 0.01057
Similarity = 0.01697
Similarity = 0.0403
Similarity = 0.02569
Similarity = 0.02516
Similarity = 0.02152
Similarity = 0.01219
Similarity = 0.01266
Similarity = 0.01309
Similarity = 0.01253
Similarity = 0.00601
Similarity = 0.00511
Similarity = 0.02857
Similarity = 0.00834
Similarity = 0.02117
Similarity = 0.02657
Similarity = 0.02703
Similarity = 0.01539
Similarity = 0.03272
Similarity = 0.02346
Similarity = 0.0075
Similarity = 0.04467
Similarity = 0.01058
Similarity = 0.03044
Similarity = 0.02342
Similarity = 0.00917
Similarity = 0.00738
Similarity = 0.01254
Similarity = 0.0151
Similarity = 0.00932
Similarity = 0.00581
Similarity = 0.03959
Similarity = 0.01726
Similarity = 0.02768
Similarity = 0.01444
Similarity = 0.01698
Similarity = 0.07507
Similarity = 0.04507
Similarity = 0.01733
Similarity = 0.00521
Similarity = 0.02116
Similarity = 0.01026
Similarity = 0.0161
Similarity = 0.00396
Similarity = 0.00661
Similarity = 0.01309
Similarity = 0.0149
Similarity = 0.01418
Similarity = 0.01197
Similarity = 0.00839
Similarity = 0.00638
Similarity = 0.01613
Similarity = 0.00863
Similarity = 0.02108
Similarity = 0.00595
Similarity = 0.06957
Similarity = 0.00678
Similarity = 0.00874
Similarity = 0.0236
Similarity = 0.01753
Similarity = 0.01775
Similarity = 0.00725
Similarity = 0.01171
Similarity = 0.01282
Similarity = 0.00646
Similarity = 0.00622
Similarity = 0.00471
Similarity = 0.02585
Similarity = 0.01082
Similarity = 0.02177
Similarity = 0.02261
Similarity = 0.02605
Similarity = 0.01171
Similarity = 0.03116
Similarity = 0.03183
Similarity = 0.01653
Similarity = 0.00926
Similarity = 0.00553
Similarity = 0.01599
Similarity = 0.03015
Similarity = 0.01412
Similarity = 0.01551
Similarity = 0.01757
Similarity = 0.00797
Similarity = 0.00806
Similarity = 0.02404
Similarity = 0.01066
Similarity = 0.00773
Similarity = 0.05447
Similarity = 0.00336
Similarity = 0.01445
Similarity = 0.01794
Similarity = 0.01214
Similarity = 0.00723
Similarity = 0.02374
Similarity = 0.01895
Similarity = 0.02922
Similarity = 0.00741
Similarity = 0.01076
Similarity = 0.04348
Similarity = 0.0082
Similarity = 0.01476
Similarity = 0.02182
Similarity = 0.01748
Similarity = 0.00266
Similarity = 0.00826
Similarity = 0.01128
Similarity = 0.00706
Similarity = 0.03631
Similarity = 0.01584
Similarity = 0.02321
Similarity = 0.02197
Similarity = 0.01873
Similarity = 0.0169
Similarity = 0.01222
Similarity = 0.03013
Similarity = 0.00858
Similarity = 0.01109
Similarity = 0.0093
Similarity = 0.009
Similarity = 0.01017
Similarity = 0.01272
Similarity = 0.00634
Similarity = 0.00714
Similarity = 0.01785
Similarity = 0.00485
Similarity = 0.01167
Similarity = 0.00538
Similarity = 0.00985
Similarity = 0.01384
Similarity = 0.00956
Similarity = 0.02204
Similarity = 0.01138
Similarity = 0.01979
Similarity = 0.0124
Similarity = 0.01031
Similarity = 0.00753
Similarity = 0.00889
Similarity = 0.0129
Similarity = 0.00123
Similarity = 0.00973
Similarity = 0.01305
Similarity = 0.0134
Similarity = 0.00576
Similarity = 0.01944
Similarity = 0.00957
Similarity = 0.01008
Similarity = 0.00994
Similarity = 0.00598
Similarity = 0.02127
Similarity = 0.00439
Similarity = 0.01113
Similarity = 0.00613
Similarity = 0.0097
Similarity = 0.00347
Similarity = 0.00464
Similarity = 0.00597
Similarity = 0.00815
Similarity = 0.0077
Similarity = 0.00622
Similarity = 0.01356
Similarity = 0.01762
Similarity = 0.02753
Similarity = 0.00418
Similarity = 0.00593
Similarity = 0.00981
Similarity = 0.01481
Similarity = 0.01774
Similarity = 0.01395
Similarity = 0.01435
Similarity = 0.01532
Similarity = 0.01876
Similarity = 0.01486
Similarity = 0.00847
Similarity = 0.03568
Similarity = 0.02636
Similarity = 0.00869
Similarity = 0.01675
Similarity = 0.02403
Similarity = 0.01004
Similarity = 0.04853
Similarity = 0.02284
Similarity = 0.03676
Similarity = 0.01898
Similarity = 0.02868
Similarity = 0.02149
Similarity = 0.00506
Similarity = 0.05834
Similarity = 0.01768
Similarity = 0.00866
Similarity = 0.03928
Similarity = 0.02495
Similarity = 0.01346
Similarity = 0.00409
Similarity = 0.02157
Similarity = 0.02888
Similarity = 0.0282
Similarity = 0.00952
Similarity = 0.01437
Similarity = 0.01059
Similarity = 0.01107
Similarity = 0.02534
Similarity = 0.00898
Similarity = 0.02849
Similarity = 0.01328
Similarity = 0.01156
Similarity = 0.00655
Similarity = 0.00828
Similarity = 0.01889
Similarity = 0.01493
Similarity = 0.03486
Similarity = 0.04651
Similarity = 0.03386
Similarity = 0.00819
Similarity = 0.01053
Similarity = 0.00629
Similarity = 0.03921
Similarity = 0.02067
Similarity = 0.05158
Similarity = 0.011
Similarity = 0.02087
Similarity = 0.01895
Similarity = 0.01182
Similarity = 0.01351
Similarity = 0.02967
Similarity = 0.01005
Similarity = 0.01798
Similarity = 0.00702
Similarity = 0.0138
Similarity = 0.00853
Similarity = 0.00778
Similarity = 0.01831
Similarity = 0.02815
Similarity = 0.01745
Similarity = 0.01242
Similarity = 0.02774
Similarity = 0.00743
Similarity = 0.00612
Similarity = 0.02675
Similarity = 0.00805
Similarity = 0.00807
Similarity = 0.01464
Similarity = 0.00829
Similarity = 0.0128
Similarity = 0.00961
Similarity = 0.01567
Similarity = 0.00527
Similarity = 0.00507
Similarity = 0.01169
Similarity = 0.02188
Similarity = 0.0112
Similarity = 0.01328
Similarity = 0.00456
Similarity = 0.00897
Similarity = 0.0215
Similarity = 0.01181
Similarity = 0.0139
Similarity = 0.01045
Similarity = 0.00992
Similarity = 0.01603
Similarity = 0.01455
Similarity = 0.00968
Similarity = 0.03611
Similarity = 0.00838
Similarity = 0.00894
Similarity = 0.01144
Similarity = 0.01414
Similarity = 0.01539
Similarity = 0.00274
Similarity = 0.02281
Similarity = 0.01726
Similarity = 0.02038
Similarity = 0.00325
Similarity = 0.03329
Similarity = 0.01703
Similarity = 0.00992
Similarity = 0.00439
Similarity = 0.00992
Similarity = 0.01432
Similarity = 0.00338
Similarity = 0.00731
Similarity = 0.05186
Similarity = 0.00852
Similarity = 0.00861
Similarity = 0.01966
Similarity = 0.01608
Similarity = 0.02745
Similarity = 0.00703
Similarity = 0.04012
Similarity = 0.01142
Similarity = 0.00865
Similarity = 0.00957
Similarity = 0.01917
Similarity = 0.00518
Similarity = 0.02448
Similarity = 0.01887
Similarity = 0.01481
Similarity = 0.00499
Similarity = 0.02184
Similarity = 0.03715
Similarity = 0.01847
Similarity = 0.01144
Similarity = 0.02023
Similarity = 0.02672
Similarity = 0.00692
Similarity = 0.01213
Similarity = 0.00752
Similarity = 0.00861
Similarity = 0.01113
Similarity = 0.00475
Similarity = 0.02421
Similarity = 0.01334
Similarity = 0.06725
Similarity = 0.02014
Similarity = 0.00332
Similarity = 0.03603
Similarity = 0.00659
Similarity = 0.04344
Similarity = 0.01113
Similarity = 0.00316
Similarity = 0.03314
Similarity = 0.01595
Similarity = 0.00904
Similarity = 0.01017
Similarity = 0.01203
Similarity = 0.01649
Similarity = 0.00498
Similarity = 0.00509
Similarity = 0.00782
Similarity = 0.00303
Similarity = 0.0146
Similarity = 0.0261
Similarity = 0.01704
Similarity = 0.01016
Similarity = 0.01209
Similarity = 0.01019
Similarity = 0.00837
Similarity = 0.00958
Similarity = 0.01982
Similarity = 0.00242
Similarity = 0.0193
Similarity = 0.006
Similarity = 0.00394
Similarity = 0.00188
Similarity = 0.01118
Similarity = 0.01983
Similarity = 0.00614
Similarity = 0.01169
Similarity = 0.00565
Similarity = 0.00858
Similarity = 0.00691
Similarity = 0.00865
Similarity = 0.00595
Similarity = 0.01533
Similarity = 0.00383
Similarity = 0.00775
Similarity = 0.00082
Similarity = 0.009
Similarity = 0.04073
Similarity = 0.02621
Similarity = 0.00891
Similarity = 0.00788
Similarity = 0.00608
Similarity = 0.00759
Similarity = 0.00731
Similarity = 0.01631
Similarity = 0.00935
Similarity = 0.01203
Similarity = 0.00357
Similarity = 0.0023
Similarity = 0.00781
Similarity = 0.00936
Similarity = 0.03521
Similarity = 0.01534
Similarity = 0.00981
Similarity = 0.00904
Similarity = 0.01458
Similarity = 0.00953
Similarity = 0.00633
Similarity = 0.00444
Similarity = 0.01346
Similarity = 0.01703
Similarity = 0.00342
Similarity = 0.00959
Similarity = 0.00368
Similarity = 0.0028
Similarity = 0.01686
Similarity = 0.00493
Similarity = 0.00927
Similarity = 0.00145
Similarity = 0.00318
Similarity = 0.01539
Similarity = 0.00387
Similarity = 0.00415
Similarity = 0.00842
Similarity = 0.01032
Similarity = 0.00763
Similarity = 0.00606
Similarity = 0.01193
Similarity = 0.00979
Similarity = 0.00552
Similarity = 0.00308
Similarity = 0.01292
Similarity = 0.00249
Similarity = 0.00132
Similarity = 0.00608
Similarity = 0.00502
Similarity = 0.00743
Similarity = 0.00472
Similarity = 0.01212
Similarity = 0.00382
Similarity = 0.00385
Similarity = 0.00979
Similarity = 0.01235
Similarity = 0.00402
Similarity = 0.00084
Similarity = 0.00858
Similarity = 0.00867
Similarity = 0.00706
Similarity = 0.0193
Similarity = 0.00571
Similarity = 0.01957
Similarity = 0.00987
Similarity = 0.02728
Similarity = 0.02086
Similarity = 0.00378
Similarity = 0.0115
Similarity = 0.00731
Similarity = 0.00607
Similarity = 0.00212
Similarity = 0.00802
Similarity = 0.02233
Similarity = 0.02172
Similarity = 0.00565
Similarity = 0.01182
Similarity = 0.0446
Similarity = 0.01228
Similarity = 0.03999
Similarity = 0.00865
Similarity = 0.00937
Similarity = 0.02132
Similarity = 0.00931
Similarity = 0.01794
Similarity = 0.00333
Similarity = 0.00476
Similarity = 0.01334
Similarity = 0.03268
Similarity = 0.01527
Similarity = 0.00872
Similarity = 0.0057
Similarity = 0.00635
Similarity = 0.03732
Similarity = 0.00534
Similarity = 0.01017
Similarity = 0.00825
Similarity = 0.00897
Similarity = 0.01285
Similarity = 0.00577
Similarity = 0.01189
Similarity = 0.01226
Similarity = 0.02522
Similarity = 0.00778
Similarity = 0.0096
Similarity = 0.00698
Similarity = 0.00972
Similarity = 0.01491
Similarity = 0.01118
Similarity = 0.01545
Similarity = 0.02117
Similarity = 0.012
Similarity = 0.00804
Similarity = 0.01895
Similarity = 0.0059
Similarity = 0.01034
Similarity = 0.0064
Similarity = 0.02027
Similarity = 0.02075
Similarity = 0.0082
Similarity = 0.00508
Similarity = 0.00516
Similarity = 0.01029
Similarity = 0.01431
Similarity = 0.00322
Similarity = 0.00711
Similarity = 0.00281
Similarity = 0.00641
Similarity = 0.02119
Similarity = 0.01471
Similarity = 0.00724
Similarity = 0.00298
Similarity = 0.00778
Similarity = 0.00183
Similarity = 0.00485
Similarity = 0.00664
Similarity = 0.00763
Similarity = 0.00645
Similarity = 0.01564
Similarity = 0.00619
Similarity = 0.00911
Similarity = 0.00886
Similarity = 0.0078
Similarity = 0.00437
Similarity = 0.01639
Similarity = 0.00969
Similarity = 0.00317
Similarity = 0.0103
Similarity = 0.01496
Similarity = 0.00918
Similarity = 0.00957
Similarity = 0.0084
Similarity = 0.01107
Similarity = 0.00306
Similarity = 0.00517
Similarity = 0.00972
Similarity = 0.00464
Similarity = 0.00548
Similarity = 0.00662
Similarity = 0.00885
Similarity = 0.00755
Similarity = 0.01303
Similarity = 0.00428
Similarity = 0.02924
Similarity = 0.01043
Similarity = 0.00523
Similarity = 0.01659
Similarity = 0.0078
Similarity = 0.00537
Similarity = 0.00757
Similarity = 0.00592
Similarity = 0.00561
Similarity = 0.01064
Similarity = 0.01608
Similarity = 0.01544
Similarity = 0.0215
Similarity = 0.00992
Similarity = 0.01353
Similarity = 0.00631
Similarity = 0.02354
Similarity = 0.01996
Similarity = 0.00793
Similarity = 0.0058
Similarity = 0.00557
Similarity = 0.00778
Similarity = 0.00311
Similarity = 0.01168
Similarity = 0.01002
Similarity = 0.00568
Similarity = 0.01001
Similarity = 0.01237
Similarity = 0.01268
Similarity = 0.00653
Similarity = 0.01137
Similarity = 0.0047
Similarity = 0.01107
Similarity = 0.02838
Similarity = 0.00935
Similarity = 0.00712
Similarity = 0.00564
Similarity = 0.02238
Similarity = 0.02977
Similarity = 0.01714
Similarity = 0.01091
Similarity = 0.01371
Similarity = 0.00948
Similarity = 0.00177
Similarity = 0.00234
Similarity = 0.01034
Similarity = 0.01742
Similarity = 0.0124
Similarity = 0.0032
Similarity = 0.00446
Similarity = 0.00759
Similarity = 0.00718
Similarity = 0.01025
Similarity = 0.01166
Similarity = 0.0028
Similarity = 0.01116
Similarity = 0.00269
Similarity = 0.00412
Similarity = 0.00321
Similarity = 0.00724
Similarity = 0.00545
Similarity = 0.00774
Similarity = 0.01044
Similarity = 0.00695
Similarity = 0.00618
Similarity = 0.00885
Similarity = 0.00826
Similarity = 0.01103
Similarity = 0.00274
Similarity = 0.0047
Similarity = 0.0009
Similarity = 0.00423
Similarity = 0.00394
Similarity = 0.00943
Similarity = 0.00836
Similarity = 0.00778
Similarity = 0.00332
Similarity = 0.00284
Similarity = 0.00535
Similarity = 0.00465
Similarity = 0.00423
Similarity = 0.00259
Similarity = 0.00244
Similarity = 0.00297
Similarity = 0.00221
Similarity = 0.00334
Similarity = 0.00365
Similarity = 0.00802
Similarity = 0.00452
Similarity = 0.01555
Similarity = 0.0065
Similarity = 0.00721
Similarity = 0.00185
Similarity = 0.00366
Similarity = 0.00563
Similarity = 0.00547
Similarity = 0.00589
Similarity = 0.00387
Similarity = 0.00539
Similarity = 0.01827
Similarity = 0.02078
Similarity = 0.02812
Similarity = 0.01178
Similarity = 0.0189
Similarity = 0.02198
Similarity = 0.01989
Similarity = 0.01109
Similarity = 0.00883
Similarity = 0.0047
Similarity = 0.06695
Similarity = 0.01741
Similarity = 0.01788
Similarity = 0.0218
Similarity = 0.01205
Similarity = 0.01131
Similarity = 0.00787
Similarity = 0.02237
Similarity = 0.02133
Similarity = 0.00814
Similarity = 0.00935
Similarity = 0.01557
Similarity = 0.00631
Similarity = 0.01005
Similarity = 0.01688
Similarity = 0.01999
Similarity = 0.02927
Similarity = 0.01239
Similarity = 0.01033
Similarity = 0.01644
Similarity = 0.01154
Similarity = 0.00532
Similarity = 0.00443
Similarity = 0.02937
Similarity = 0.00821
Similarity = 0.00888
Similarity = 0.01558
Similarity = 0.00436
Similarity = 0.0106
Similarity = 0.01075
Similarity = 0.01183
Similarity = 0.00663
Similarity = 0.01483
Similarity = 0.01048
Similarity = 0.00573
Similarity = 0.00419
Similarity = 0.01527
Similarity = 0.01955
Similarity = 0.0078
Similarity = 0.01518
Similarity = 0.01034
Similarity = 0.01687
Similarity = 0.0069
Similarity = 0.01282
Similarity = 0.02717
Similarity = 0.0171
Similarity = 0.00603
Similarity = 0.00552
Similarity = 0.00534
Similarity = 0.01275
Similarity = 0.00628
Similarity = 0.02162
Similarity = 0.01335
Similarity = 0.00671
Similarity = 0.01072
Similarity = 0.02561
Similarity = 0.00881
Similarity = 0.01006
Similarity = 0.01414
Similarity = 0.0066
Similarity = 0.01168
Similarity = 0.00599
Similarity = 0.01136
Similarity = 0.00429
Similarity = 0.00749
Similarity = 0.02935
Similarity = 0.01201
Similarity = 0.01056
Similarity = 0.00807
Similarity = 0.01833
Similarity = 0.00783
Similarity = 0.01096
Similarity = 0.01204
Similarity = 0.01008
Similarity = 0.00497
Similarity = 0.00792
Similarity = 0.00567
Similarity = 0.01507
Similarity = 0.01752
Similarity = 0.00979
Similarity = 0.02291
Similarity = 0.00533
Similarity = 0.04014
Similarity = 0.01657
Similarity = 0.00651
Similarity = 0.00581
Similarity = 0.01627
Similarity = 0.01157
Similarity = 0.00869
Similarity = 0.00793
Similarity = 0.0088
Similarity = 0.01993
Similarity = 0.00887
Similarity = 0.00896
Similarity = 0.01262
Similarity = 0.00667
Similarity = 0.02807
Similarity = 0.0034
Similarity = 0.00808
Similarity = 0.02727
Similarity = 0.00822
Similarity = 0.01099
Similarity = 0.01307
Similarity = 0.00838
Similarity = 0.01893
Similarity = 0.02384
Similarity = 0.00586
Similarity = 0.01322
Similarity = 0.01082
Similarity = 0.01594
Similarity = 0.00514
Similarity = 0.00633
Similarity = 0.00547
Similarity = 0.00489
Similarity = 0.00791
Similarity = 0.01774
Similarity = 0.02624
Similarity = 0.00579
Similarity = 0.00798
Similarity = 0.01187
Similarity = 0.0074
Similarity = 0.01157
Similarity = 0.00513
Similarity = 0.00922
Similarity = 0.00374
Similarity = 0.00856
Similarity = 0.00194
Similarity = 0.00287
Similarity = 0.01164
Similarity = 0.0031
Similarity = 0.01852
Similarity = 0.00898
Similarity = 0.01574
Similarity = 0.00169
Similarity = 0.00291
Similarity = 0.00527
Similarity = 0.00442
Similarity = 0.01301
Similarity = 0.0119
Similarity = 0.01316
Similarity = 0.01456
Similarity = 0.01503
Similarity = 0.02511
Similarity = 0.0696
Similarity = 0.02171
Similarity = 0.02069
Similarity = 0.03298
Similarity = 0.0141
Similarity = 0.01086
Similarity = 0.01927
Similarity = 0.02937
Similarity = 0.0297
Similarity = 0.02013
Similarity = 0.00776
Similarity = 0.01086
Similarity = 0.01387
Similarity = 0.01614
Similarity = 0.0149
Similarity = 0.03323
Similarity = 0.03793
Similarity = 0.03027
Similarity = 0.01539
Similarity = 0.01683
Similarity = 0.04912
Similarity = 0.03181
Similarity = 0.01493
Similarity = 0.02181
Similarity = 0.00878
Similarity = 0.01333
Similarity = 0.03199
Similarity = 0.02197
Similarity = 0.03006
Similarity = 0.01225
Similarity = 0.0346
Similarity = 0.01147
Similarity = 0.00985
Similarity = 0.01748
Similarity = 0.00797
Similarity = 0.01007
Similarity = 0.01126
Similarity = 0.01387
Similarity = 0.05563
Similarity = 0.01102
Similarity = 0.02945
Similarity = 0.00814
Similarity = 0.03629
Similarity = 0.05751
Similarity = 0.02255
Similarity = 0.08005
Similarity = 0.00834
Similarity = 0.00592
Similarity = 0.01182
Similarity = 0.01046
Similarity = 0.00643
Similarity = 0.01112
Similarity = 0.00778
Similarity = 0.00503
Similarity = 0.0187
Similarity = 0.00282
Similarity = 0.00817
Similarity = 0.00455
Similarity = 0.00375
Similarity = 0.00497
Similarity = 0.00496
Similarity = 0.00294
Similarity = 0.01082
Similarity = 0.00674
Similarity = 0.00592
Similarity = 0.00733
Similarity = 0.00461
Similarity = 0.01126
Similarity = 0.00503
Similarity = 0.00094
Similarity = 0.00432
Similarity = 0.0103
Similarity = 0.00795
Similarity = 0.00538
Similarity = 0.0118
Similarity = 0.00903
Similarity = 0.00459
Similarity = 0.00732
Similarity = 0.0032
Similarity = 0.00555
Similarity = 0.00723
Similarity = 0.0058
Similarity = 0.00609
Similarity = 0.00579
Similarity = 0.00311
Similarity = 0.03419
Similarity = 0.00779
Similarity = 0.02539
Similarity = 0.01556
Similarity = 0.00356
Similarity = 0.00812
Similarity = 0.00233
Similarity = 0.01455
Similarity = 0.01833
Similarity = 0.00678
Similarity = 0.01731
Similarity = 0.01524
Similarity = 0.00643
Similarity = 0.02091
Similarity = 0.00811
Similarity = 0.01622
Similarity = 0.01322
Similarity = 0.0147
Similarity = 0.00701
Similarity = 0.00932
Similarity = 0.00887
Similarity = 0.00618
Similarity = 0.01916
Similarity = 0.01162
Similarity = 0.01493
Similarity = 0.01005
Similarity = 0.00999
Similarity = 0.01951
Similarity = 0.02499
Similarity = 0.01158
Similarity = 0.02088
Similarity = 0.01164
Similarity = 0.0099
Similarity = 0.00472
Similarity = 0.01527
Similarity = 0.00848
Similarity = 0.00782
Similarity = 0.02324
Similarity = 0.02631
Similarity = 0.02139
Similarity = 0.02923
Similarity = 0.02213
Similarity = 0.0082
Similarity = 0.00889
Similarity = 0.00459
Similarity = 0.00798
Similarity = 0.00803
Similarity = 0.0136
Similarity = 0.00933
Similarity = 0.00877
Similarity = 0.02511
Similarity = 0.01575
Similarity = 0.01535
Similarity = 0.01625
Similarity = 0.0128
Similarity = 0.03511
Similarity = 0.00552
Similarity = 0.01263
Similarity = 0.00668
Similarity = 0.02255
Similarity = 0.00372
Similarity = 0.01641
Similarity = 0.02341
Similarity = 0.01981
Similarity = 0.01103
Similarity = 0.02754
Similarity = 0.03048
Similarity = 0.02447
Similarity = 0.02499
Similarity = 0.01167
Similarity = 0.01209
Similarity = 0.00763
Similarity = 0.01458
Similarity = 0.02368
Similarity = 0.03794
Similarity = 0.01815
Similarity = 0.01122
Similarity = 0.03439
Similarity = 0.01406
Similarity = 0.02799
Similarity = 0.01959
Similarity = 0.0138
Similarity = 0.01674
Similarity = 0.00913
Similarity = 0.01792
Similarity = 0.00725
Similarity = 0.02725
Similarity = 0.03508
Similarity = 0.02869
Similarity = 0.00983
Similarity = 0.0154
Similarity = 0.01
Similarity = 0.01239
Similarity = 0.02785
Similarity = 0.01211
Similarity = 0.0377
Similarity = 0.01188
Similarity = 0.02325
Similarity = 0.00843
Similarity = 0.00947
Similarity = 0.02672
Similarity = 0.01455
Similarity = 0.03144
Similarity = 0.01185
Similarity = 0.02289
Similarity = 0.01789
Similarity = 0.01968
Similarity = 0.01153
Similarity = 0.01722
Similarity = 0.02219
Similarity = 0.00847
Similarity = 0.00795
Similarity = 0.01665
Similarity = 0.02125
Similarity = 0.01604
Similarity = 0.00756
Similarity = 0.02061
Similarity = 0.00625
Similarity = 0.01122
Similarity = 0.011
Similarity = 0.01159
Similarity = 0.00624
Similarity = 0.02646
Similarity = 0.00803
Similarity = 0.01454
Similarity = 0.00897
Similarity = 0.00628
Similarity = 0.0185
Similarity = 0.01632
Similarity = 0.0173
Similarity = 0.01241
Similarity = 0.00761
Similarity = 0.00995
Similarity = 0.01164
Similarity = 0.01048
Similarity = 0.00497
Similarity = 0.01884
Similarity = 0.00693
Similarity = 0.01032
Similarity = 0.01247
Similarity = 0.01077
Similarity = 0.01407
Similarity = 0.01097
Similarity = 0.01179
Similarity = 0.01654
Similarity = 0.00643
Similarity = 0.00353
Similarity = 0.01217
Similarity = 0.0078
Similarity = 0.00802
Similarity = 0.00707
Similarity = 0.03527
Similarity = 0.00621
Similarity = 0.0046
Similarity = 0.01921
Similarity = 0.00322
Similarity = 0.01077
Similarity = 0.01106
Similarity = 0.02906
Similarity = 0.01399
Similarity = 0.00678
Similarity = 0.00543
Similarity = 0.0051
Similarity = 0.00861
Similarity = 0.00343
Similarity = 0.00428
Similarity = 0.01854
Similarity = 0.00384
Similarity = 0.00269
Similarity = 0.00214
Similarity = 0.00218
Similarity = 0.00512
Similarity = 0.01787
Similarity = 0.00373
Similarity = 0.00779
Similarity = 0.01676
Similarity = 0.00207
Similarity = 0.00911
Similarity = 0.00494
Similarity = 0.00353
Similarity = 0.00424
Similarity = 0.00444
Similarity = 0.00554
Similarity = 0.00329
Similarity = 0.00389
Similarity = 0.00692
Similarity = 0.00916
Similarity = 0.00694
Similarity = 0.00486
Similarity = 0.00327
Similarity = 0.00673
Similarity = 0.01229
Similarity = 0.00692
Similarity = 0.00385
Similarity = 0.00261
Similarity = 0.01218
Similarity = 0.00151
Similarity = 0.00603
Similarity = 0.00738
Similarity = 0.00319
Similarity = 0.0209
Similarity = 0.01443
Similarity = 0.01764
Similarity = 0.00486
Similarity = 0.00785
Similarity = 0.00316
Similarity = 0.00176
Similarity = 0.00336
Similarity = 0.0056
Similarity = 0.01862
Similarity = 0.00377
Similarity = 0.00948
Similarity = 0.02758
Similarity = 0.00902
Similarity = 0.01629
Similarity = 0.03195
Similarity = 0.01352
Similarity = 0.00408
Similarity = 0.0546
Similarity = 0.00645
Similarity = 0.00862
Similarity = 0.00462
Similarity = 0.02052
Similarity = 0.00572
Similarity = 0.01063
Similarity = 0.01416
Similarity = 0.00654
Similarity = 0.00928
Similarity = 0.05686
Similarity = 0.03491
Similarity = 0.00795
Similarity = 0.16612
Similarity = 0.02454
Similarity = 0.01004
Similarity = 0.00325
Similarity = 0.0021
Similarity = 0.03253
Similarity = 0.01081
Similarity = 0.012
Similarity = 0.056
Similarity = 0.02642
Similarity = 0.00641
Similarity = 0.00521
Similarity = 0.02319
Similarity = 0.01051
Similarity = 0.00914
Similarity = 0.00483
Similarity = 0.00834
Similarity = 0.01165
Similarity = 0.00583
Similarity = 0.0052
Similarity = 0.0257
Similarity = 0.00902
Similarity = 0.01878
Similarity = 0.00905
Similarity = 0.04186
Similarity = 0.05219
Similarity = 0.0241
Similarity = 0.00806
Similarity = 0.00906
Similarity = 0.03512
Similarity = 0.00837
Similarity = 0.02544
Similarity = 0.01099
Similarity = 0.01097
Similarity = 0.01169
Similarity = 0.0095
Similarity = 0.00778
Similarity = 0.00945
Similarity = 0.00598
Similarity = 0.0097
Similarity = 0.01677
Similarity = 0.02192
Similarity = 0.02815
Similarity = 0.01335
Similarity = 0.0099
Similarity = 0.00401
Similarity = 0.00873
Similarity = 0.01036
Similarity = 0.01099
Similarity = 0.01984
Similarity = 0.00976
Similarity = 0.01278
Similarity = 0.00718
Similarity = 0.01882
Similarity = 0.00271
Similarity = 0.00103
Similarity = 0.02079
Similarity = 0.00815
Similarity = 0.0065
Similarity = 0.00875
Similarity = 0.01238
Similarity = 0.00687
Similarity = 0.02016
Similarity = 0.0072
Similarity = 0.01736
Similarity = 0.01775
Similarity = 0.0069
Similarity = 0.01082
Similarity = 0.00274
Similarity = 0.01871
Similarity = 0.03034
Similarity = 0.01598
Similarity = 0.00253
Similarity = 0.01674
Similarity = 0.01457
Similarity = 0.00239
Similarity = 0.01065
Similarity = 0.01375
Similarity = 0.01106
Similarity = 0.00558
Similarity = 0.01394
Similarity = 0.01823
Similarity = 0.03764
Similarity = 0.01697
Similarity = 0.03074
Similarity = 0.02482
Similarity = 0.00619
Similarity = 0.01077
Similarity = 0.01759
Similarity = 0.01598
Similarity = 0.00901
Similarity = 0.00664
Similarity = 0.03162
Similarity = 0.01041
Similarity = 0.01
Similarity = 0.0142
Similarity = 0.01406
Similarity = 0.00623
Similarity = 0.01149
Similarity = 0.01452
Similarity = 0.00566
Similarity = 0.00856
Similarity = 0.00855
Similarity = 0.01057
Similarity = 0.01159
Similarity = 0.01698
Similarity = 0.00825
Similarity = 0.01329
Similarity = 0.01311
Similarity = 0.01499
Similarity = 0.01476
Similarity = 0.00646
Similarity = 0.01245
Similarity = 0.00701
Similarity = 0.01176
Similarity = 0.00509
Similarity = 0.00292
Similarity = 0.00136
Similarity = 0.00354
Similarity = 0.013
Similarity = 0.00626
Similarity = 0.01717
Similarity = 0.0065
Similarity = 0.0243
Similarity = 0.01906
Similarity = 0.0046
Similarity = 0.0093
Similarity = 0.0059
Similarity = 0.02107
Similarity = 0.01141
Similarity = 0.00495
Similarity = 0.00727
Similarity = 0.01089
Similarity = 0.02087
Similarity = 0.00531
Similarity = 0.00716
Similarity = 0.01
Similarity = 0.02268
Similarity = 0.01221
Similarity = 0.0067
Similarity = 0.03566
Similarity = 0.01069
Similarity = 0.00512
Similarity = 0.00537
Similarity = 0.00781
Similarity = 0.00247
Similarity = 0.00658
Similarity = 0.00913
Similarity = 0.01536
Similarity = 0.00559
Similarity = 0.0041
Similarity = 0.00569
Similarity = 0.01427
Similarity = 0.00467
Similarity = 0.00574
Similarity = 0.00449
Similarity = 0.00619
Similarity = 0.01371
Similarity = 0.00373
Similarity = 0.00526
Similarity = 0.01214
Similarity = 0.01131
Similarity = 0.00675
Similarity = 0.00557
Similarity = 0.00918
Similarity = 0.00739
Similarity = 0.00685
Similarity = 0.00693
Similarity = 0.0038
Similarity = 0.02591
Similarity = 0.00492
Similarity = 0.00663
Similarity = 0.00453
Similarity = 0.00513
Similarity = 0.00451
Similarity = 0.00628
Similarity = 0.00429
Similarity = 0.02338
Similarity = 0.00788
Similarity = 0.022
Similarity = 0.01967
Similarity = 0.01654
Similarity = 0.01077
Similarity = 0.03337
Similarity = 0.01813
Similarity = 0.01713
Similarity = 0.00585
Similarity = 0.02106
Similarity = 0.02044
Similarity = 0.00764
Similarity = 0.00801
Similarity = 0.03318
Similarity = 0.0138
Similarity = 0.01267
Similarity = 0.11981
Similarity = 0.00514
Similarity = 0.00858
Similarity = 0.07586
Similarity = 0.03311
Similarity = 0.0147
Similarity = 0.02312
Similarity = 0.11117
Similarity = 0.01416
Similarity = 0.01011
Similarity = 0.00797
Similarity = 0.0192
Similarity = 0.02191
Similarity = 0.02122
Similarity = 0.0556
Similarity = 0.02233
Similarity = 0.01558
Similarity = 0.01832
Similarity = 0.02068
Similarity = 0.01618
Similarity = 0.00934
Similarity = 0.00395
Similarity = 0.02774
Similarity = 0.01636
Similarity = 0.01379
Similarity = 0.00455
Similarity = 0.01438
Similarity = 0.00792
Similarity = 0.04632
Similarity = 0.01431
Similarity = 0.02491
Similarity = 0.01895
Similarity = 0.02531
Similarity = 0.03361
Similarity = 0.02337
Similarity = 0.04077
Similarity = 0.02916
Similarity = 0.01669
Similarity = 0.0207
Similarity = 0.00793
Similarity = 0.02531
Similarity = 0.01339
Similarity = 0.01318
Similarity = 0.01089
Similarity = 0.01029
Similarity = 0.00954
Similarity = 0.00378
Similarity = 0.00855
Similarity = 0.03687
Similarity = 0.01214
Similarity = 0.01229
Similarity = 0.00952
Similarity = 0.02353
Similarity = 0.01613
Similarity = 0.01019
Similarity = 0.03132
Similarity = 0.01794
Similarity = 0.00629
Similarity = 0.00678
Similarity = 0.00244
Similarity = 0.02341
Similarity = 0.02103
Similarity = 0.01231
Similarity = 0.00788
Similarity = 0.01594
Similarity = 0.01241
Similarity = 0.01123
Similarity = 0.0075
Similarity = 0.00547
Similarity = 0.01241
Similarity = 0.02485
Similarity = 0.02123
Similarity = 0.01735
Similarity = 0.0143
Similarity = 0.00196
Similarity = 0.00937
Similarity = 0.01155
Similarity = 0.0184
Similarity = 0.01051
Similarity = 0.0169
Similarity = 0.01314
Similarity = 0.0029
Similarity = 0.00956
Similarity = 0.004
Similarity = 0.01411
Similarity = 0.02263
Similarity = 0.01279
Similarity = 0.0084
Similarity = 0.0121
Similarity = 0.0517
Similarity = 0.00925
Similarity = 0.00761
Similarity = 0.01564
Similarity = 0.02504
Similarity = 0.02998
Similarity = 0.0073
Similarity = 0.05827
Similarity = 0.01854
Similarity = 0.02061
Similarity = 0.00948
Similarity = 0.0125
Similarity = 0.01289
Similarity = 0.01245
Similarity = 0.01007
Similarity = 0.02554
Similarity = 0.01665
Similarity = 0.03748
Similarity = 0.0232
Similarity = 0.03916
Similarity = 0.02542
Similarity = 0.05689
Similarity = 0.00919
Similarity = 0.02015
Similarity = 0.00874
Similarity = 0.00526
Similarity = 0.00991
Similarity = 0.01558
Similarity = 0.04128
Similarity = 0.02051
Similarity = 0.00927
Similarity = 0.02082
Similarity = 0.01196
Similarity = 0.01091
Similarity = 0.01967
Similarity = 0.00467
Similarity = 0.0112
Similarity = 0.02777
Similarity = 0.00979
Similarity = 0.02909
Similarity = 0.01989
Similarity = 0.01494
Similarity = 0.00834
Similarity = 0.00709
Similarity = 0.04185
Similarity = 0.02361
Similarity = 0.05191
0.013022548000000023
