Files are arxiv_abs/hep-th.updates.on.arXiv.org  arxiv_abs/math.updates.on.arXiv.org
Similarity = 0.01255
Similarity = 0.00631
Similarity = 0.01994
Similarity = 0.02708
Similarity = 0.00632
Similarity = 0.1658
Similarity = 0.00811
Similarity = 0.02016
Similarity = 0.00142
Similarity = 0.01284
Similarity = 0.00641
Similarity = 0.00709
Similarity = 0.0185
Similarity = 0.00454
Similarity = 0.01558
Similarity = 0.00551
Similarity = 0.00656
Similarity = 0.02057
Similarity = 0.00161
Similarity = 0.00426
Similarity = 0.02985
Similarity = 0.02164
Similarity = 0.00344
Similarity = 0.01614
Similarity = 0.01208
Similarity = 0.04124
Similarity = 0.00802
Similarity = 0.01275
Similarity = 0.01253
Similarity = 0.03603
Similarity = 0.02964
Similarity = 0.10353
Similarity = 0.00335
Similarity = 0.00932
Similarity = 0.00551
Similarity = 0.01201
Similarity = 0.00651
Similarity = 0.03664
Similarity = 0.00534
Similarity = 0.00702
Similarity = 0.0496
Similarity = 0.01063
Similarity = 0.01588
Similarity = 0.00772
Similarity = 0.00955
Similarity = 0.01148
Similarity = 0.03417
Similarity = 0.00997
Similarity = 0.01054
Similarity = 0.02286
Similarity = 0.00849
Similarity = 0.01265
Similarity = 0.03039
Similarity = 0.01358
Similarity = 0.01056
Similarity = 0.01183
Similarity = 0.00923
Similarity = 0.03657
Similarity = 0.00092
Similarity = 0.00594
Similarity = 0.01065
Similarity = 0.01176
Similarity = 0.01365
Similarity = 0.00705
Similarity = 0.00236
Similarity = 0.0202
Similarity = 0.01573
Similarity = 0.01316
Similarity = 0.00519
Similarity = 0.00538
Similarity = 0.01677
Similarity = 0.00317
Similarity = 0.0202
Similarity = 0.01288
Similarity = 0.00947
Similarity = 0.0262
Similarity = 0.0389
Similarity = 0.01471
Similarity = 0.02851
Similarity = 0.02244
Similarity = 0.03589
Similarity = 0.14634
Similarity = 0.00436
Similarity = 0.00936
Similarity = 0.0125
Similarity = 0.02232
Similarity = 0.00631
Similarity = 0.03838
Similarity = 0.01353
Similarity = 0.00948
Similarity = 0.03272
Similarity = 0.00744
Similarity = 0.01822
Similarity = 0.01323
Similarity = 0.03178
Similarity = 0.02787
Similarity = 0.01365
Similarity = 0.01205
Similarity = 0.00662
Similarity = 0.02257
Similarity = 0.0107
Similarity = 0.01316
Similarity = 0.0094
Similarity = 0.03086
Similarity = 0.01986
Similarity = 0.01334
Similarity = 0.01863
Similarity = 0.02055
Similarity = 0.00869
Similarity = 0.01597
Similarity = 0.01036
Similarity = 0.0047
Similarity = 0.01358
Similarity = 0.03305
Similarity = 0.00273
Similarity = 0.01293
Similarity = 0.0169
Similarity = 0.00964
Similarity = 0.00928
Similarity = 0.00769
Similarity = 0.01265
Similarity = 0.01148
Similarity = 0.00908
Similarity = 0.0127
Similarity = 0.00709
Similarity = 0.0098
Similarity = 0.03306
Similarity = 0.03909
Similarity = 0.02273
Similarity = 0.01379
Similarity = 0.06943
Similarity = 0.02665
Similarity = 0.0149
Similarity = 0.0056
Similarity = 0.02841
Similarity = 0.02859
Similarity = 0.01231
Similarity = 0.20681
Similarity = 0.01983
Similarity = 0.00438
Similarity = 0.01956
Similarity = 0.01228
Similarity = 0.0238
Similarity = 0.01965
Similarity = 0.02111
Similarity = 0.04487
Similarity = 0.02111
Similarity = 0.00902
Similarity = 0.03396
Similarity = 0.0346
Similarity = 0.01216
Similarity = 0.04763
Similarity = 0.07921
Similarity = 0.01556
Similarity = 0.01938
Similarity = 0.09946
Similarity = 0.04349
Similarity = 0.06507
Similarity = 0.00278
Similarity = 0.04069
Similarity = 0.01051
Similarity = 0.0269
Similarity = 0.03467
Similarity = 0.01196
Similarity = 0.00886
Similarity = 0.02178
Similarity = 0.02147
Similarity = 0.02042
Similarity = 0.00843
Similarity = 0.01223
Similarity = 0.04068
Similarity = 0.02534
Similarity = 0.01911
Similarity = 0.02452
Similarity = 0.02485
Similarity = 0.02521
Similarity = 0.08907
Similarity = 0.02493
Similarity = 0.03571
Similarity = 0.02197
Similarity = 0.03491
Similarity = 0.05527
Similarity = 0.00224
Similarity = 0.00793
Similarity = 0.03064
Similarity = 0.04061
Similarity = 0.01243
Similarity = 0.00865
Similarity = 0.02125
Similarity = 0.01784
Similarity = 0.04146
Similarity = 0.00644
Similarity = 0.07409
Similarity = 0.02293
Similarity = 0.03078
Similarity = 0.01898
Similarity = 0.04864
Similarity = 0.02402
Similarity = 0.02296
Similarity = 0.0827
Similarity = 0.00598
Similarity = 0.01243
Similarity = 0.02045
Similarity = 0.01863
Similarity = 0.02609
Similarity = 0.01796
Similarity = 0.01914
Similarity = 0.03437
Similarity = 0.00962
Similarity = 0.01657
Similarity = 0.00383
Similarity = 0.02032
Similarity = 0.01259
Similarity = 0.01775
Similarity = 0.00633
Similarity = 0.01983
Similarity = 0.01155
Similarity = 0.01442
Similarity = 0.00929
Similarity = 0.01007
Similarity = 0.02243
Similarity = 0.01418
Similarity = 0.01288
Similarity = 0.01425
Similarity = 0.00928
Similarity = 0.01969
Similarity = 0.02363
Similarity = 0.02803
Similarity = 0.02002
Similarity = 0.01235
Similarity = 0.03074
Similarity = 0.04806
Similarity = 0.01805
Similarity = 0.01625
Similarity = 0.02918
Similarity = 0.00925
Similarity = 0.0225
Similarity = 0.039
Similarity = 0.01045
Similarity = 0.00947
Similarity = 0.01815
Similarity = 0.01112
Similarity = 0.03166
Similarity = 0.03044
Similarity = 0.01588
Similarity = 0.04198
Similarity = 0.03169
Similarity = 0.02037
Similarity = 0.01263
Similarity = 0.03487
Similarity = 0.01246
Similarity = 0.02362
Similarity = 0.01432
Similarity = 0.01906
Similarity = 0.05024
Similarity = 0.02967
Similarity = 0.02647
Similarity = 0.03448
Similarity = 0.19948
Similarity = 0.06486
Similarity = 0.03243
Similarity = 0.01601
Similarity = 0.00472
Similarity = 0.07414
Similarity = 0.01035
Similarity = 0.00507
Similarity = 0.02108
Similarity = 0.03964
Similarity = 0.03755
Similarity = 0.01943
Similarity = 0.0136
Similarity = 0.17556
Similarity = 0.04152
Similarity = 0.01995
Similarity = 0.03457
Similarity = 0.0242
Similarity = 0.0394
Similarity = 0.02386
Similarity = 0.02121
Similarity = 0.03292
Similarity = 0.04818
Similarity = 0.01957
Similarity = 0.10651
Similarity = 0.11611
Similarity = 0.16579
Similarity = 0.01732
Similarity = 0.05959
Similarity = 0.0141
Similarity = 0.00953
Similarity = 0.02662
Similarity = 0.02419
Similarity = 0.01844
Similarity = 0.06036
Similarity = 0.02591
Similarity = 0.0407
Similarity = 0.01868
Similarity = 0.01813
Similarity = 0.01155
Similarity = 0.02573
Similarity = 0.05497
Similarity = 0.02322
Similarity = 0.02467
Similarity = 0.08483
Similarity = 0.02753
Similarity = 0.03119
Similarity = 0.034
Similarity = 0.0413
Similarity = 0.10598
Similarity = 0.06606
Similarity = 0.1089
Similarity = 0.01289
Similarity = 0.01725
Similarity = 0.01573
Similarity = 0.07082
Similarity = 0.00612
Similarity = 0.018
Similarity = 0.03091
Similarity = 0.05516
Similarity = 0.01997
Similarity = 0.01211
Similarity = 0.03261
Similarity = 0.04598
Similarity = 0.08057
Similarity = 0.01164
Similarity = 0.02413
Similarity = 0.04285
Similarity = 0.05535
Similarity = 0.03077
Similarity = 0.08381
Similarity = 0.03885
Similarity = 0.09127
Similarity = 0.05364
Similarity = 0.03053
Similarity = 0.11373
Similarity = 0.03476
Similarity = 0.04587
Similarity = 0.0422
Similarity = 0.06987
Similarity = 0.01897
Similarity = 0.03856
Similarity = 0.0679
Similarity = 0.02436
Similarity = 0.03599
Similarity = 0.03702
Similarity = 0.06377
Similarity = 0.04894
Similarity = 0.0287
Similarity = 0.0218
Similarity = 0.02292
Similarity = 0.10354
Similarity = 0.00477
Similarity = 0.01633
Similarity = 0.02336
Similarity = 0.00817
Similarity = 0.06385
Similarity = 0.00954
Similarity = 0.0108
Similarity = 0.02425
Similarity = 0.05144
Similarity = 0.06306
Similarity = 0.00583
Similarity = 0.01523
Similarity = 0.0151
Similarity = 0.02514
Similarity = 0.01998
Similarity = 0.01548
Similarity = 0.02627
Similarity = 0.05045
Similarity = 0.02562
Similarity = 0.02904
Similarity = 0.01319
Similarity = 0.03851
Similarity = 0.08296
Similarity = 0.02248
Similarity = 0.00201
Similarity = 0.00272
Similarity = 0.01674
Similarity = 0.03536
Similarity = 0.00765
Similarity = 0.02057
Similarity = 0.04727
Similarity = 0.02044
Similarity = 0.09725
Similarity = 0.07955
Similarity = 0.01861
Similarity = 0.01482
Similarity = 0.03959
Similarity = 0.06255
Similarity = 0.0068
Similarity = 0.02168
Similarity = 0.01421
Similarity = 0.02566
Similarity = 0.05216
Similarity = 0.00443
Similarity = 0.06299
Similarity = 0.00676
Similarity = 0.04111
Similarity = 0.00462
Similarity = 0.01851
Similarity = 0.02591
Similarity = 0.01177
Similarity = 0.01744
Similarity = 0.02126
Similarity = 0.01662
Similarity = 0.00782
Similarity = 0.01814
Similarity = 0.02037
Similarity = 0.04308
Similarity = 0.00629
Similarity = 0.0157
Similarity = 0.01214
Similarity = 0.01015
Similarity = 0.00832
Similarity = 0.01699
Similarity = 0.02118
Similarity = 0.01716
Similarity = 0.02106
Similarity = 0.00593
Similarity = 0.01032
Similarity = 0.01279
Similarity = 0.01805
Similarity = 0.03011
Similarity = 0.02974
Similarity = 0.02554
Similarity = 0.01115
Similarity = 0.01027
Similarity = 0.01444
Similarity = 0.02671
Similarity = 0.01172
Similarity = 0.03854
Similarity = 0.01838
Similarity = 0.04845
Similarity = 0.02047
Similarity = 0.00843
Similarity = 0.03637
Similarity = 0.02579
Similarity = 0.0229
Similarity = 0.02147
Similarity = 0.01398
Similarity = 0.01948
Similarity = 0.02169
Similarity = 0.02825
Similarity = 0.02844
Similarity = 0.02837
Similarity = 0.02104
Similarity = 0.02229
Similarity = 0.03126
Similarity = 0.02565
Similarity = 0.01024
Similarity = 0.03906
Similarity = 0.00211
Similarity = 0.00175
Similarity = 0.02
Similarity = 0.00954
Similarity = 0.09173
Similarity = 0.01115
Similarity = 0.02661
Similarity = 0.00322
Similarity = 0.42476
Similarity = 0.20604
Similarity = 0.00257
Similarity = 0.00125
Similarity = 0.00172
Similarity = 0.17006
Similarity = 0.07907
Similarity = 0.00708
Similarity = 0.00911
Similarity = 0.0198
Similarity = 0.04513
Similarity = 0.0269
Similarity = 0.01016
Similarity = 0.04888
Similarity = 0.08256
Similarity = 0.00886
Similarity = 0.00941
Similarity = 0.00746
Similarity = 0.00649
Similarity = 0.02815
Similarity = 0.01458
Similarity = 0.01153
Similarity = 0.01137
Similarity = 0.04489
Similarity = 0.13802
Similarity = 0.01932
Similarity = 0.17713
Similarity = 0.00312
Similarity = 0.03378
Similarity = 0.03559
Similarity = 0.00272
Similarity = 0.05239
Similarity = 0.00358
Similarity = 0.04868
Similarity = 0.02456
Similarity = 0.00357
Similarity = 0.11756
Similarity = 0.03343
Similarity = 0.01927
Similarity = 0.00556
Similarity = 0.00208
Similarity = 0.03104
Similarity = 0.00638
Similarity = 0.00726
Similarity = 0.05527
Similarity = 0.026
Similarity = 0.02542
Similarity = 0.02709
Similarity = 0.04028
Similarity = 0.02613
Similarity = 0.00317
Similarity = 0.03183
Similarity = 0.01093
Similarity = 0.02227
Similarity = 0.0143
Similarity = 0.02426
Similarity = 0.004
Similarity = 0.02962
Similarity = 0.03361
Similarity = 0.01874
Similarity = 0.00984
Similarity = 0.00826
Similarity = 0.01414
Similarity = 0.01948
Similarity = 0.01766
Similarity = 0.00451
Similarity = 0.03148
Similarity = 0.00571
Similarity = 0.0325
Similarity = 0.02047
Similarity = 0.01625
Similarity = 0.02491
Similarity = 0.02403
Similarity = 0.04474
Similarity = 0.01592
Similarity = 0.00433
Similarity = 0.03915
Similarity = 0.04818
Similarity = 0.01695
Similarity = 0.01825
Similarity = 0.01066
Similarity = 0.01824
Similarity = 0.02092
Similarity = 0.01043
Similarity = 0.06197
Similarity = 0.01735
Similarity = 0.04198
Similarity = 0.05606
Similarity = 0.02977
Similarity = 0.01596
Similarity = 0.01072
Similarity = 0.06659
Similarity = 0.00297
Similarity = 0.0137
Similarity = 0.00972
Similarity = 0.01329
Similarity = 0.01007
Similarity = 0.00433
Similarity = 0.00652
Similarity = 0.05572
Similarity = 0.23361
Similarity = 0.02349
Similarity = 0.00552
Similarity = 0.00846
Similarity = 0.00621
Similarity = 0.10185
Similarity = 0.01768
Similarity = 0.00818
Similarity = 0.02518
Similarity = 0.01269
Similarity = 0.01471
Similarity = 0.01662
Similarity = 0.00921
Similarity = 0.06399
Similarity = 0.02979
Similarity = 0.01705
Similarity = 0.00852
Similarity = 0.00924
Similarity = 0.00694
Similarity = 0.02428
Similarity = 0.01017
Similarity = 0.02039
Similarity = 0.00675
Similarity = 0.03239
Similarity = 0.01406
Similarity = 0.03254
Similarity = 0.02805
Similarity = 0.01367
Similarity = 0.00865
Similarity = 0.01942
Similarity = 0.00751
Similarity = 0.00815
Similarity = 0.00267
Similarity = 0.026
Similarity = 0.015
Similarity = 0.00861
Similarity = 0.01014
Similarity = 0.00845
Similarity = 0.00591
Similarity = 0.02414
Similarity = 0.00907
Similarity = 0.04044
Similarity = 0.00719
Similarity = 0.00829
Similarity = 0.00673
Similarity = 0.00357
Similarity = 0.00317
Similarity = 0.00627
Similarity = 0.02188
Similarity = 0.12184
Similarity = 0.00606
Similarity = 0.0522
Similarity = 0.00254
Similarity = 0.00574
Similarity = 0.02305
Similarity = 0.04095
Similarity = 0.00518
Similarity = 0.01459
Similarity = 0.01028
Similarity = 0.01075
Similarity = 0.00942
Similarity = 0.00428
Similarity = 0.01532
Similarity = 0.01497
Similarity = 0.00839
Similarity = 0.00683
Similarity = 0.01275
Similarity = 0.01714
Similarity = 0.02361
Similarity = 0.01306
Similarity = 0.0089
Similarity = 0.00866
Similarity = 0.06614
Similarity = 0.01989
Similarity = 0.00214
Similarity = 0.00201
Similarity = 0.01422
Similarity = 0.01443
Similarity = 0.00715
Similarity = 0.00977
Similarity = 0.01208
Similarity = 0.01158
Similarity = 0.0089
Similarity = 0.00329
Similarity = 0.01484
Similarity = 0.01428
Similarity = 0.03023
Similarity = 0.01657
Similarity = 0.00812
Similarity = 0.0037
Similarity = 0.0082
Similarity = 0.03365
Similarity = 0.00135
Similarity = 0.00653
Similarity = 0.02245
Similarity = 0.00635
Similarity = 0.00198
Similarity = 0.00674
Similarity = 0.00704
Similarity = 0.0355
Similarity = 1e-05
Similarity = 0.00778
Similarity = 0.00309
Similarity = 0.00576
Similarity = 0.02206
Similarity = 0.00199
Similarity = 0.01421
Similarity = 0.01061
Similarity = 0.01034
Similarity = 0.01059
Similarity = 0.00342
Similarity = 0.07265
Similarity = 0.01302
Similarity = 0.04572
Similarity = 0.02207
Similarity = 0.0095
Similarity = 0.00676
Similarity = 0.00633
Similarity = 0.01027
Similarity = 0.01933
Similarity = 0.03529
Similarity = 0.0158
Similarity = 0.00865
Similarity = 0.01213
Similarity = 0.04226
Similarity = 0.06093
Similarity = 0.01567
Similarity = 0.01268
Similarity = 0.00231
Similarity = 0.02889
Similarity = 0.00742
Similarity = 0.0177
Similarity = 0.01272
Similarity = 0.00485
Similarity = 0.0027
Similarity = 0.00308
Similarity = 0.03674
Similarity = 0.00453
Similarity = 0.00777
Similarity = 0.00392
Similarity = 0.01106
Similarity = 0.01402
Similarity = 0.00359
Similarity = 0.00871
Similarity = 0.01724
Similarity = 0.00902
Similarity = 0.01325
Similarity = 0.00981
Similarity = 0.00999
Similarity = 0.01668
Similarity = 0.01349
Similarity = 0.0202
Similarity = 0.00549
Similarity = 0.00941
Similarity = 0.00878
Similarity = 0.06315
Similarity = 0.0026
Similarity = 0.01356
Similarity = 0.03601
Similarity = 0.01474
Similarity = 0.06021
Similarity = 0.03766
Similarity = 0.01853
Similarity = 0.02088
Similarity = 0.01443
Similarity = 0.00731
Similarity = 0.00932
Similarity = 0.00662
Similarity = 0.01057
Similarity = 0.01191
Similarity = 0.00921
Similarity = 0.01399
Similarity = 0.00489
Similarity = 0.00702
Similarity = 0.00484
Similarity = 0.00802
Similarity = 0.01102
Similarity = 0.01263
Similarity = 0.0328
Similarity = 0.03531
Similarity = 0.00707
Similarity = 0.00925
Similarity = 0.01637
Similarity = 0.00447
Similarity = 0.00538
Similarity = 0.00647
Similarity = 0.00801
Similarity = 0.00871
Similarity = 0.00396
Similarity = 0.00488
Similarity = 0.00312
Similarity = 0.01692
Similarity = 0.00261
Similarity = 0.00613
Similarity = 0.018
Similarity = 0.0097
Similarity = 0.04467
Similarity = 0.00337
Similarity = 0.01543
Similarity = 0.00703
Similarity = 0.03698
Similarity = 0.02653
Similarity = 0.0086
Similarity = 0.00869
Similarity = 0.02332
Similarity = 0.01425
Similarity = 0.00381
Similarity = 0.00371
Similarity = 0.06751
Similarity = 0.0191
Similarity = 0.02032
Similarity = 0.02124
Similarity = 0.00771
Similarity = 0.02997
Similarity = 0.03105
Similarity = 0.01969
Similarity = 0.00901
Similarity = 0.00465
Similarity = 0.01587
Similarity = 0.02397
Similarity = 0.01208
Similarity = 0.00712
Similarity = 0.01934
Similarity = 0.03117
Similarity = 0.03938
Similarity = 0.05386
Similarity = 0.03195
Similarity = 0.01389
Similarity = 0.03311
Similarity = 0.02092
Similarity = 0.00827
Similarity = 0.01065
Similarity = 0.02573
Similarity = 0.01695
Similarity = 0.01069
Similarity = 0.00999
Similarity = 0.02917
Similarity = 0.03662
Similarity = 0.02306
Similarity = 0.00571
Similarity = 0.00768
Similarity = 0.01171
Similarity = 0.00929
Similarity = 0.00823
Similarity = 0.08415
Similarity = 0.02048
Similarity = 0.00783
Similarity = 0.01396
Similarity = 0.07237
Similarity = 0.1328
Similarity = 0.00865
Similarity = 0.05242
Similarity = 0.00865
Similarity = 0.01583
Similarity = 0.01096
Similarity = 0.05953
Similarity = 0.00491
Similarity = 0.03391
Similarity = 0.01253
Similarity = 0.01687
Similarity = 0.01725
Similarity = 0.00532
Similarity = 0.0102
Similarity = 0.00717
Similarity = 0.03921
Similarity = 0.01534
Similarity = 0.00689
Similarity = 0.03741
Similarity = 0.03253
Similarity = 0.0163
Similarity = 0.00788
Similarity = 0.02878
Similarity = 0.00676
Similarity = 0.04833
Similarity = 0.00317
Similarity = 0.00362
Similarity = 0.01833
Similarity = 0.0177
Similarity = 0.01249
Similarity = 0.01376
Similarity = 0.01278
Similarity = 0.00286
Similarity = 0.01571
Similarity = 0.00826
Similarity = 0.02243
Similarity = 0.01963
Similarity = 0.01744
Similarity = 0.07002
Similarity = 0.06951
Similarity = 0.00959
Similarity = 0.02097
Similarity = 0.10943
Similarity = 0.00455
Similarity = 0.01049
Similarity = 0.00832
Similarity = 0.00368
Similarity = 0.00199
Similarity = 0.00922
Similarity = 0.0176
Similarity = 0.06544
Similarity = 0.00096
Similarity = 0.00782
Similarity = 0.00798
Similarity = 0.0032
Similarity = 0.00605
Similarity = 0.00392
Similarity = 0.00383
Similarity = 0.02994
Similarity = 0.00767
Similarity = 0.00973
Similarity = 0.0007
Similarity = 0.00618
Similarity = 0.01604
Similarity = 0.00689
Similarity = 0.01252
Similarity = 0.00457
Similarity = 0.00482
Similarity = 0.02311
Similarity = 0.01098
Similarity = 0.01677
Similarity = 0.01024
Similarity = 0.01634
Similarity = 0.01342
Similarity = 0.01365
Similarity = 0.00988
Similarity = 0.00189
Similarity = 0.00702
Similarity = 0.02986
Similarity = 0.01349
Similarity = 0.04147
Similarity = 0.00863
Similarity = 0.0044
Similarity = 0.01472
Similarity = 0.00615
Similarity = 0.03454
Similarity = 0.00897
Similarity = 0.00695
Similarity = 0.01116
Similarity = 0.01255
Similarity = 0.01316
Similarity = 0.01232
Similarity = 0.01507
Similarity = 0.00755
Similarity = 0.01708
Similarity = 0.05522
Similarity = 0.01677
Similarity = 0.01534
Similarity = 0.02237
Similarity = 0.06719
Similarity = 0.03374
Similarity = 0.01491
Similarity = 0.05097
Similarity = 0.00365
Similarity = 0.00989
Similarity = 0.01217
Similarity = 0.0233
Similarity = 0.00806
Similarity = 0.00679
Similarity = 0.03789
Similarity = 0.00672
Similarity = 0.0101
Similarity = 0.00878
Similarity = 0.02069
Similarity = 0.00891
Similarity = 0.05458
Similarity = 0.03195
Similarity = 0.02664
Similarity = 0.0542
Similarity = 0.04324
Similarity = 0.01679
Similarity = 0.03682
Similarity = 0.01721
Similarity = 0.04004
Similarity = 0.05419
Similarity = 0.02872
Similarity = 0.00502
Similarity = 0.03448
Similarity = 0.0087
Similarity = 0.02401
Similarity = 0.01767
Similarity = 0.01343
Similarity = 0.00773
Similarity = 0.02332
Similarity = 0.00329
Similarity = 0.03704
Similarity = 0.03479
Similarity = 0.05106
Similarity = 0.05417
Similarity = 0.03708
Similarity = 0.01189
Similarity = 0.02828
Similarity = 0.06701
Similarity = 0.00185
Similarity = 0.00537
Similarity = 0.02133
Similarity = 0.00868
Similarity = 0.08058
Similarity = 0.00646
Similarity = 0.02867
Similarity = 0.04556
Similarity = 0.15495
Similarity = 0.09804
Similarity = 0.00252
Similarity = 0.00436
Similarity = 0.00929
Similarity = 0.07051
Similarity = 0.04404
Similarity = 0.01025
Similarity = 0.00321
Similarity = 0.05835
Similarity = 0.02124
Similarity = 0.01125
Similarity = 0.02555
Similarity = 0.04478
Similarity = 0.04819
Similarity = 0.007
Similarity = 0.00772
Similarity = 0.09036
Similarity = 0.00357
Similarity = 0.02008
Similarity = 0.01359
Similarity = 0.01991
Similarity = 0.01039
Similarity = 0.01887
Similarity = 0.07533
Similarity = 0.12611
Similarity = 0.05767
Similarity = 0.01218
Similarity = 0.04571
Similarity = 0.03282
Similarity = 0.00607
Similarity = 0.04266
Similarity = 0.00691
Similarity = 0.03675
Similarity = 0.02825
Similarity = 0.01334
Similarity = 0.06263
Similarity = 0.02016
Similarity = 0.02716
Similarity = 0.00245
Similarity = 0.02631
Similarity = 0.03379
Similarity = 0.00883
Similarity = 0.00914
Similarity = 0.01669
Similarity = 0.00925
Similarity = 0.04582
Similarity = 0.04796
Similarity = 0.10503
Similarity = 0.01687
Similarity = 0.01887
Similarity = 0.01564
Similarity = 0.0178
Similarity = 0.01473
Similarity = 0.01588
Similarity = 0.05617
Similarity = 0.03805
Similarity = 0.02104
Similarity = 0.0117
Similarity = 0.04366
Similarity = 0.01373
Similarity = 0.01806
Similarity = 0.0141
Similarity = 0.01539
Similarity = 0.06729
Similarity = 0.02099
Similarity = 0.01869
Similarity = 0.03768
Similarity = 0.04903
Similarity = 0.0463
Similarity = 0.04433
Similarity = 0.03066
Similarity = 0.02514
Similarity = 0.13242
Similarity = 0.03816
Similarity = 0.04312
Similarity = 0.05178
Similarity = 0.02759
Similarity = 0.03314
Similarity = 0.06801
Similarity = 0.01777
Similarity = 0.00629
Similarity = 0.01289
Similarity = 0.00425
Similarity = 0.06845
Similarity = 0.06375
Similarity = 0.01814
Similarity = 0.04432
Similarity = 0.02452
Similarity = 0.01475
Similarity = 0.03038
Similarity = 0.01917
Similarity = 0.00907
Similarity = 0.0076
Similarity = 0.02008
Similarity = 0.0171
Similarity = 0.03428
Similarity = 0.01197
Similarity = 0.01375
Similarity = 0.0425
Similarity = 0.06537
Similarity = 0.08163
Similarity = 0.02337
Similarity = 0.00816
Similarity = 0.01013
Similarity = 0.0078
Similarity = 0.01987
Similarity = 0.01749
Similarity = 0.02043
Similarity = 0.03653
Similarity = 0.0566
Similarity = 0.03999
Similarity = 0.0128
Similarity = 0.04323
Similarity = 0.13889
Similarity = 0.0151
Similarity = 0.04067
Similarity = 0.00787
Similarity = 0.03525
Similarity = 0.02187
Similarity = 0.02801
Similarity = 0.01552
Similarity = 0.04935
Similarity = 0.06456
Similarity = 0.02484
Similarity = 0.14739
Similarity = 0.0244
Similarity = 0.03234
Similarity = 0.04548
Similarity = 0.06608
Similarity = 0.01794
Similarity = 0.02849
Similarity = 0.04087
Similarity = 0.02488
Similarity = 0.01434
Similarity = 0.0135
Similarity = 0.03988
Similarity = 0.02654
Similarity = 0.03596
Similarity = 0.02634
Similarity = 0.09955
Similarity = 0.0557
Similarity = 0.01292
Similarity = 0.01704
Similarity = 0.05942
Similarity = 0.01257
Similarity = 0.06581
Similarity = 0.00739
Similarity = 0.03959
Similarity = 0.0365
Similarity = 0.06194
Similarity = 0.10786
Similarity = 0.00482
Similarity = 0.00602
Similarity = 0.01109
Similarity = 0.03515
Similarity = 0.01963
Similarity = 0.01619
Similarity = 0.02037
Similarity = 0.03662
Similarity = 0.01363
Similarity = 0.01689
Similarity = 0.01695
Similarity = 0.05655
Similarity = 0.08909
Similarity = 0.04756
Similarity = 0.01939
Similarity = 0.03558
Similarity = 0.02442
Similarity = 0.06122
Similarity = 0.08573
Similarity = 0.03873
Similarity = 0.01371
Similarity = 0.0306
Similarity = 0.02691
Similarity = 0.1187
Similarity = 0.02871
Similarity = 0.02622
Similarity = 0.03535
Similarity = 0.0353
Similarity = 0.00923
Similarity = 0.04072
Similarity = 0.13948
Similarity = 0.02967
Similarity = 0.02507
Similarity = 0.01538
Similarity = 0.06807
Similarity = 0.01818
Similarity = 0.02218
Similarity = 0.01422
Similarity = 0.01699
Similarity = 0.02942
Similarity = 0.0091
Similarity = 0.01096
Similarity = 0.04227
Similarity = 0.02901
Similarity = 0.12737
Similarity = 0.01644
Similarity = 0.05096
Similarity = 0.02315
Similarity = 0.15286
Similarity = 0.07899
Similarity = 0.01505
Similarity = 0.00745
Similarity = 0.00682
Similarity = 0.04938
Similarity = 0.01974
Similarity = 0.01465
Similarity = 0.02709
Similarity = 0.06295
Similarity = 0.03312
Similarity = 0.03792
Similarity = 0.01798
Similarity = 0.06144
Similarity = 0.13492
Similarity = 0.06155
Similarity = 0.02721
Similarity = 0.02831
Similarity = 0.04421
Similarity = 0.07414
Similarity = 0.02014
Similarity = 0.05187
Similarity = 0.03744
Similarity = 0.03421
Similarity = 0.03517
Similarity = 0.19037
Similarity = 0.0409
Similarity = 0.02758
Similarity = 0.04479
Similarity = 0.07572
Similarity = 0.01491
Similarity = 0.02969
Similarity = 0.02974
Similarity = 0.01917
Similarity = 0.03849
Similarity = 0.0084
Similarity = 0.05636
Similarity = 0.04796
Similarity = 0.03439
Similarity = 0.02007
Similarity = 0.03704
Similarity = 0.08106
Similarity = 0.00548
Similarity = 0.00988
Similarity = 0.02607
Similarity = 0.02347
Similarity = 0.0584
Similarity = 0.01205
Similarity = 0.02317
Similarity = 0.01626
Similarity = 0.14561
Similarity = 0.10204
Similarity = 0.00558
Similarity = 0.00982
Similarity = 0.0087
Similarity = 0.03477
Similarity = 0.00496
Similarity = 0.01435
Similarity = 0.01536
Similarity = 0.06059
Similarity = 0.04605
Similarity = 0.00996
Similarity = 0.01553
Similarity = 0.04841
Similarity = 0.11903
Similarity = 0.03117
Similarity = 0.01187
Similarity = 0.01947
Similarity = 0.01392
Similarity = 0.01916
Similarity = 0.01665
Similarity = 0.02259
Similarity = 0.03319
Similarity = 0.04143
Similarity = 0.09372
Similarity = 0.22972
Similarity = 0.08621
Similarity = 0.00946
Similarity = 0.11176
Similarity = 0.02773
Similarity = 0.01051
Similarity = 0.03214
Similarity = 0.0332
Similarity = 0.08029
Similarity = 0.02259
Similarity = 0.01666
Similarity = 0.05131
Similarity = 0.04857
Similarity = 0.02041
Similarity = 0.00734
Similarity = 0.01715
Similarity = 0.0374
Similarity = 0.00431
Similarity = 0.00641
Similarity = 0.02333
Similarity = 0.01225
Similarity = 0.00498
Similarity = 0.01946
Similarity = 0.01128
Similarity = 0.08711
Similarity = 0.00222
Similarity = 0.02513
Similarity = 0.00371
Similarity = 0.01526
Similarity = 0.02122
Similarity = 0.00437
Similarity = 0.00339
Similarity = 0.0285
Similarity = 0.02009
Similarity = 0.0206
Similarity = 0.00731
Similarity = 0.00841
Similarity = 0.02439
Similarity = 0.00809
Similarity = 0.02695
Similarity = 0.01846
Similarity = 0.01839
Similarity = 0.02189
Similarity = 0.01877
Similarity = 0.01874
Similarity = 0.01211
Similarity = 0.0142
Similarity = 0.02749
Similarity = 0.03141
Similarity = 0.02892
Similarity = 0.00516
Similarity = 0.01334
Similarity = 0.01801
Similarity = 0.00796
Similarity = 0.02277
Similarity = 0.01666
Similarity = 0.00738
Similarity = 0.05818
Similarity = 0.00534
Similarity = 0.02121
Similarity = 0.01134
Similarity = 0.02482
Similarity = 0.02139
Similarity = 0.02349
Similarity = 0.01199
Similarity = 0.00756
Similarity = 0.02691
Similarity = 0.00783
Similarity = 0.01138
Similarity = 0.00691
Similarity = 0.00787
Similarity = 0.0026
Similarity = 0.00904
Similarity = 0.02117
Similarity = 0.03469
Similarity = 0.00062
Similarity = 0.00857
Similarity = 0.00677
Similarity = 0.01266
Similarity = 0.00435
Similarity = 0.00404
Similarity = 0.00467
Similarity = 0.00431
Similarity = 0.01137
Similarity = 0.00931
Similarity = 0.00209
Similarity = 0.00658
Similarity = 0.01436
Similarity = 0.00819
Similarity = 0.00808
Similarity = 0.00564
Similarity = 0.00712
Similarity = 0.01725
Similarity = 0.05937
Similarity = 0.0092
Similarity = 0.01449
Similarity = 0.01232
Similarity = 0.01634
Similarity = 0.07242
Similarity = 0.00124
Similarity = 0.01782
Similarity = 0.01184
Similarity = 0.02043
Similarity = 0.02107
Similarity = 0.02425
Similarity = 0.00575
Similarity = 0.0085
Similarity = 0.01124
Similarity = 0.00625
Similarity = 0.02072
Similarity = 0.00798
Similarity = 0.00628
Similarity = 0.04364
Similarity = 0.00796
Similarity = 0.01404
Similarity = 0.00701
Similarity = 0.02082
Similarity = 0.00766
Similarity = 0.01791
Similarity = 0.02561
Similarity = 0.01008
Similarity = 0.0176
Similarity = 0.00769
Similarity = 0.01232
Similarity = 0.0242
Similarity = 0.00655
Similarity = 0.02172
Similarity = 0.00295
Similarity = 0.01607
Similarity = 0.01417
Similarity = 0.01627
Similarity = 0.01023
Similarity = 0.0103
Similarity = 0.00675
Similarity = 0.02169
Similarity = 0.00498
Similarity = 0.00353
Similarity = 0.00998
Similarity = 0.01921
Similarity = 0.00719
Similarity = 0.01045
Similarity = 0.00596
Similarity = 0.00528
Similarity = 0.00851
Similarity = 0.00856
Similarity = 0.02499
Similarity = 0.01604
Similarity = 0.01232
Similarity = 0.00734
Similarity = 0.00332
Similarity = 0.00528
Similarity = 0.00602
Similarity = 0.01185
Similarity = 0.00527
Similarity = 0.02459
Similarity = 0.0115
Similarity = 0.01078
Similarity = 0.01384
Similarity = 0.01398
Similarity = 0.00704
Similarity = 0.01702
Similarity = 0.02013
Similarity = 0.01723
Similarity = 0.01723
Similarity = 0.00239
Similarity = 0.00322
Similarity = 0.01981
Similarity = 0.00675
Similarity = 0.00982
Similarity = 0.00415
Similarity = 0.01039
Similarity = 0.04375
Similarity = 0.01703
Similarity = 0.00914
Similarity = 0.01488
Similarity = 0.03841
Similarity = 0.05662
Similarity = 0.005
Similarity = 0.00432
Similarity = 0.00334
Similarity = 0.02522
Similarity = 0.00792
Similarity = 0.00979
Similarity = 0.15977
Similarity = 0.01487
Similarity = 0.04745
Similarity = 0.0274
Similarity = 0.00543
Similarity = 0.02427
Similarity = 0.02222
Similarity = 0.01303
Similarity = 0.00808
Similarity = 0.02054
Similarity = 0.01519
Similarity = 0.01626
Similarity = 0.00983
Similarity = 0.01652
Similarity = 0.02182
Similarity = 0.00782
Similarity = 0.02038
Similarity = 0.03783
Similarity = 0.03156
Similarity = 0.00548
Similarity = 0.01133
Similarity = 0.01064
Similarity = 0.00608
Similarity = 0.0159
Similarity = 0.01091
Similarity = 0.00888
Similarity = 0.02265
Similarity = 0.00798
Similarity = 0.01399
Similarity = 0.01452
Similarity = 0.01791
Similarity = 0.00185
Similarity = 0.01713
Similarity = 0.01955
Similarity = 0.00574
Similarity = 0.00717
Similarity = 0.01192
Similarity = 0.00735
Similarity = 0.01125
Similarity = 0.00448
Similarity = 0.01737
Similarity = 0.00823
Similarity = 0.04335
Similarity = 0.07008
Similarity = 0.00719
Similarity = 0.00398
Similarity = 0.003
Similarity = 0.05587
Similarity = 0.02037
Similarity = 0.0308
Similarity = 0.03049
Similarity = 0.03109
Similarity = 0.05333
Similarity = 0.03073
Similarity = 0.00479
Similarity = 0.04876
Similarity = 0.02664
Similarity = 0.01011
Similarity = 0.00467
Similarity = 0.00678
Similarity = 0.01297
Similarity = 0.01794
Similarity = 0.02261
Similarity = 0.00603
Similarity = 0.0165
Similarity = 0.01182
Similarity = 0.03064
Similarity = 0.03432
Similarity = 0.02862
Similarity = 0.02066
Similarity = 0.01396
Similarity = 0.01648
Similarity = 0.01519
Similarity = 0.01866
Similarity = 0.01071
Similarity = 0.02946
Similarity = 0.01026
Similarity = 0.01484
Similarity = 0.00871
Similarity = 0.02128
Similarity = 0.00723
Similarity = 0.00851
Similarity = 0.01063
Similarity = 0.01141
Similarity = 0.00299
Similarity = 0.00866
Similarity = 0.0109
Similarity = 0.05481
Similarity = 0.05942
Similarity = 0.02016
Similarity = 0.02578
Similarity = 0.03954
Similarity = 0.05815
Similarity = 0.06688
Similarity = 0.00919
Similarity = 0.01762
Similarity = 0.0113
Similarity = 0.04816
Similarity = 0.01663
Similarity = 0.01779
Similarity = 0.00906
Similarity = 0.05198
Similarity = 0.02802
Similarity = 0.01742
Similarity = 0.01948
Similarity = 0.03312
Similarity = 0.04936
Similarity = 0.03966
Similarity = 0.03301
Similarity = 0.01479
Similarity = 0.04565
Similarity = 0.02394
Similarity = 0.02248
Similarity = 0.04847
Similarity = 0.04215
Similarity = 0.03059
Similarity = 0.02813
Similarity = 0.09578
Similarity = 0.06715
Similarity = 0.02679
Similarity = 0.04406
Similarity = 0.2342
Similarity = 0.01581
Similarity = 0.03052
Similarity = 0.02597
Similarity = 0.04395
Similarity = 0.05986
Similarity = 0.03925
Similarity = 0.05073
Similarity = 0.05083
Similarity = 0.02773
Similarity = 0.02029
Similarity = 0.03536
Similarity = 0.04464
Similarity = 0.0074
Similarity = 0.01505
Similarity = 0.014
Similarity = 0.00577
Similarity = 0.02557
Similarity = 0.01673
Similarity = 0.03672
Similarity = 0.08481
Similarity = 0.0189
Similarity = 0.05951
Similarity = 0.00874
Similarity = 0.01267
Similarity = 0.01282
Similarity = 0.03544
Similarity = 0.01978
Similarity = 0.02612
Similarity = 0.01681
Similarity = 0.01495
Similarity = 0.01659
Similarity = 0.02017
Similarity = 0.01862
Similarity = 0.03132
Similarity = 0.0592
Similarity = 0.00972
Similarity = 0.01942
Similarity = 0.01891
Similarity = 0.01451
Similarity = 0.01399
Similarity = 0.01302
Similarity = 0.01357
Similarity = 0.06568
Similarity = 0.02317
Similarity = 0.01401
Similarity = 0.0228
Similarity = 0.03986
Similarity = 0.00966
Similarity = 0.03458
Similarity = 0.01737
Similarity = 0.02122
Similarity = 0.02122
Similarity = 0.00604
Similarity = 0.0135
Similarity = 0.02309
Similarity = 0.045
Similarity = 0.03323
Similarity = 0.02027
Similarity = 0.04423
Similarity = 0.01344
Similarity = 0.1254
Similarity = 0.05455
Similarity = 0.00404
Similarity = 0.01715
Similarity = 0.01949
Similarity = 0.01062
Similarity = 0.01814
Similarity = 0.01125
Similarity = 0.01555
Similarity = 0.02408
Similarity = 0.0036
Similarity = 0.02352
Similarity = 0.01148
Similarity = 0.00888
Similarity = 0.01055
Similarity = 0.01049
Similarity = 0.00809
Similarity = 0.01079
Similarity = 0.0134
Similarity = 0.00464
Similarity = 0.00436
Similarity = 0.00525
Similarity = 0.01724
Similarity = 0.01816
Similarity = 0.01525
Similarity = 0.00874
Similarity = 0.00548
Similarity = 0.02919
Similarity = 0.01378
Similarity = 0.02417
Similarity = 0.01266
Similarity = 0.0185
Similarity = 0.00943
Similarity = 0.00984
Similarity = 0.00445
Similarity = 0.00541
Similarity = 0.02056
Similarity = 0.01533
Similarity = 0.05665
Similarity = 0.04172
Similarity = 0.00649
Similarity = 0.01387
Similarity = 0.01239
Similarity = 0.02273
Similarity = 0.02839
Similarity = 0.01974
Similarity = 0.02835
Similarity = 0.00996
Similarity = 0.01446
Similarity = 0.01462
Similarity = 0.01384
Similarity = 0.0229
Similarity = 0.01338
Similarity = 0.01064
Similarity = 0.01875
Similarity = 0.02018
Similarity = 0.02222
Similarity = 0.01941
Similarity = 0.02897
Similarity = 0.02278
Similarity = 0.00609
Similarity = 0.02277
Similarity = 0.02376
Similarity = 0.01258
Similarity = 0.00887
Similarity = 0.01211
Similarity = 0.01065
Similarity = 0.02432
Similarity = 0.00889
Similarity = 0.03527
Similarity = 0.00722
Similarity = 0.0143
Similarity = 0.02053
Similarity = 0.0162
Similarity = 0.02815
Similarity = 0.01465
Similarity = 0.02405
Similarity = 0.04528
Similarity = 0.01987
Similarity = 0.02631
Similarity = 0.07472
Similarity = 0.02144
Similarity = 0.02097
Similarity = 0.09991
Similarity = 0.00669
Similarity = 0.03851
Similarity = 0.02085
Similarity = 0.03249
Similarity = 0.02395
Similarity = 0.06443
Similarity = 0.01169
Similarity = 0.01486
Similarity = 0.04487
Similarity = 0.01256
Similarity = 0.02224
Similarity = 0.02957
Similarity = 0.03118
Similarity = 0.0481
Similarity = 0.02615
Similarity = 0.01469
Similarity = 0.00581
Similarity = 0.05081
Similarity = 0.01027
Similarity = 0.03337
Similarity = 0.05349
Similarity = 0.01055
Similarity = 0.01153
Similarity = 0.01137
Similarity = 0.02641
Similarity = 0.0467
Similarity = 0.03491
Similarity = 0.04333
Similarity = 0.01224
Similarity = 0.01197
Similarity = 0.00714
Similarity = 0.04707
Similarity = 0.00987
Similarity = 0.01948
Similarity = 0.02413
Similarity = 0.03359
Similarity = 0.0078
Similarity = 0.00868
Similarity = 0.02035
Similarity = 0.01086
Similarity = 0.01874
Similarity = 0.00661
Similarity = 0.01027
Similarity = 0.01208
Similarity = 0.03011
Similarity = 0.03854
Similarity = 0.06674
Similarity = 0.03119
Similarity = 0.0487
Similarity = 0.04341
Similarity = 0.0029
Similarity = 0.01964
Similarity = 0.0174
Similarity = 0.03927
Similarity = 0.0103
Similarity = 0.03319
Similarity = 0.0121
Similarity = 0.01962
Similarity = 0.0046
Similarity = 0.00781
Similarity = 0.02608
Similarity = 0.06112
Similarity = 0.04335
Similarity = 0.01514
Similarity = 0.02298
Similarity = 0.0093
Similarity = 0.01434
Similarity = 0.06085
Similarity = 0.00956
Similarity = 0.00297
Similarity = 0.05345
Similarity = 0.0088
Similarity = 0.00316
Similarity = 0.00954
Similarity = 0.03453
Similarity = 0.08596
Similarity = 0.02476
Similarity = 0.03613
Similarity = 0.00893
Similarity = 0.00515
Similarity = 0.00378
Similarity = 0.02789
Similarity = 0.00117
Similarity = 0.0119
Similarity = 0.009
Similarity = 0.00616
Similarity = 0.01256
Similarity = 0.00796
Similarity = 0.01453
Similarity = 0.01461
Similarity = 0.02001
Similarity = 0.01374
Similarity = 0.01684
Similarity = 0.02343
Similarity = 0.02021
Similarity = 0.03176
Similarity = 0.015
Similarity = 0.00822
Similarity = 0.06143
Similarity = 0.01419
Similarity = 0.00467
Similarity = 0.02363
Similarity = 0.0273
Similarity = 0.00444
Similarity = 0.0279
Similarity = 0.016
Similarity = 0.00308
Similarity = 0.00618
Similarity = 0.02326
Similarity = 0.0073
Similarity = 0.04122
Similarity = 0.01106
Similarity = 0.0166
Similarity = 0.03345
Similarity = 0.04689
Similarity = 0.00661
Similarity = 0.06919
Similarity = 0.11336
Similarity = 0.01198
Similarity = 0.02624
Similarity = 0.02813
Similarity = 0.01698
Similarity = 0.01909
Similarity = 0.00841
Similarity = 0.01359
Similarity = 0.0234
Similarity = 0.03023
Similarity = 0.01592
Similarity = 0.0336
Similarity = 0.01217
Similarity = 0.0059
Similarity = 0.056
Similarity = 0.0051
Similarity = 0.00857
Similarity = 0.0284
Similarity = 0.03973
Similarity = 0.01601
Similarity = 0.00663
Similarity = 0.01709
Similarity = 0.16354
Similarity = 0.01417
Similarity = 0.03404
Similarity = 0.00695
Similarity = 0.00333
Similarity = 0.02375
Similarity = 0.03901
Similarity = 0.03617
Similarity = 0.01452
Similarity = 0.02691
Similarity = 0.0223
Similarity = 0.06535
Similarity = 0.08397
Similarity = 0.10096
Similarity = 0.01343
Similarity = 0.06331
Similarity = 0.02595
Similarity = 0.01082
Similarity = 0.01728
Similarity = 0.01302
Similarity = 0.01724
Similarity = 0.02008
Similarity = 0.05321
Similarity = 0.05465
Similarity = 0.01332
Similarity = 0.04532
Similarity = 0.00644
Similarity = 0.00967
Similarity = 0.03918
Similarity = 0.02782
Similarity = 0.03638
Similarity = 0.04391
Similarity = 0.00979
Similarity = 0.01701
Similarity = 0.01516
Similarity = 0.03975
Similarity = 0.07382
Similarity = 0.08285
Similarity = 0.05043
Similarity = 0.01643
Similarity = 0.01289
Similarity = 0.01177
Similarity = 0.09498
Similarity = 0.02237
Similarity = 0.02326
Similarity = 0.01328
Similarity = 0.01902
Similarity = 0.01566
Similarity = 0.02029
Similarity = 0.01428
Similarity = 0.08043
Similarity = 0.01786
Similarity = 0.01846
Similarity = 0.01761
Similarity = 0.0368
Similarity = 0.05753
Similarity = 0.04759
Similarity = 0.02065
Similarity = 0.01936
Similarity = 0.02889
Similarity = 0.02977
Similarity = 0.02896
Similarity = 0.04589
Similarity = 0.07505
Similarity = 0.00977
Similarity = 0.05067
Similarity = 0.03876
Similarity = 0.01522
Similarity = 0.01428
Similarity = 0.01347
Similarity = 0.01392
Similarity = 0.03552
Similarity = 0.01504
Similarity = 0.04608
Similarity = 0.02062
Similarity = 0.04
Similarity = 0.01662
Similarity = 0.02156
Similarity = 0.08199
Similarity = 0.0049
Similarity = 0.02465
Similarity = 0.01547
Similarity = 0.01202
Similarity = 0.0685
Similarity = 0.00349
Similarity = 0.02471
Similarity = 0.02821
Similarity = 0.03979
Similarity = 0.03434
Similarity = 0.01439
Similarity = 0.0109
Similarity = 0.00515
Similarity = 0.01536
Similarity = 0.01524
Similarity = 0.0056
Similarity = 0.01221
Similarity = 0.01016
Similarity = 0.04151
Similarity = 0.04273
Similarity = 0.01291
Similarity = 0.0172
Similarity = 0.10902
Similarity = 0.0447
Similarity = 0.018
Similarity = 0.01073
Similarity = 0.01969
Similarity = 0.02139
Similarity = 0.00637
Similarity = 0.0151
Similarity = 0.02735
Similarity = 0.02094
Similarity = 0.01299
Similarity = 0.06043
Similarity = 0.02932
Similarity = 0.00856
Similarity = 0.01129
Similarity = 0.01705
Similarity = 0.00682
Similarity = 0.00851
Similarity = 0.0061
Similarity = 0.01268
Similarity = 0.01666
Similarity = 0.01363
Similarity = 0.03618
Similarity = 0.01839
Similarity = 0.02237
Similarity = 0.00727
Similarity = 0.00284
Similarity = 0.02721
Similarity = 0.01266
Similarity = 0.01348
Similarity = 0.01406
Similarity = 0.01094
Similarity = 0.00764
Similarity = 0.02885
Similarity = 0.01868
Similarity = 0.20965
Similarity = 0.00241
Similarity = 0.01285
Similarity = 0.00423
Similarity = 0.01049
Similarity = 0.00798
Similarity = 0.00715
Similarity = 0.00415
Similarity = 0.01375
Similarity = 0.00963
Similarity = 0.01274
Similarity = 0.00278
Similarity = 0.00925
Similarity = 0.02728
Similarity = 0.01074
Similarity = 0.01285
Similarity = 0.01633
Similarity = 0.00786
Similarity = 0.02998
Similarity = 0.01173
Similarity = 0.01801
Similarity = 0.01826
Similarity = 0.0149
Similarity = 0.07665
Similarity = 0.02536
Similarity = 0.02231
Similarity = 0.01498
Similarity = 0.02249
Similarity = 0.01853
Similarity = 0.01299
Similarity = 0.02253
Similarity = 0.00922
Similarity = 0.00842
Similarity = 0.01771
Similarity = 0.01609
Similarity = 0.0141
Similarity = 0.01149
Similarity = 0.0157
Similarity = 0.01032
Similarity = 0.02238
Similarity = 0.01035
Similarity = 0.0223
Similarity = 0.02574
Similarity = 0.01524
Similarity = 0.01692
Similarity = 0.02862
Similarity = 0.01634
Similarity = 0.01289
Similarity = 0.02174
Similarity = 0.0402
Similarity = 0.05872
Similarity = 0.01028
Similarity = 0.02131
Similarity = 0.00495
Similarity = 0.0159
Similarity = 0.0175
Similarity = 0.01381
Similarity = 0.00464
Similarity = 0.016
Similarity = 0.01888
Similarity = 0.00935
Similarity = 0.00775
Similarity = 0.00958
Similarity = 0.02496
Similarity = 0.02223
Similarity = 0.02045
Similarity = 0.01103
Similarity = 0.00916
Similarity = 0.01823
Similarity = 0.02799
Similarity = 0.01901
Similarity = 0.01435
Similarity = 0.02536
Similarity = 0.01489
Similarity = 0.08405
Similarity = 0.01261
Similarity = 0.01862
Similarity = 0.03199
Similarity = 0.02892
Similarity = 0.01703
Similarity = 0.02966
Similarity = 0.01092
Similarity = 0.02417
Similarity = 0.03614
Similarity = 0.01352
Similarity = 0.02971
Similarity = 0.03216
Similarity = 0.01567
Similarity = 0.0382
Similarity = 0.01706
Similarity = 0.01707
Similarity = 0.00479
Similarity = 0.02798
Similarity = 0.00658
Similarity = 0.01443
Similarity = 0.01897
Similarity = 0.01652
Similarity = 0.034
Similarity = 0.00593
Similarity = 0.00833
Similarity = 0.01205
Similarity = 0.06217
Similarity = 0.0137
Similarity = 0.01154
Similarity = 0.01335
Similarity = 0.00944
Similarity = 0.01112
Similarity = 0.00453
Similarity = 0.00951
Similarity = 0.01281
Similarity = 0.01366
Similarity = 0.00761
Similarity = 0.00653
Similarity = 0.02169
Similarity = 0.01658
Similarity = 0.02924
Similarity = 0.00813
Similarity = 0.01048
Similarity = 0.01088
Similarity = 0.01667
Similarity = 0.0158
Similarity = 0.01579
Similarity = 0.02131
Similarity = 0.01315
Similarity = 0.05463
Similarity = 0.00383
Similarity = 0.03936
Similarity = 0.07346
Similarity = 0.01491
Similarity = 0.01767
Similarity = 0.01713
Similarity = 0.01471
Similarity = 0.0079
Similarity = 0.01378
Similarity = 0.00986
Similarity = 0.01398
Similarity = 0.0132
Similarity = 0.08261
Similarity = 0.01599
Similarity = 0.02732
Similarity = 0.01221
Similarity = 0.0214
Similarity = 0.02353
Similarity = 0.00867
Similarity = 0.00888
Similarity = 0.0687
Similarity = 0.01489
Similarity = 0.01549
Similarity = 0.01496
Similarity = 0.04781
Similarity = 0.02671
Similarity = 0.03298
Similarity = 0.08935
Similarity = 0.01999
Similarity = 0.00956
Similarity = 0.02214
Similarity = 0.05507
Similarity = 0.00991
Similarity = 0.01332
Similarity = 0.12348
Similarity = 0.01873
Similarity = 0.10389
Similarity = 0.0126
Similarity = 0.01741
Similarity = 0.0322
Similarity = 0.02963
Similarity = 0.05752
Similarity = 0.01349
Similarity = 0.05965
Similarity = 0.02777
Similarity = 0.03725
Similarity = 0.02699
Similarity = 0.01664
Similarity = 0.0963
Similarity = 0.01516
Similarity = 0.07428
Similarity = 0.03027
Similarity = 0.02103
Similarity = 0.01732
Similarity = 0.04139
Similarity = 0.05974
Similarity = 0.0116
Similarity = 0.00955
Similarity = 0.01155
Similarity = 0.01381
Similarity = 0.05046
Similarity = 0.02785
Similarity = 0.16434
Similarity = 0.01855
Similarity = 0.05454
Similarity = 0.0052
Similarity = 0.07342
Similarity = 0.17696
Similarity = 0.00801
Similarity = 0.01135
Similarity = 0.00923
Similarity = 0.0046
Similarity = 0.06521
Similarity = 0.00766
Similarity = 0.03589
Similarity = 0.00697
Similarity = 0.11469
Similarity = 0.10265
Similarity = 0.00553
Similarity = 0.00756
Similarity = 0.0143
Similarity = 0.08532
Similarity = 0.03099
Similarity = 0.0282
Similarity = 0.09254
Similarity = 0.01075
Similarity = 0.08446
Similarity = 0.02107
Similarity = 0.01015
Similarity = 0.10056
Similarity = 0.02306
Similarity = 0.07897
Similarity = 0.00406
Similarity = 0.01403
Similarity = 0.01473
Similarity = 0.08691
Similarity = 0.01159
Similarity = 0.01135
Similarity = 0.04661
Similarity = 0.02064
Similarity = 0.07146
Similarity = 0.03142
Similarity = 0.05699
Similarity = 0.01836
Similarity = 0.01202
Similarity = 0.01267
Similarity = 0.0149
Similarity = 0.03754
Similarity = 0.00909
Similarity = 0.03004
Similarity = 0.05245
Similarity = 0.01314
Similarity = 0.06416
Similarity = 0.01818
Similarity = 0.00901
Similarity = 0.00689
Similarity = 0.01009
Similarity = 0.0151
Similarity = 0.00625
Similarity = 0.01333
Similarity = 0.0044
Similarity = 0.0153
Similarity = 0.01216
Similarity = 0.02248
Similarity = 0.00478
Similarity = 0.00717
Similarity = 0.02967
Similarity = 0.04228
Similarity = 0.0055
Similarity = 0.00338
Similarity = 0.01264
Similarity = 0.01854
Similarity = 0.00672
Similarity = 0.0079
Similarity = 0.08398
Similarity = 0.00331
Similarity = 0.00865
Similarity = 0.0198
Similarity = 0.00869
Similarity = 0.05271
Similarity = 0.01009
Similarity = 0.04786
Similarity = 0.01199
Similarity = 0.02654
Similarity = 0.01729
Similarity = 0.04523
Similarity = 0.00372
Similarity = 0.00653
Similarity = 0.04908
Similarity = 0.05406
Similarity = 0.03364
Similarity = 0.01172
Similarity = 0.04171
Similarity = 0.00807
Similarity = 0.00456
Similarity = 0.01329
Similarity = 0.0073
Similarity = 0.01621
Similarity = 0.00772
Similarity = 0.00975
Similarity = 0.01526
Similarity = 0.02691
Similarity = 0.0467
Similarity = 0.02889
Similarity = 0.02658
Similarity = 0.00293
Similarity = 0.01723
Similarity = 0.01315
Similarity = 0.01549
Similarity = 0.01175
Similarity = 0.02488
Similarity = 0.01143
Similarity = 0.01982
Similarity = 0.01779
Similarity = 0.03455
Similarity = 0.03981
Similarity = 0.03075
Similarity = 0.0628
Similarity = 0.00344
Similarity = 0.01517
Similarity = 0.0139
Similarity = 0.10394
Similarity = 0.00416
Similarity = 0.01035
Similarity = 0.01044
Similarity = 0.03137
Similarity = 0.01969
Similarity = 0.00941
Similarity = 0.02349
Similarity = 0.01609
Similarity = 0.02631
Similarity = 0.00927
Similarity = 0.00773
Similarity = 0.05551
Similarity = 0.03082
Similarity = 0.02253
Similarity = 0.02033
Similarity = 0.02017
Similarity = 0.03667
Similarity = 0.06
Similarity = 0.01059
Similarity = 0.02043
Similarity = 0.01388
Similarity = 0.02433
Similarity = 0.01281
Similarity = 0.06327
Similarity = 0.01302
Similarity = 0.02471
Similarity = 0.01198
Similarity = 0.04395
Similarity = 0.03636
Similarity = 0.00712
Similarity = 0.03416
Similarity = 0.02344
Similarity = 0.03214
Similarity = 0.01565
Similarity = 0.01861
Similarity = 0.02344
Similarity = 0.01632
Similarity = 0.01895
Similarity = 0.02235
Similarity = 0.01144
Similarity = 0.00779
Similarity = 0.02078
Similarity = 0.01704
Similarity = 0.01616
Similarity = 0.00439
Similarity = 0.01357
Similarity = 0.0091
Similarity = 0.03262
Similarity = 0.01231
Similarity = 0.01489
Similarity = 0.00632
Similarity = 0.00521
Similarity = 0.00375
Similarity = 0.00902
Similarity = 0.00386
Similarity = 0.00856
Similarity = 0.02445
Similarity = 0.05158
Similarity = 0.00599
Similarity = 0.01513
Similarity = 0.00765
Similarity = 0.00881
Similarity = 0.02537
Similarity = 0.01761
Similarity = 0.01474
Similarity = 0.01489
Similarity = 0.0128
Similarity = 0.03959
Similarity = 0.01742
Similarity = 0.01486
Similarity = 0.02769
Similarity = 0.01518
Similarity = 0.01599
Similarity = 0.01025
Similarity = 0.00983
Similarity = 0.00363
Similarity = 0.00694
Similarity = 0.01457
Similarity = 0.02477
Similarity = 0.01564
Similarity = 0.00946
Similarity = 0.02374
Similarity = 0.01978
Similarity = 0.01009
Similarity = 0.00195
Similarity = 0.02176
Similarity = 0.02722
Similarity = 0.01679
Similarity = 0.02616
Similarity = 0.01806
Similarity = 0.05466
Similarity = 0.00527
Similarity = 0.03523
Similarity = 0.03333
Similarity = 0.20381
Similarity = 0.11812
Similarity = 0.05099
Similarity = 0.02091
Similarity = 0.01221
Similarity = 0.08345
Similarity = 0.01461
Similarity = 0.02337
Similarity = 0.02283
Similarity = 0.04818
Similarity = 0.02723
Similarity = 0.03622
Similarity = 0.00654
Similarity = 0.2724
Similarity = 0.07348
Similarity = 0.05121
Similarity = 0.0187
Similarity = 0.02719
Similarity = 0.02823
Similarity = 0.10541
Similarity = 0.02023
Similarity = 0.02967
Similarity = 0.01474
Similarity = 0.01733
Similarity = 0.16553
Similarity = 0.25509
Similarity = 0.1824
Similarity = 0.02108
Similarity = 0.12096
Similarity = 0.03125
Similarity = 0.01426
Similarity = 0.04686
Similarity = 0.01035
Similarity = 0.02544
Similarity = 0.01554
Similarity = 0.04068
Similarity = 0.03826
Similarity = 0.02417
Similarity = 0.02729
Similarity = 0.0099
Similarity = 0.03292
Similarity = 0.0526
Similarity = 0.00729
Similarity = 0.00589
Similarity = 0.01839
Similarity = 0.02348
Similarity = 0.00959
Similarity = 0.03817
Similarity = 0.06868
Similarity = 0.02966
Similarity = 0.00084
Similarity = 0.0131
Similarity = 0.0125
Similarity = 0.00441
Similarity = 0.00711
Similarity = 0.01332
Similarity = 0.00827
Similarity = 0.02092
Similarity = 0.00892
Similarity = 0.00511
Similarity = 0.00372
Similarity = 0.00516
Similarity = 0.00791
Similarity = 0.00766
Similarity = 0.02395
Similarity = 0.01033
Similarity = 0.01693
Similarity = 0.01635
Similarity = 0.06173
Similarity = 0.02215
Similarity = 0.00335
Similarity = 0.02508
Similarity = 0.03405
Similarity = 0.01093
Similarity = 0.00455
Similarity = 0.00748
Similarity = 0.02384
Similarity = 0.01873
Similarity = 0.00921
Similarity = 0.01112
Similarity = 0.00472
Similarity = 0.00581
Similarity = 0.03981
Similarity = 0.00674
Similarity = 0.03458
Similarity = 0.01156
Similarity = 0.01783
Similarity = 0.02632
Similarity = 0.02078
Similarity = 0.01243
Similarity = 0.0066
Similarity = 0.01707
Similarity = 0.01136
Similarity = 0.01965
Similarity = 0.04069
Similarity = 0.01716
Similarity = 0.01647
Similarity = 0.0474
Similarity = 0.02795
Similarity = 0.06178
Similarity = 0.00776
Similarity = 0.03563
Similarity = 0.01339
Similarity = 0.01301
Similarity = 0.00904
Similarity = 0.0393
Similarity = 0.00957
Similarity = 0.00993
Similarity = 0.01881
Similarity = 0.00376
Similarity = 0.01134
Similarity = 0.01608
Similarity = 0.0127
Similarity = 0.0422
Similarity = 0.02102
Similarity = 0.01255
Similarity = 0.02829
Similarity = 0.01509
Similarity = 0.04528
Similarity = 0.0275
Similarity = 0.04091
Similarity = 0.02226
Similarity = 0.04254
Similarity = 0.08928
Similarity = 0.01747
Similarity = 0.01752
Similarity = 0.05422
Similarity = 0.02386
Similarity = 0.01752
Similarity = 0.11972
Similarity = 0.01475
Similarity = 0.01862
Similarity = 0.04259
Similarity = 0.02215
Similarity = 0.02348
Similarity = 0.02857
Similarity = 0.02448
Similarity = 0.03056
Similarity = 0.02868
Similarity = 0.00783
Similarity = 0.01782
Similarity = 0.07146
0.025861431999999972
