Files are arxiv_abs/hep-th.updates.on.arXiv.org  arxiv_abs/physics.updates.on.arXiv.org
Similarity = 0.00969
Similarity = 0.09074
Similarity = 0.03767
Similarity = 0.0286
Similarity = 0.02524
Similarity = 0.01501
Similarity = 0.07062
Similarity = 0.00971
Similarity = 0.21047
Similarity = 0.0268
Similarity = 0.05492
Similarity = 0.01071
Similarity = 0.00452
Similarity = 0.01437
Similarity = 0.01451
Similarity = 0.00926
Similarity = 0.02243
Similarity = 0.00065
Similarity = 0.06443
Similarity = 0.01232
Similarity = 0.01598
Similarity = 0.01289
Similarity = 0.00845
Similarity = 0.01471
Similarity = 0.05688
Similarity = 0.00935
Similarity = 0.0216
Similarity = 0.00964
Similarity = 0.00574
Similarity = 0.02163
Similarity = 0.03767
Similarity = 0.02087
Similarity = 0.01433
Similarity = 0.00936
Similarity = 0.01466
Similarity = 0.02176
Similarity = 0.064
Similarity = 0.04462
Similarity = 0.01578
Similarity = 0.02135
Similarity = 0.02086
Similarity = 0.07636
Similarity = 0.01011
Similarity = 0.04005
Similarity = 0.01606
Similarity = 0.03512
Similarity = 0.02589
Similarity = 0.00585
Similarity = 0.03335
Similarity = 0.06282
Similarity = 0.02319
Similarity = 0.01064
Similarity = 0.02039
Similarity = 0.03696
Similarity = 0.03034
Similarity = 0.02014
Similarity = 0.01949
Similarity = 0.00964
Similarity = 0.02093
Similarity = 0.00824
Similarity = 0.02127
Similarity = 0.02965
Similarity = 0.02034
Similarity = 0.0129
Similarity = 0.01787
Similarity = 0.0083
Similarity = 0.02645
Similarity = 0.00936
Similarity = 0.02074
Similarity = 0.03218
Similarity = 0.0167
Similarity = 0.02116
Similarity = 0.0069
Similarity = 0.0161
Similarity = 0.04731
Similarity = 0.01565
Similarity = 0.03608
Similarity = 0.01084
Similarity = 0.0032
Similarity = 0.01869
Similarity = 0.00466
Similarity = 0.02361
Similarity = 0.02479
Similarity = 0.01276
Similarity = 0.00869
Similarity = 0.01298
Similarity = 0.00878
Similarity = 0.02041
Similarity = 0.01511
Similarity = 0.01658
Similarity = 0.02355
Similarity = 0.03889
Similarity = 0.01182
Similarity = 0.07817
Similarity = 0.03989
Similarity = 0.01103
Similarity = 0.00871
Similarity = 0.01721
Similarity = 0.01316
Similarity = 0.00512
Similarity = 0.03078
Similarity = 0.01499
Similarity = 0.03381
Similarity = 0.04866
Similarity = 0.01302
Similarity = 0.01568
Similarity = 0.0141
Similarity = 0.01556
Similarity = 0.01891
Similarity = 0.01874
Similarity = 0.01188
Similarity = 0.03715
Similarity = 0.02047
Similarity = 0.0104
Similarity = 0.02504
Similarity = 0.00813
Similarity = 0.02098
Similarity = 0.01657
Similarity = 0.0293
Similarity = 0.01393
Similarity = 0.00674
Similarity = 0.0149
Similarity = 0.01829
Similarity = 0.01
Similarity = 0.04748
Similarity = 0.03455
Similarity = 0.0105
Similarity = 0.00867
Similarity = 0.00945
Similarity = 0.02255
Similarity = 0.01285
Similarity = 0.04969
Similarity = 0.00933
Similarity = 0.01156
Similarity = 0.00695
Similarity = 0.0138
Similarity = 0.01006
Similarity = 0.04085
Similarity = 0.01112
Similarity = 0.01333
Similarity = 0.02223
Similarity = 0.01997
Similarity = 0.02406
Similarity = 0.04068
Similarity = 0.04206
Similarity = 0.00942
Similarity = 0.01169
Similarity = 0.0129
Similarity = 0.01339
Similarity = 0.01086
Similarity = 0.0351
Similarity = 0.02864
Similarity = 0.01852
Similarity = 0.03869
Similarity = 0.04211
Similarity = 0.01545
Similarity = 0.0409
Similarity = 0.01194
Similarity = 0.03917
Similarity = 0.01762
Similarity = 0.01833
Similarity = 0.02527
Similarity = 0.03901
Similarity = 0.0383
Similarity = 0.03178
Similarity = 0.01622
Similarity = 0.047
Similarity = 0.00728
Similarity = 0.01654
Similarity = 0.03652
Similarity = 0.0466
Similarity = 0.02522
Similarity = 0.03661
Similarity = 0.04369
Similarity = 0.04673
Similarity = 0.03902
Similarity = 0.03035
Similarity = 0.03357
Similarity = 0.01035
Similarity = 0.05125
Similarity = 0.00664
Similarity = 0.0164
Similarity = 0.02895
Similarity = 0.01799
Similarity = 0.01209
Similarity = 0.01342
Similarity = 0.05042
Similarity = 0.02752
Similarity = 0.01706
Similarity = 0.01826
Similarity = 0.04504
Similarity = 0.10475
Similarity = 0.03064
Similarity = 0.06011
Similarity = 0.0571
Similarity = 0.02159
Similarity = 0.02725
Similarity = 0.02435
Similarity = 0.01735
Similarity = 0.02049
Similarity = 0.04923
Similarity = 0.00571
Similarity = 0.01851
Similarity = 0.06892
Similarity = 0.01419
Similarity = 0.01593
Similarity = 0.0065
Similarity = 0.00566
Similarity = 0.02338
Similarity = 0.00585
Similarity = 0.0265
Similarity = 0.02429
Similarity = 0.02438
Similarity = 0.01362
Similarity = 0.01213
Similarity = 0.02006
Similarity = 0.0204
Similarity = 0.01591
Similarity = 0.00755
Similarity = 0.03045
Similarity = 0.01818
Similarity = 0.00809
Similarity = 0.02075
Similarity = 0.02134
Similarity = 0.02342
Similarity = 0.02295
Similarity = 0.01731
Similarity = 0.02115
Similarity = 0.00321
Similarity = 0.03028
Similarity = 0.00781
Similarity = 0.01999
Similarity = 0.01315
Similarity = 0.0064
Similarity = 0.03641
Similarity = 0.00368
Similarity = 0.02222
Similarity = 0.0127
Similarity = 0.00515
Similarity = 0.02801
Similarity = 0.04421
Similarity = 0.03939
Similarity = 0.03188
Similarity = 0.05183
Similarity = 0.05039
Similarity = 0.01159
Similarity = 0.00647
Similarity = 0.01105
Similarity = 0.02729
Similarity = 0.01086
Similarity = 0.02535
Similarity = 0.01401
Similarity = 0.01773
Similarity = 0.07296
Similarity = 0.02239
Similarity = 0.01787
Similarity = 0.02614
Similarity = 0.01346
Similarity = 0.01475
Similarity = 0.03174
Similarity = 0.0184
Similarity = 0.13026
Similarity = 0.02696
Similarity = 0.03157
Similarity = 0.00412
Similarity = 0.02069
Similarity = 0.02101
Similarity = 0.00594
Similarity = 0.01455
Similarity = 0.03287
Similarity = 0.02466
Similarity = 0.00801
Similarity = 0.02879
Similarity = 0.01731
Similarity = 0.014
Similarity = 0.0234
Similarity = 0.02691
Similarity = 0.02419
Similarity = 0.00744
Similarity = 0.03916
Similarity = 0.0219
Similarity = 0.02661
Similarity = 0.03071
Similarity = 0.01603
Similarity = 0.03043
Similarity = 0.01148
Similarity = 0.03131
Similarity = 0.02466
Similarity = 0.01499
Similarity = 0.04149
Similarity = 0.04026
Similarity = 0.03847
Similarity = 0.02416
Similarity = 0.02501
Similarity = 0.03122
Similarity = 0.0701
Similarity = 0.0123
Similarity = 0.0073
Similarity = 0.03319
Similarity = 0.01402
Similarity = 0.05005
Similarity = 0.0121
Similarity = 0.02143
Similarity = 0.06348
Similarity = 0.03665
Similarity = 0.01988
Similarity = 0.01636
Similarity = 0.02126
Similarity = 0.02008
Similarity = 0.07129
Similarity = 0.02101
Similarity = 0.0434
Similarity = 0.01978
Similarity = 0.02996
Similarity = 0.01298
Similarity = 0.02741
Similarity = 0.03032
Similarity = 0.01243
Similarity = 0.03301
Similarity = 0.02501
Similarity = 0.0209
Similarity = 0.01181
Similarity = 0.0234
Similarity = 0.03044
Similarity = 0.0147
Similarity = 0.02664
Similarity = 0.05725
Similarity = 0.02326
Similarity = 0.00788
Similarity = 0.02786
Similarity = 0.01336
Similarity = 0.03719
Similarity = 0.02413
Similarity = 0.01485
Similarity = 0.02239
Similarity = 0.01322
Similarity = 0.01026
Similarity = 0.01847
Similarity = 0.01029
Similarity = 0.04221
Similarity = 0.02204
Similarity = 0.04136
Similarity = 0.0153
Similarity = 0.06394
Similarity = 0.05395
Similarity = 0.02139
Similarity = 0.00928
Similarity = 0.01822
Similarity = 0.03058
Similarity = 0.01417
Similarity = 0.0134
Similarity = 0.0047
Similarity = 0.01369
Similarity = 0.01183
Similarity = 0.00837
Similarity = 0.01408
Similarity = 0.01731
Similarity = 0.0038
Similarity = 0.00973
Similarity = 0.01796
Similarity = 0.01017
Similarity = 0.01665
Similarity = 0.00779
Similarity = 0.01128
Similarity = 0.00593
Similarity = 0.00591
Similarity = 0.01078
Similarity = 0.01044
Similarity = 0.01785
Similarity = 0.0149
Similarity = 0.02109
Similarity = 0.00204
Similarity = 0.01658
Similarity = 0.01362
Similarity = 0.03543
Similarity = 0.00977
Similarity = 0.02394
Similarity = 0.00446
Similarity = 0.003
Similarity = 0.01839
Similarity = 0.00265
Similarity = 0.00906
Similarity = 0.01823
Similarity = 0.00772
Similarity = 0.00794
Similarity = 0.0081
Similarity = 0.01989
Similarity = 0.01488
Similarity = 0.01369
Similarity = 0.0117
Similarity = 0.00636
Similarity = 0.01946
Similarity = 0.00328
Similarity = 0.00656
Similarity = 0.01287
Similarity = 0.0524
Similarity = 0.00971
Similarity = 0.00194
Similarity = 0.0654
Similarity = 0.00491
Similarity = 0.0425
Similarity = 0.01436
Similarity = 0.03295
Similarity = 0.02661
Similarity = 0.02975
Similarity = 0.00871
Similarity = 0.0384
Similarity = 0.03401
Similarity = 0.01796
Similarity = 0.02429
Similarity = 0.01581
Similarity = 0.01571
Similarity = 0.03299
Similarity = 0.01181
Similarity = 0.0204
Similarity = 0.01362
Similarity = 0.03438
Similarity = 0.00493
Similarity = 0.01157
Similarity = 0.04385
Similarity = 0.03253
Similarity = 0.0225
Similarity = 0.02633
Similarity = 0.02849
Similarity = 0.07887
Similarity = 0.06197
Similarity = 0.01521
Similarity = 0.01031
Similarity = 0.00602
Similarity = 0.02833
Similarity = 0.0135
Similarity = 0.01993
Similarity = 0.02509
Similarity = 0.01056
Similarity = 0.03362
Similarity = 0.01524
Similarity = 0.03582
Similarity = 0.07202
Similarity = 0.00441
Similarity = 0.03088
Similarity = 0.01971
Similarity = 0.03884
Similarity = 0.01244
Similarity = 0.03519
Similarity = 0.02647
Similarity = 0.01108
Similarity = 0.01211
Similarity = 0.02825
Similarity = 0.08789
Similarity = 0.04847
Similarity = 0.00591
Similarity = 0.00094
Similarity = 0.00646
Similarity = 0.00574
Similarity = 0.00421
Similarity = 0.00555
Similarity = 0.00202
Similarity = 0.00301
Similarity = 0.01354
Similarity = 0.04383
Similarity = 0.0129
Similarity = 0.0197
Similarity = 0.01269
Similarity = 0.00119
Similarity = 0.00413
Similarity = 0.00601
Similarity = 0.01328
Similarity = 0.01576
Similarity = 0.03241
Similarity = 0.01086
Similarity = 0.00478
Similarity = 0.00318
Similarity = 0.01052
Similarity = 0.00773
Similarity = 0.01054
Similarity = 0.01011
Similarity = 0.00905
Similarity = 0.00778
Similarity = 0.00579
Similarity = 0.00802
Similarity = 0.02778
Similarity = 0.02755
Similarity = 0.00164
Similarity = 0.00405
Similarity = 0.00423
Similarity = 0.00578
Similarity = 0.02462
Similarity = 0.00728
Similarity = 0.00305
Similarity = 0.00623
Similarity = 0.0081
Similarity = 0.02251
Similarity = 0.00099
Similarity = 0.00517
Similarity = 0.02496
Similarity = 0.15218
Similarity = 0.00633
Similarity = 0.00357
Similarity = 0.01173
Similarity = 0.00663
Similarity = 0.01977
Similarity = 0.02412
Similarity = 0.01554
Similarity = 0.08222
Similarity = 0.03656
Similarity = 0.02418
Similarity = 0.03552
Similarity = 0.01108
Similarity = 0.01689
Similarity = 0.0768
Similarity = 0.01125
Similarity = 0.02994
Similarity = 0.03395
Similarity = 0.02215
Similarity = 0.00623
Similarity = 0.01517
Similarity = 0.03216
Similarity = 0.01042
Similarity = 0.01653
Similarity = 0.0218
Similarity = 0.03517
Similarity = 0.02536
Similarity = 0.03285
Similarity = 0.03407
Similarity = 0.03441
Similarity = 0.04644
Similarity = 0.01745
Similarity = 0.01029
Similarity = 0.0104
Similarity = 0.02636
Similarity = 0.00908
Similarity = 0.0244
Similarity = 0.01216
Similarity = 0.00945
Similarity = 0.00813
Similarity = 0.01582
Similarity = 0.01312
Similarity = 0.04222
Similarity = 0.01498
Similarity = 0.0288
Similarity = 0.02468
Similarity = 0.06669
Similarity = 0.02224
Similarity = 0.05269
Similarity = 0.02654
Similarity = 0.01976
Similarity = 0.0131
Similarity = 0.0092
Similarity = 0.02409
Similarity = 0.02252
Similarity = 0.01196
Similarity = 0.00401
Similarity = 0.02431
Similarity = 0.02341
Similarity = 0.00984
Similarity = 0.00194
Similarity = 0.0083
Similarity = 0.00184
Similarity = 0.00686
Similarity = 0.02433
Similarity = 0.01306
Similarity = 0.00577
Similarity = 0.00412
Similarity = 0.00427
Similarity = 0.01346
Similarity = 0.00485
Similarity = 0.02154
Similarity = 0.00127
Similarity = 0.00397
Similarity = 0.00315
Similarity = 0.00285
Similarity = 0.01061
Similarity = 0.00619
Similarity = 0.00338
Similarity = 0.00484
Similarity = 0.00108
Similarity = 0.00733
Similarity = 0.00689
Similarity = 0.0025
Similarity = 0.00478
Similarity = 0.00373
Similarity = 0.00136
Similarity = 0.00524
Similarity = 0.00953
Similarity = 0.0114
Similarity = 0.00765
Similarity = 0.0022
Similarity = 0.00053
Similarity = 0.00705
Similarity = 0.00407
Similarity = 0.00506
Similarity = 0.00695
Similarity = 0.00189
Similarity = 0.00972
Similarity = 0.01031
Similarity = 0.03668
Similarity = 0.00107
Similarity = 0.00153
Similarity = 0.00377
Similarity = 0.00299
Similarity = 0.00579
Similarity = 0.00473
Similarity = 0.01651
Similarity = 0.01328
Similarity = 0.01407
Similarity = 0.00549
Similarity = 0.01225
Similarity = 0.0158
Similarity = 0.02613
Similarity = 0.03629
Similarity = 0.02646
Similarity = 0.01876
Similarity = 0.0113
Similarity = 0.01606
Similarity = 0.00684
Similarity = 0.0115
Similarity = 0.02078
Similarity = 0.00833
Similarity = 0.01733
Similarity = 0.01704
Similarity = 0.01938
Similarity = 0.00681
Similarity = 0.01635
Similarity = 0.01979
Similarity = 0.00645
Similarity = 0.00683
Similarity = 0.01152
Similarity = 0.03959
Similarity = 0.00775
Similarity = 0.02366
Similarity = 0.0205
Similarity = 0.02801
Similarity = 0.01514
Similarity = 0.00509
Similarity = 0.01593
Similarity = 0.01146
Similarity = 0.02003
Similarity = 0.00389
Similarity = 0.0067
Similarity = 0.01486
Similarity = 0.02711
Similarity = 0.02245
Similarity = 0.06783
Similarity = 0.06359
Similarity = 0.04507
Similarity = 0.00653
Similarity = 0.00876
Similarity = 0.00967
Similarity = 0.04768
Similarity = 0.00969
Similarity = 0.00401
Similarity = 0.01133
Similarity = 0.02271
Similarity = 0.0387
Similarity = 0.0304
Similarity = 0.01067
Similarity = 0.04158
Similarity = 0.00679
Similarity = 0.05073
Similarity = 0.0103
Similarity = 0.03832
Similarity = 0.01601
Similarity = 0.02416
Similarity = 0.06459
Similarity = 0.01057
Similarity = 0.00711
Similarity = 0.03443
Similarity = 0.00377
Similarity = 0.0158
Similarity = 0.02997
Similarity = 0.01083
Similarity = 0.00779
Similarity = 0.01308
Similarity = 0.00551
Similarity = 0.01514
Similarity = 0.03442
Similarity = 0.05614
Similarity = 0.02275
Similarity = 0.00811
Similarity = 0.00848
Similarity = 0.0024
Similarity = 0.14917
Similarity = 0.08557
Similarity = 0.02292
Similarity = 0.00849
Similarity = 0.01104
Similarity = 0.01299
Similarity = 0.05746
Similarity = 0.01132
Similarity = 0.05301
Similarity = 0.02215
Similarity = 0.01772
Similarity = 0.00417
Similarity = 0.14445
Similarity = 0.14059
Similarity = 0.00767
Similarity = 0.00316
Similarity = 0.0069
Similarity = 0.03854
Similarity = 0.02522
Similarity = 0.01262
Similarity = 0.01528
Similarity = 0.00689
Similarity = 0.01228
Similarity = 0.01612
Similarity = 0.01466
Similarity = 0.0161
Similarity = 0.00638
Similarity = 0.00639
Similarity = 0.00867
Similarity = 0.01153
Similarity = 0.02011
Similarity = 0.01289
Similarity = 0.03561
Similarity = 0.01476
Similarity = 0.00928
Similarity = 0.01415
Similarity = 0.00323
Similarity = 0.01873
Similarity = 0.0115
Similarity = 0.02838
Similarity = 0.0095
Similarity = 0.0114
Similarity = 0.00934
Similarity = 0.00961
Similarity = 0.00937
Similarity = 0.00625
Similarity = 0.01683
Similarity = 0.00876
Similarity = 0.02497
Similarity = 0.00432
Similarity = 0.01475
Similarity = 0.01356
Similarity = 0.01423
Similarity = 0.01899
Similarity = 0.0092
Similarity = 0.01152
Similarity = 0.01157
Similarity = 0.00686
Similarity = 0.00758
Similarity = 0.02256
Similarity = 0.01275
Similarity = 0.00482
Similarity = 0.02009
Similarity = 0.01362
Similarity = 0.01929
Similarity = 0.00423
Similarity = 0.0075
Similarity = 0.014
Similarity = 0.0099
Similarity = 0.02628
Similarity = 0.00814
Similarity = 0.00673
Similarity = 0.01791
Similarity = 0.01472
Similarity = 0.00549
Similarity = 0.00548
Similarity = 0.00565
Similarity = 0.00379
Similarity = 0.01274
Similarity = 0.00677
Similarity = 0.00963
Similarity = 0.01363
Similarity = 0.01197
Similarity = 0.00433
Similarity = 0.00497
Similarity = 0.00816
Similarity = 0.01077
Similarity = 0.01262
Similarity = 0.0072
Similarity = 0.01863
Similarity = 0.00647
Similarity = 0.00765
Similarity = 0.00728
Similarity = 0.01078
Similarity = 0.01488
Similarity = 0.01509
Similarity = 0.00815
Similarity = 0.00469
Similarity = 0.01071
Similarity = 0.01379
Similarity = 0.01673
Similarity = 0.01197
Similarity = 0.01217
Similarity = 0.00421
Similarity = 0.01676
Similarity = 0.01052
Similarity = 0.01077
Similarity = 0.00669
Similarity = 0.0091
Similarity = 0.007
Similarity = 0.02017
Similarity = 0.0033
Similarity = 0.0196
Similarity = 0.04475
Similarity = 0.01852
Similarity = 0.00602
Similarity = 0.00988
Similarity = 0.0195
Similarity = 0.00656
Similarity = 0.02217
Similarity = 0.00346
Similarity = 0.03418
Similarity = 0.00858
Similarity = 0.00982
Similarity = 0.0486
Similarity = 0.01206
Similarity = 0.00757
Similarity = 0.02819
Similarity = 0.00495
Similarity = 0.0175
Similarity = 0.02394
Similarity = 0.03311
Similarity = 0.00992
Similarity = 0.0192
Similarity = 0.01678
Similarity = 0.01277
Similarity = 0.0144
Similarity = 0.03496
Similarity = 0.02366
Similarity = 0.01098
Similarity = 0.01603
Similarity = 0.02608
Similarity = 0.01927
Similarity = 0.00999
Similarity = 0.02742
Similarity = 0.03564
Similarity = 0.04836
Similarity = 0.00856
Similarity = 0.02572
Similarity = 0.00215
Similarity = 0.05825
Similarity = 0.02883
Similarity = 0.00985
Similarity = 0.01557
Similarity = 0.0058
Similarity = 0.0338
Similarity = 0.0084
Similarity = 0.01617
Similarity = 0.02102
Similarity = 0.01229
Similarity = 0.02749
Similarity = 0.01333
Similarity = 0.05015
Similarity = 0.09852
Similarity = 0.05561
Similarity = 0.01899
Similarity = 0.02336
Similarity = 0.06652
Similarity = 0.00513
Similarity = 0.01414
Similarity = 0.00111
Similarity = 0.01888
Similarity = 0.01812
Similarity = 0.01508
Similarity = 0.00497
Similarity = 0.01129
Similarity = 0.00646
Similarity = 0.00983
Similarity = 0.01226
Similarity = 0.00689
Similarity = 0.02531
Similarity = 0.00809
Similarity = 0.00738
Similarity = 0.00536
Similarity = 0.00877
Similarity = 0.01459
Similarity = 0.00082
Similarity = 0.00381
Similarity = 0.01248
Similarity = 0.00817
Similarity = 0.0096
Similarity = 0.01008
Similarity = 0.01484
Similarity = 0.0156
Similarity = 0.01735
Similarity = 0.01576
Similarity = 0.00719
Similarity = 0.00485
Similarity = 0.02072
Similarity = 0.014
Similarity = 0.00529
Similarity = 0.00498
Similarity = 0.00246
Similarity = 0.0142
Similarity = 0.00421
Similarity = 0.01218
Similarity = 0.00756
Similarity = 0.00236
Similarity = 0.00964
Similarity = 0.01827
Similarity = 0.0102
Similarity = 0.00882
Similarity = 0.01384
Similarity = 0.01728
Similarity = 0.00608
Similarity = 0.00189
Similarity = 0.00756
Similarity = 0.05253
Similarity = 0.01586
Similarity = 0.03169
Similarity = 0.00892
Similarity = 0.02582
Similarity = 0.03937
Similarity = 0.01114
Similarity = 0.00882
Similarity = 0.00966
Similarity = 0.0125
Similarity = 0.0165
Similarity = 0.01098
Similarity = 0.01883
Similarity = 0.04246
Similarity = 0.03988
Similarity = 0.02248
Similarity = 0.01437
Similarity = 0.02241
Similarity = 0.019
Similarity = 0.01641
Similarity = 0.01386
Similarity = 0.0135
Similarity = 0.0243
Similarity = 0.01595
Similarity = 0.02011
Similarity = 0.02297
Similarity = 0.02067
Similarity = 0.03849
Similarity = 0.01349
Similarity = 0.02236
Similarity = 0.0048
Similarity = 0.02543
Similarity = 0.00333
Similarity = 0.01559
Similarity = 0.00802
Similarity = 0.01089
Similarity = 0.02273
Similarity = 0.01547
Similarity = 0.03576
Similarity = 0.02045
Similarity = 0.00723
Similarity = 0.03122
Similarity = 0.03411
Similarity = 0.06587
Similarity = 0.0273
Similarity = 0.0398
Similarity = 0.05671
Similarity = 0.04877
Similarity = 0.00913
Similarity = 0.00817
Similarity = 0.03285
Similarity = 0.0089
Similarity = 0.01038
Similarity = 0.00889
Similarity = 0.01811
Similarity = 0.03049
Similarity = 0.0107
Similarity = 0.01263
Similarity = 0.07634
Similarity = 0.01136
Similarity = 0.0093
Similarity = 0.06737
Similarity = 0.01859
Similarity = 0.06119
Similarity = 0.01349
Similarity = 0.01411
Similarity = 0.01426
Similarity = 0.01551
Similarity = 0.0134
Similarity = 0.00926
Similarity = 0.00415
Similarity = 0.0453
Similarity = 0.01916
Similarity = 0.00945
Similarity = 0.02076
Similarity = 0.01306
Similarity = 0.00912
Similarity = 0.00887
Similarity = 0.01429
Similarity = 0.0245
Similarity = 0.00647
Similarity = 0.00994
Similarity = 0.00385
Similarity = 0.02666
Similarity = 0.02659
Similarity = 0.03536
Similarity = 0.01104
Similarity = 0.0061
Similarity = 0.01549
Similarity = 0.03265
Similarity = 0.00779
Similarity = 0.00433
Similarity = 0.05769
Similarity = 0.02517
Similarity = 0.01332
Similarity = 0.01375
Similarity = 0.02859
Similarity = 0.06451
Similarity = 0.02196
Similarity = 0.00558
Similarity = 0.0384
Similarity = 0.00843
Similarity = 0.05527
Similarity = 0.0074
Similarity = 0.02523
Similarity = 0.08575
Similarity = 0.05026
Similarity = 0.0061
Similarity = 0.00795
Similarity = 0.02868
Similarity = 0.0116
Similarity = 0.01452
Similarity = 0.00796
Similarity = 0.05412
Similarity = 0.01406
Similarity = 0.02341
Similarity = 0.05021
Similarity = 0.0179
Similarity = 0.04039
Similarity = 0.02341
Similarity = 0.0139
Similarity = 0.0319
Similarity = 0.01206
Similarity = 0.01713
Similarity = 0.01424
Similarity = 0.04009
Similarity = 0.00799
Similarity = 0.0194
Similarity = 0.04186
Similarity = 0.02139
Similarity = 0.0087
Similarity = 0.0261
Similarity = 0.00482
Similarity = 0.0132
Similarity = 0.02667
Similarity = 0.0503
Similarity = 0.01278
Similarity = 0.00655
Similarity = 0.01571
Similarity = 0.01729
Similarity = 0.00993
Similarity = 0.03874
Similarity = 0.0131
Similarity = 0.02564
Similarity = 0.01471
Similarity = 0.03029
Similarity = 0.03492
Similarity = 0.06348
Similarity = 0.00895
Similarity = 0.00949
Similarity = 0.00994
Similarity = 0.00471
Similarity = 0.03096
Similarity = 0.00714
Similarity = 0.01935
Similarity = 0.01601
Similarity = 0.01871
Similarity = 0.01423
Similarity = 0.01291
Similarity = 0.00857
Similarity = 0.01337
Similarity = 0.01054
Similarity = 0.02207
Similarity = 0.03433
Similarity = 0.01781
Similarity = 0.0106
Similarity = 0.00872
Similarity = 0.00868
Similarity = 0.00847
Similarity = 0.00605
Similarity = 0.03422
Similarity = 0.01681
Similarity = 0.02042
Similarity = 0.00576
Similarity = 0.02005
Similarity = 0.01535
Similarity = 0.03259
Similarity = 0.00772
Similarity = 0.01845
Similarity = 0.01529
Similarity = 0.00654
Similarity = 0.01505
Similarity = 0.01111
Similarity = 0.01466
Similarity = 0.01315
Similarity = 0.00957
Similarity = 0.0092
Similarity = 0.00509
Similarity = 0.0102
Similarity = 0.02416
Similarity = 0.00911
Similarity = 0.03054
Similarity = 0.00568
Similarity = 0.02077
Similarity = 0.00679
Similarity = 0.02334
Similarity = 0.04064
Similarity = 0.02114
Similarity = 0.01094
Similarity = 0.00917
Similarity = 0.02561
Similarity = 0.01597
Similarity = 0.03093
Similarity = 0.00962
Similarity = 0.01651
Similarity = 0.06406
Similarity = 0.02781
Similarity = 0.0072
Similarity = 0.024
Similarity = 0.00777
Similarity = 0.01096
Similarity = 0.03895
Similarity = 0.03132
Similarity = 0.02491
Similarity = 0.02786
Similarity = 0.02354
Similarity = 0.05084
Similarity = 0.02091
Similarity = 0.01973
Similarity = 0.0095
Similarity = 0.02297
Similarity = 0.01529
Similarity = 0.03407
Similarity = 0.01906
Similarity = 0.01565
Similarity = 0.0228
Similarity = 0.02645
Similarity = 0.02024
Similarity = 0.03399
Similarity = 0.01433
Similarity = 0.01131
Similarity = 0.02519
Similarity = 0.01654
Similarity = 0.03326
Similarity = 0.01257
Similarity = 0.02161
Similarity = 0.00581
Similarity = 0.0212
Similarity = 0.01304
Similarity = 0.02486
Similarity = 0.00428
Similarity = 0.02755
Similarity = 0.03688
Similarity = 0.06231
Similarity = 0.02086
Similarity = 0.04602
Similarity = 0.02131
Similarity = 0.05998
Similarity = 0.01235
Similarity = 0.02809
Similarity = 0.0106
Similarity = 0.00877
Similarity = 0.029
Similarity = 0.01443
Similarity = 0.01813
Similarity = 0.03742
Similarity = 0.01849
Similarity = 0.00795
Similarity = 0.00861
Similarity = 0.00694
Similarity = 0.01138
Similarity = 0.01072
Similarity = 0.01607
Similarity = 0.02631
Similarity = 0.01448
Similarity = 0.01552
Similarity = 0.01178
Similarity = 0.01004
Similarity = 0.01558
Similarity = 0.01164
Similarity = 0.02989
Similarity = 0.01129
Similarity = 0.01664
Similarity = 0.00936
Similarity = 0.01402
Similarity = 0.02542
Similarity = 0.00995
Similarity = 0.02011
Similarity = 0.01357
Similarity = 0.01558
Similarity = 0.00723
Similarity = 0.02045
Similarity = 0.00994
Similarity = 0.01572
Similarity = 0.02935
Similarity = 0.01496
Similarity = 0.01021
Similarity = 0.01654
Similarity = 0.01735
Similarity = 0.01482
Similarity = 0.00676
Similarity = 0.01493
Similarity = 0.01837
Similarity = 0.05441
Similarity = 0.00316
Similarity = 0.0255
Similarity = 0.03348
Similarity = 0.04542
Similarity = 0.00879
Similarity = 0.00996
Similarity = 0.01329
Similarity = 0.0151
Similarity = 0.03136
Similarity = 0.00647
Similarity = 0.02089
Similarity = 0.0176
Similarity = 0.00775
Similarity = 0.02586
Similarity = 0.00629
Similarity = 0.00562
Similarity = 0.00633
Similarity = 0.00833
Similarity = 0.02384
Similarity = 0.01867
Similarity = 0.00978
Similarity = 0.00418
Similarity = 0.00497
Similarity = 0.00585
Similarity = 0.00817
Similarity = 0.0111
Similarity = 0.04406
Similarity = 0.01709
Similarity = 0.01609
Similarity = 0.00946
Similarity = 0.01193
Similarity = 0.02352
Similarity = 0.01746
Similarity = 0.02738
Similarity = 0.01665
Similarity = 0.01035
Similarity = 0.0042
Similarity = 0.01893
Similarity = 0.1327
Similarity = 0.01935
Similarity = 0.02698
Similarity = 0.0108
Similarity = 0.00826
Similarity = 0.00585
Similarity = 0.02033
Similarity = 0.0165
Similarity = 0.00874
Similarity = 0.01796
Similarity = 0.01013
Similarity = 0.02532
Similarity = 0.01103
Similarity = 0.02482
Similarity = 0.01651
Similarity = 0.01704
Similarity = 0.01015
Similarity = 0.01164
Similarity = 0.03329
Similarity = 0.00898
Similarity = 0.01556
Similarity = 0.05538
Similarity = 0.01731
Similarity = 0.05504
Similarity = 0.01697
Similarity = 0.00344
Similarity = 0.04005
Similarity = 0.00691
Similarity = 0.03155
Similarity = 0.01521
Similarity = 0.02636
Similarity = 0.01482
Similarity = 0.03004
Similarity = 0.00725
Similarity = 0.02049
Similarity = 0.01422
Similarity = 0.03176
Similarity = 0.00901
Similarity = 0.03891
Similarity = 0.03014
Similarity = 0.02078
Similarity = 0.02485
Similarity = 0.01904
Similarity = 0.02108
Similarity = 0.02565
Similarity = 0.02748
Similarity = 0.01189
Similarity = 0.02357
Similarity = 0.00944
Similarity = 0.02751
Similarity = 0.00794
Similarity = 0.03987
Similarity = 0.02474
Similarity = 0.02235
Similarity = 0.0186
Similarity = 0.01299
Similarity = 0.01709
Similarity = 0.01427
Similarity = 0.02228
Similarity = 0.03991
Similarity = 0.02311
Similarity = 0.05103
Similarity = 0.01412
Similarity = 0.0545
Similarity = 0.03409
Similarity = 0.01705
Similarity = 0.0071
Similarity = 0.01118
Similarity = 0.03086
Similarity = 0.01036
Similarity = 0.05422
Similarity = 0.00373
Similarity = 0.01195
Similarity = 0.00287
Similarity = 0.00684
Similarity = 0.00178
Similarity = 0.00507
Similarity = 0.00593
Similarity = 0.01294
Similarity = 0.0081
Similarity = 0.00305
Similarity = 0.00526
Similarity = 0.01903
Similarity = 0.0055
Similarity = 0.01476
Similarity = 0.00743
Similarity = 0.02124
Similarity = 0.00858
Similarity = 0.00994
Similarity = 0.02416
Similarity = 0.0221
Similarity = 0.00985
Similarity = 0.00837
Similarity = 0.01038
Similarity = 0.01423
Similarity = 0.02066
Similarity = 0.01727
Similarity = 0.01303
Similarity = 0.00562
Similarity = 0.00541
Similarity = 0.00406
Similarity = 0.01258
Similarity = 0.00862
Similarity = 0.01343
Similarity = 0.00234
Similarity = 0.00613
Similarity = 0.04074
Similarity = 0.00224
Similarity = 0.0038
Similarity = 0.03241
Similarity = 0.01256
Similarity = 0.04169
Similarity = 0.01304
Similarity = 0.00649
Similarity = 0.0213
Similarity = 0.02511
Similarity = 0.00496
Similarity = 0.00572
Similarity = 0.01439
Similarity = 0.00949
Similarity = 0.01858
Similarity = 0.01172
Similarity = 0.00957
Similarity = 0.0184
Similarity = 0.01141
Similarity = 0.01022
Similarity = 0.05894
Similarity = 0.02355
Similarity = 0.03653
Similarity = 0.03019
Similarity = 0.01669
Similarity = 0.01714
Similarity = 0.01871
Similarity = 0.02985
Similarity = 0.01707
Similarity = 0.01584
Similarity = 0.01374
Similarity = 0.00833
Similarity = 0.02921
Similarity = 0.00837
Similarity = 0.02609
Similarity = 0.01243
Similarity = 0.01924
Similarity = 0.00671
Similarity = 0.01611
Similarity = 0.01436
Similarity = 0.01325
Similarity = 0.00783
Similarity = 0.00635
Similarity = 0.01155
Similarity = 0.00936
Similarity = 0.01287
Similarity = 0.02079
Similarity = 0.01415
Similarity = 0.00868
Similarity = 0.01189
Similarity = 0.00979
Similarity = 0.03239
Similarity = 0.00853
Similarity = 0.0264
Similarity = 0.03338
Similarity = 0.01986
Similarity = 0.00764
Similarity = 0.02892
Similarity = 0.0114
Similarity = 0.02568
Similarity = 0.00572
Similarity = 0.00661
Similarity = 0.01347
Similarity = 0.01017
Similarity = 0.00831
Similarity = 0.00224
Similarity = 0.00732
Similarity = 0.02576
Similarity = 0.00517
Similarity = 0.003
Similarity = 0.00216
Similarity = 0.00243
Similarity = 0.00709
Similarity = 0.00732
Similarity = 0.00862
Similarity = 0.01197
Similarity = 0.01092
Similarity = 0.01021
Similarity = 0.00681
Similarity = 0.00349
Similarity = 0.00952
Similarity = 0.00551
Similarity = 0.00861
Similarity = 0.01441
Similarity = 0.01888
Similarity = 0.01248
Similarity = 0.00444
Similarity = 0.0038
Similarity = 0.00583
Similarity = 0.01394
Similarity = 0.00667
Similarity = 0.00533
Similarity = 0.00128
Similarity = 0.00874
Similarity = 0.00831
Similarity = 0.01898
Similarity = 0.01909
Similarity = 0.00819
Similarity = 0.00813
Similarity = 0.00484
Similarity = 0.01093
Similarity = 0.00557
Similarity = 0.00734
Similarity = 0.02037
Similarity = 0.0048
Similarity = 0.01466
Similarity = 0.0039
Similarity = 0.01469
Similarity = 0.01801
Similarity = 0.07657
Similarity = 0.00357
Similarity = 0.00673
Similarity = 0.0059
Similarity = 0.00464
Similarity = 0.0108
Similarity = 0.00184
Similarity = 0.01494
Similarity = 0.01126
Similarity = 0.0099
Similarity = 0.00477
Similarity = 0.00366
Similarity = 0.00239
Similarity = 0.0106
Similarity = 0.08227
Similarity = 0.00887
Similarity = 0.01783
Similarity = 0.00559
Similarity = 0.00127
Similarity = 0.00437
Similarity = 0.02098
Similarity = 0.0106
Similarity = 0.00735
Similarity = 0.00397
Similarity = 0.00978
Similarity = 0.00404
Similarity = 0.00734
Similarity = 0.0045
Similarity = 0.00191
Similarity = 0.0071
Similarity = 0.00858
Similarity = 0.00889
Similarity = 0.00759
Similarity = 0.00211
Similarity = 0.00619
Similarity = 0.00475
Similarity = 0.02714
Similarity = 0.0052
Similarity = 0.0028
Similarity = 0.00308
Similarity = 0.002
Similarity = 0.00548
Similarity = 0.0191
Similarity = 0.0069
Similarity = 0.0134
Similarity = 0.00401
Similarity = 0.00493
Similarity = 0.00421
Similarity = 0.02191
Similarity = 0.04655
Similarity = 0.01751
Similarity = 0.00292
Similarity = 0.0037
Similarity = 0.01742
Similarity = 0.00171
Similarity = 0.02525
Similarity = 0.00897
Similarity = 0.02649
Similarity = 0.0293
Similarity = 0.01451
Similarity = 0.01747
Similarity = 0.008
Similarity = 0.01334
Similarity = 0.02181
Similarity = 0.01675
Similarity = 0.01825
Similarity = 0.02583
Similarity = 0.0156
Similarity = 0.01758
Similarity = 0.01321
Similarity = 0.01943
Similarity = 0.01494
Similarity = 0.02511
Similarity = 0.02579
Similarity = 0.0138
Similarity = 0.01645
Similarity = 0.01886
Similarity = 0.02203
Similarity = 0.03218
Similarity = 0.01682
Similarity = 0.04919
Similarity = 0.01576
Similarity = 0.02183
Similarity = 0.00495
Similarity = 0.02588
Similarity = 0.01863
Similarity = 0.01686
Similarity = 0.01712
Similarity = 0.00762
Similarity = 0.01078
Similarity = 0.00684
Similarity = 0.01358
Similarity = 0.01941
Similarity = 0.00679
Similarity = 0.02298
Similarity = 0.01664
Similarity = 0.03128
Similarity = 0.00704
Similarity = 0.02309
Similarity = 0.06929
Similarity = 0.01501
Similarity = 0.00964
Similarity = 0.01106
Similarity = 0.0462
Similarity = 0.00883
Similarity = 0.02697
Similarity = 0.04698
Similarity = 0.02289
Similarity = 0.03067
Similarity = 0.01823
Similarity = 0.00921
Similarity = 0.03265
Similarity = 0.00781
Similarity = 0.01308
Similarity = 0.037
Similarity = 0.02391
Similarity = 0.05115
Similarity = 0.02012
Similarity = 0.01111
Similarity = 0.02846
Similarity = 0.01687
Similarity = 0.0375
Similarity = 0.01235
Similarity = 0.00246
Similarity = 0.02667
Similarity = 0.03188
Similarity = 0.0066
Similarity = 0.02055
Similarity = 0.02427
Similarity = 0.01715
Similarity = 0.02845
Similarity = 0.02357
Similarity = 0.01423
Similarity = 0.00705
Similarity = 0.02067
Similarity = 0.01152
Similarity = 0.02833
Similarity = 0.03802
Similarity = 0.03148
Similarity = 0.022
Similarity = 0.01421
Similarity = 0.04383
Similarity = 0.01471
Similarity = 0.0069
Similarity = 0.01757
Similarity = 0.06737
Similarity = 0.0515
Similarity = 0.01618
Similarity = 0.0544
Similarity = 0.04718
Similarity = 0.04362
Similarity = 0.03399
Similarity = 0.01595
Similarity = 0.05061
Similarity = 0.02457
Similarity = 0.02419
Similarity = 0.00474
Similarity = 0.02139
Similarity = 0.00366
Similarity = 0.01498
Similarity = 0.01263
Similarity = 0.01086
Similarity = 0.00778
Similarity = 0.01034
Similarity = 0.02422
Similarity = 0.0098
Similarity = 0.01067
Similarity = 0.01274
Similarity = 0.01772
Similarity = 0.01332
Similarity = 0.01126
Similarity = 0.01667
Similarity = 0.00327
Similarity = 0.01324
Similarity = 0.00984
Similarity = 0.06201
Similarity = 0.00405
Similarity = 0.00533
Similarity = 0.00632
Similarity = 0.00645
Similarity = 0.01314
Similarity = 0.01135
Similarity = 0.00523
Similarity = 0.00609
Similarity = 0.01436
Similarity = 0.00237
Similarity = 0.00551
Similarity = 0.00322
Similarity = 0.0154
Similarity = 0.00094
Similarity = 0.01183
Similarity = 0.00679
Similarity = 0.01499
Similarity = 0.0078
Similarity = 0.01448
Similarity = 0.00883
Similarity = 0.02053
Similarity = 0.00627
Similarity = 0.01816
Similarity = 0.03622
Similarity = 0.08115
Similarity = 0.00338
Similarity = 0.00457
Similarity = 0.00415
Similarity = 0.00585
Similarity = 0.02798
Similarity = 0.01451
Similarity = 0.02896
Similarity = 0.05319
Similarity = 0.0776
Similarity = 0.04102
Similarity = 0.03685
Similarity = 0.02879
Similarity = 0.01675
Similarity = 0.05218
Similarity = 0.01339
Similarity = 0.01644
Similarity = 0.02436
Similarity = 0.04199
Similarity = 0.01461
Similarity = 0.01935
Similarity = 0.03599
Similarity = 0.01264
Similarity = 0.01773
Similarity = 0.01981
Similarity = 0.05197
Similarity = 0.0137
Similarity = 0.04759
Similarity = 0.02183
Similarity = 0.01484
Similarity = 0.0524
Similarity = 0.03778
Similarity = 0.01664
Similarity = 0.01013
Similarity = 0.04293
Similarity = 0.00462
Similarity = 0.01669
Similarity = 0.02934
Similarity = 0.01261
Similarity = 0.02399
Similarity = 0.01715
Similarity = 0.00198
Similarity = 0.06768
Similarity = 0.03816
Similarity = 0.01687
Similarity = 0.03852
Similarity = 0.04206
Similarity = 0.0171
Similarity = 0.03625
Similarity = 0.04183
Similarity = 0.03191
Similarity = 0.01789
Similarity = 0.00621
Similarity = 0.05932
Similarity = 0.02635
Similarity = 0.05936
Similarity = 0.02291
Similarity = 0.01085
Similarity = 0.049
Similarity = 0.03858
Similarity = 0.01166
Similarity = 0.03445
Similarity = 0.0103
Similarity = 0.02356
Similarity = 0.04231
Similarity = 0.01065
Similarity = 0.04831
Similarity = 0.01431
Similarity = 0.01516
Similarity = 0.01653
Similarity = 0.0406
Similarity = 0.0298
Similarity = 0.00385
Similarity = 0.0191
Similarity = 0.02342
Similarity = 0.02624
Similarity = 0.01399
Similarity = 0.02964
Similarity = 0.04183
Similarity = 0.02416
Similarity = 0.01976
Similarity = 0.02138
Similarity = 0.0198
Similarity = 0.00564
Similarity = 0.01411
Similarity = 0.0042
Similarity = 0.00778
Similarity = 0.01163
Similarity = 0.02402
Similarity = 0.01114
Similarity = 0.00535
Similarity = 0.0202
Similarity = 0.04875
Similarity = 0.00725
Similarity = 0.01219
Similarity = 0.03599
Similarity = 0.00916
Similarity = 0.01871
Similarity = 0.01643
Similarity = 0.02605
Similarity = 0.0199
Similarity = 0.02062
Similarity = 0.01856
Similarity = 0.00931
Similarity = 0.02091
Similarity = 0.01475
Similarity = 0.00313
Similarity = 0.02196
Similarity = 0.03332
Similarity = 0.00676
Similarity = 0.00913
Similarity = 0.0269
Similarity = 0.00358
Similarity = 0.00869
Similarity = 0.02348
Similarity = 0.00883
Similarity = 0.02934
Similarity = 0.01451
Similarity = 0.01227
Similarity = 0.00477
Similarity = 0.00853
Similarity = 0.00792
Similarity = 0.00909
Similarity = 0.0135
Similarity = 0.01242
Similarity = 0.02064
Similarity = 0.0036
Similarity = 0.00845
Similarity = 0.00806
Similarity = 0.01321
Similarity = 0.03222
Similarity = 0.02096
Similarity = 0.00492
Similarity = 0.00266
Similarity = 0.01551
Similarity = 0.00044
Similarity = 0.03938
Similarity = 0.00329
Similarity = 0.02047
Similarity = 0.00846
Similarity = 0.00503
Similarity = 0.02251
Similarity = 0.0154
Similarity = 0.00487
Similarity = 0.0216
Similarity = 0.04627
Similarity = 0.04204
Similarity = 0.00897
Similarity = 0.01422
Similarity = 0.0155
Similarity = 0.01733
Similarity = 0.0207
Similarity = 0.00764
Similarity = 0.01857
Similarity = 0.01506
Similarity = 0.04325
Similarity = 0.02158
Similarity = 0.00714
Similarity = 0.03125
Similarity = 0.02409
Similarity = 0.00933
Similarity = 0.03716
Similarity = 0.01309
Similarity = 0.02532
Similarity = 0.02035
Similarity = 0.0093
Similarity = 0.01163
Similarity = 0.02552
Similarity = 0.00449
Similarity = 0.01677
Similarity = 0.0191
Similarity = 0.04218
Similarity = 0.00817
Similarity = 0.00605
Similarity = 0.01753
Similarity = 0.0237
Similarity = 0.0231
Similarity = 0.01852
Similarity = 0.05747
Similarity = 0.02916
Similarity = 0.00492
Similarity = 0.02368
Similarity = 0.0058
Similarity = 0.001
Similarity = 0.01704
Similarity = 0.00426
Similarity = 0.00489
Similarity = 0.01072
Similarity = 0.00932
Similarity = 0.00609
Similarity = 0.00386
Similarity = 0.01785
Similarity = 0.02307
Similarity = 0.0082
Similarity = 0.01029
Similarity = 0.01679
Similarity = 0.0291
Similarity = 0.01573
Similarity = 0.00363
Similarity = 0.02461
Similarity = 0.09772
Similarity = 0.00946
Similarity = 0.01133
Similarity = 0.00654
Similarity = 0.02469
Similarity = 0.02435
Similarity = 0.00959
Similarity = 0.03277
Similarity = 0.03637
Similarity = 0.02349
Similarity = 0.00939
Similarity = 0.03448
Similarity = 0.00969
Similarity = 0.03816
Similarity = 0.02829
Similarity = 0.01623
Similarity = 0.0145
Similarity = 0.02221
Similarity = 0.0112
Similarity = 0.01957
Similarity = 0.01067
Similarity = 0.02658
Similarity = 0.00407
Similarity = 0.00486
Similarity = 0.02328
Similarity = 0.04933
Similarity = 0.02499
Similarity = 0.01955
Similarity = 0.0302
Similarity = 0.01741
Similarity = 0.02002
Similarity = 0.01783
Similarity = 0.02639
Similarity = 0.01002
Similarity = 0.02657
Similarity = 0.0035
Similarity = 0.02636
Similarity = 0.0301
Similarity = 0.01636
Similarity = 0.01825
Similarity = 0.04626
Similarity = 0.0235
Similarity = 0.01958
Similarity = 0.01177
Similarity = 0.01403
Similarity = 0.02929
Similarity = 0.03689
Similarity = 0.02446
Similarity = 0.05936
Similarity = 0.03301
Similarity = 0.04023
Similarity = 0.01141
Similarity = 0.00971
Similarity = 0.03219
Similarity = 0.01959
Similarity = 0.01314
Similarity = 0.00628
Similarity = 0.00972
Similarity = 0.00448
Similarity = 0.00758
Similarity = 0.00758
Similarity = 0.00526
Similarity = 0.00745
Similarity = 0.00631
Similarity = 0.01147
Similarity = 0.01319
Similarity = 0.01769
Similarity = 0.00551
Similarity = 0.0054
Similarity = 0.00583
Similarity = 0.00395
Similarity = 0.00944
Similarity = 0.00282
Similarity = 0.01607
Similarity = 0.01228
Similarity = 0.01238
Similarity = 0.00494
Similarity = 0.00687
Similarity = 0.01059
Similarity = 0.00567
Similarity = 0.01572
Similarity = 0.01135
Similarity = 0.00472
Similarity = 0.00318
Similarity = 0.0072
Similarity = 0.00377
Similarity = 0.00737
Similarity = 0.01249
Similarity = 0.00706
Similarity = 0.00651
Similarity = 0.00382
Similarity = 0.00513
Similarity = 0.01432
Similarity = 0.00488
Similarity = 0.01449
Similarity = 0.01473
Similarity = 0.02138
Similarity = 0.00883
Similarity = 0.01644
Similarity = 0.01366
Similarity = 0.04668
Similarity = 0.00073
Similarity = 0.00387
Similarity = 0.00733
Similarity = 0.00303
Similarity = 0.02429
Similarity = 0.0088
Similarity = 0.01124
Similarity = 0.02991
Similarity = 0.01369
Similarity = 0.006
Similarity = 0.03294
Similarity = 0.00488
Similarity = 0.01633
Similarity = 0.01447
Similarity = 0.01948
Similarity = 0.04004
Similarity = 0.01324
Similarity = 0.01321
Similarity = 0.01482
Similarity = 0.01476
Similarity = 0.01185
Similarity = 0.01164
Similarity = 0.0126
Similarity = 0.012
Similarity = 0.03186
Similarity = 0.00584
Similarity = 0.01652
Similarity = 0.00421
Similarity = 0.02192
Similarity = 0.02155
Similarity = 0.02076
Similarity = 0.00953
Similarity = 0.0041
Similarity = 0.01199
Similarity = 0.0031
Similarity = 0.00978
Similarity = 0.00886
Similarity = 0.02628
Similarity = 0.0097
Similarity = 0.01468
Similarity = 0.01578
Similarity = 0.02845
Similarity = 0.00591
Similarity = 0.02263
Similarity = 0.06282
Similarity = 0.03368
Similarity = 0.00555
Similarity = 0.01944
Similarity = 0.01655
Similarity = 0.00709
Similarity = 0.04121
Similarity = 0.01114
Similarity = 0.02889
Similarity = 0.02066
Similarity = 0.02299
Similarity = 0.02739
Similarity = 0.02686
Similarity = 0.05214
Similarity = 0.0278
Similarity = 0.02803
Similarity = 0.01596
Similarity = 0.00738
Similarity = 0.00486
Similarity = 0.01956
Similarity = 0.03587
Similarity = 0.00841
Similarity = 0.03906
Similarity = 0.02377
Similarity = 0.01668
Similarity = 0.01885
Similarity = 0.01493
Similarity = 0.0045
Similarity = 0.04675
Similarity = 0.02515
Similarity = 0.03474
Similarity = 0.01203
Similarity = 0.04986
Similarity = 0.01025
Similarity = 0.02458
Similarity = 0.05426
Similarity = 0.02545
Similarity = 0.02967
Similarity = 0.01246
Similarity = 0.03796
Similarity = 0.01518
Similarity = 0.02665
Similarity = 0.0298
Similarity = 0.01228
Similarity = 0.03784
Similarity = 0.00698
Similarity = 0.02748
Similarity = 0.04248
Similarity = 0.01054
Similarity = 0.02891
Similarity = 0.03514
Similarity = 0.04354
Similarity = 0.01987
Similarity = 0.01074
Similarity = 0.02064
Similarity = 0.0616
Similarity = 0.02505
Similarity = 0.01538
Similarity = 0.02366
Similarity = 0.00582
Similarity = 0.02341
Similarity = 0.01133
Similarity = 0.01857
Similarity = 0.04544
Similarity = 0.02016
Similarity = 0.00475
Similarity = 0.02077
Similarity = 0.01154
Similarity = 0.01943
Similarity = 0.01385
Similarity = 0.01908
Similarity = 0.02248
Similarity = 0.01428
Similarity = 0.01397
Similarity = 0.00917
Similarity = 0.00871
Similarity = 0.02507
Similarity = 0.00707
Similarity = 0.00612
Similarity = 0.01243
Similarity = 0.02919
Similarity = 0.00493
Similarity = 0.01586
Similarity = 0.02562
Similarity = 0.03272
Similarity = 0.01318
Similarity = 0.01783
Similarity = 0.01362
Similarity = 0.00186
Similarity = 0.0192
Similarity = 0.00661
Similarity = 0.02666
Similarity = 0.0238
Similarity = 0.00699
Similarity = 0.01244
Similarity = 0.0068
Similarity = 0.01514
Similarity = 0.01797
Similarity = 0.00866
Similarity = 0.02268
Similarity = 0.0115
Similarity = 0.01513
Similarity = 0.00773
Similarity = 0.04358
Similarity = 0.04499
Similarity = 0.00506
Similarity = 0.007
Similarity = 0.01159
Similarity = 0.03178
Similarity = 0.01058
Similarity = 0.0333
Similarity = 0.01112
Similarity = 0.00903
Similarity = 0.02806
Similarity = 0.01311
Similarity = 0.00832
Similarity = 0.00482
Similarity = 0.00357
Similarity = 0.02716
Similarity = 0.00824
Similarity = 0.0091
Similarity = 0.00735
Similarity = 0.0182
Similarity = 0.01162
Similarity = 0.01255
Similarity = 0.01311
Similarity = 0.01663
Similarity = 0.00621
Similarity = 0.01499
Similarity = 0.01926
Similarity = 0.02059
Similarity = 0.01269
Similarity = 0.0148
Similarity = 0.01693
Similarity = 0.00699
Similarity = 0.00769
Similarity = 0.01313
Similarity = 0.02894
Similarity = 0.00912
Similarity = 0.01624
Similarity = 0.00641
Similarity = 0.0197
Similarity = 0.00924
Similarity = 0.0048
Similarity = 0.01831
Similarity = 0.01463
Similarity = 0.04317
Similarity = 0.072
Similarity = 0.01684
Similarity = 0.02672
Similarity = 0.02404
Similarity = 0.05842
Similarity = 0.01551
Similarity = 0.00866
Similarity = 0.02083
Similarity = 0.01249
Similarity = 0.00296
Similarity = 0.00496
Similarity = 0.01435
Similarity = 0.00747
Similarity = 0.02994
Similarity = 0.00696
Similarity = 0.0024
Similarity = 0.02663
Similarity = 0.01052
Similarity = 0.01277
Similarity = 0.01066
Similarity = 0.00343
Similarity = 0.00492
Similarity = 0.04583
Similarity = 0.00789
Similarity = 0.02649
Similarity = 0.01152
Similarity = 0.00404
Similarity = 0.01556
Similarity = 0.00568
Similarity = 0.02488
Similarity = 0.01983
Similarity = 0.02561
Similarity = 0.02554
Similarity = 0.00567
Similarity = 0.00433
Similarity = 0.01037
Similarity = 0.01828
Similarity = 0.02665
Similarity = 0.00862
Similarity = 0.01163
Similarity = 0.00981
Similarity = 0.00317
Similarity = 0.00944
Similarity = 0.01274
Similarity = 0.02073
Similarity = 0.00387
Similarity = 0.00401
Similarity = 0.00577
Similarity = 0.00818
Similarity = 0.04047
Similarity = 0.01196
Similarity = 0.01568
Similarity = 0.00654
Similarity = 0.0086
Similarity = 0.0087
Similarity = 0.00552
Similarity = 0.0126
Similarity = 0.0319
Similarity = 0.02504
Similarity = 0.00687
Similarity = 0.01151
Similarity = 0.00694
Similarity = 0.00718
Similarity = 0.00771
Similarity = 0.00887
Similarity = 0.03336
Similarity = 0.00968
Similarity = 0.01757
Similarity = 0.02894
Similarity = 0.00373
Similarity = 0.00478
Similarity = 0.00518
Similarity = 0.02109
Similarity = 0.0072
Similarity = 0.02625
Similarity = 0.01079
Similarity = 0.01036
Similarity = 0.00216
Similarity = 0.00704
Similarity = 0.00403
Similarity = 0.00752
Similarity = 0.01817
Similarity = 0.00669
Similarity = 0.00877
Similarity = 0.00676
Similarity = 0.01094
Similarity = 0.00719
Similarity = 0.01852
Similarity = 0.01336
Similarity = 0.00999
Similarity = 0.00305
Similarity = 0.00186
Similarity = 0.00633
Similarity = 0.00453
Similarity = 0.00598
Similarity = 0.00659
Similarity = 0.00266
Similarity = 0.01184
Similarity = 0.00995
Similarity = 0.00493
Similarity = 0.00389
Similarity = 0.01452
Similarity = 0.01079
Similarity = 0.01011
Similarity = 0.00862
Similarity = 0.00301
Similarity = 0.00852
Similarity = 0.0124
Similarity = 0.01325
Similarity = 0.00476
Similarity = 0.00292
Similarity = 0.0036
Similarity = 0.00849
Similarity = 0.02154
Similarity = 0.00951
Similarity = 0.0203
Similarity = 0.03835
Similarity = 0.02235
Similarity = 0.0084
Similarity = 0.04638
Similarity = 0.02087
Similarity = 0.0137
Similarity = 0.04952
Similarity = 0.01139
Similarity = 0.03877
Similarity = 0.02704
Similarity = 0.01278
Similarity = 0.02896
Similarity = 0.02334
Similarity = 0.02654
Similarity = 0.00682
Similarity = 0.02584
Similarity = 0.02657
Similarity = 0.01735
Similarity = 0.01987
Similarity = 0.01702
Similarity = 0.0246
Similarity = 0.02614
Similarity = 0.0373
Similarity = 0.02862
Similarity = 0.02324
Similarity = 0.00869
Similarity = 0.02403
Similarity = 0.01257
Similarity = 0.08189
Similarity = 0.0136
Similarity = 0.00634
Similarity = 0.01445
Similarity = 0.01033
Similarity = 0.02495
Similarity = 0.01919
Similarity = 0.01061
Similarity = 0.03023
Similarity = 0.02779
Similarity = 0.04244
Similarity = 0.02254
Similarity = 0.0375
Similarity = 0.03913
Similarity = 0.01764
Similarity = 0.01123
Similarity = 0.0114
Similarity = 0.03505
Similarity = 0.01743
Similarity = 0.02806
Similarity = 0.01995
Similarity = 0.01546
Similarity = 0.01775
Similarity = 0.03237
Similarity = 0.02025
Similarity = 0.0267
Similarity = 0.04069
Similarity = 0.00806
Similarity = 0.01991
Similarity = 0.02746
Similarity = 0.03611
Similarity = 0.0231
Similarity = 0.01275
Similarity = 0.01243
Similarity = 0.01125
Similarity = 0.04722
Similarity = 0.0036
Similarity = 0.03924
Similarity = 0.0179
Similarity = 0.03866
Similarity = 0.01285
Similarity = 0.02377
Similarity = 0.01676
Similarity = 0.01714
Similarity = 0.01575
Similarity = 0.01147
Similarity = 0.01799
Similarity = 0.0045
Similarity = 0.01762
Similarity = 0.00334
Similarity = 0.00963
Similarity = 0.01744
Similarity = 0.00978
Similarity = 0.00757
Similarity = 0.0125
Similarity = 0.01221
Similarity = 0.01842
Similarity = 0.02855
Similarity = 0.01325
Similarity = 0.02363
Similarity = 0.02199
Similarity = 0.0116
Similarity = 0.0462
Similarity = 0.03902
Similarity = 0.02745
Similarity = 0.00648
Similarity = 0.0035
Similarity = 0.01099
Similarity = 0.02035
Similarity = 0.01829
Similarity = 0.00196
Similarity = 0.03785
Similarity = 0.03729
Similarity = 0.00812
Similarity = 0.00529
Similarity = 0.00405
Similarity = 0.00344
Similarity = 0.02917
Similarity = 0.01379
Similarity = 0.01658
Similarity = 0.02425
Similarity = 0.01628
Similarity = 0.01207
Similarity = 0.00698
Similarity = 0.01079
Similarity = 0.01593
Similarity = 0.00469
Similarity = 0.01016
Similarity = 0.01429
Similarity = 0.01945
Similarity = 0.00756
Similarity = 0.0088
Similarity = 0.0084
Similarity = 0.01296
Similarity = 0.0132
Similarity = 0.00886
Similarity = 0.02273
Similarity = 0.01224
Similarity = 0.01113
Similarity = 0.00194
Similarity = 0.00955
Similarity = 0.01105
Similarity = 0.00677
Similarity = 0.00682
Similarity = 0.0104
Similarity = 0.00697
Similarity = 0.03695
Similarity = 0.01421
Similarity = 0.01575
Similarity = 0.01209
Similarity = 0.0271
Similarity = 0.05165
Similarity = 0.01523
Similarity = 0.01406
Similarity = 0.13304
Similarity = 0.00724
Similarity = 0.00523
Similarity = 0.0046
Similarity = 0.00293
Similarity = 0.07576
Similarity = 0.03731
Similarity = 0.00565
Similarity = 0.06058
Similarity = 0.01155
Similarity = 0.02385
Similarity = 0.01394
Similarity = 0.00504
Similarity = 0.01247
Similarity = 0.0174
Similarity = 0.01828
Similarity = 0.00882
Similarity = 0.02263
Similarity = 0.00368
Similarity = 0.00634
Similarity = 0.01439
Similarity = 0.00994
Similarity = 0.00235
Similarity = 0.00852
Similarity = 0.02714
Similarity = 0.02752
Similarity = 0.00798
Similarity = 0.00832
Similarity = 0.0144
Similarity = 0.00591
Similarity = 0.03264
Similarity = 0.01185
Similarity = 0.02971
Similarity = 0.00378
Similarity = 0.01204
Similarity = 0.00693
Similarity = 0.03968
Similarity = 0.02011
Similarity = 0.01101
Similarity = 0.0194
Similarity = 0.00751
Similarity = 0.03992
Similarity = 0.01954
Similarity = 0.0295
Similarity = 0.05102
Similarity = 0.01591
Similarity = 0.00619
Similarity = 0.02712
Similarity = 0.03216
Similarity = 0.04639
Similarity = 0.00423
Similarity = 0.00362
Similarity = 0.0228
Similarity = 0.01856
Similarity = 0.00595
Similarity = 0.037
Similarity = 0.01208
Similarity = 0.02681
Similarity = 0.02116
Similarity = 0.00692
Similarity = 0.01146
Similarity = 0.03051
Similarity = 0.01199
Similarity = 0.0348
Similarity = 0.00959
Similarity = 0.03598
Similarity = 0.04843
Similarity = 0.02895
Similarity = 0.00061
Similarity = 0.01078
Similarity = 0.01156
Similarity = 0.0256
Similarity = 0.01851
Similarity = 0.04363
Similarity = 0.01802
Similarity = 0.02554
Similarity = 0.0143
Similarity = 0.0107
Similarity = 0.03434
Similarity = 0.02828
Similarity = 0.03498
Similarity = 0.02158
Similarity = 0.01817
Similarity = 0.00654
Similarity = 0.02014
Similarity = 0.01575
Similarity = 0.01686
Similarity = 0.00998
Similarity = 0.00853
Similarity = 0.01356
Similarity = 0.0186
Similarity = 0.02528
Similarity = 0.01971
Similarity = 0.01682
Similarity = 0.04031
Similarity = 0.02631
Similarity = 0.03127
Similarity = 0.00966
Similarity = 0.05004
Similarity = 0.04785
Similarity = 0.06444
Similarity = 0.00541
Similarity = 0.00363
Similarity = 0.01062
Similarity = 0.00761
0.019174744000000014
