Files are arxiv_abs/physics.updates.on.arXiv.org  arxiv_abs/quant-ph.updates.on.arXiv.org
Similarity = 0.03528
Similarity = 0.03791
Similarity = 0.04467
Similarity = 0.02669
Similarity = 0.02514
Similarity = 0.07506
Similarity = 0.02092
Similarity = 0.01944
Similarity = 0.03291
Similarity = 0.01471
Similarity = 0.003
Similarity = 0.01891
Similarity = 0.00504
Similarity = 0.02028
Similarity = 0.02097
Similarity = 0.01044
Similarity = 0.01275
Similarity = 0.0173
Similarity = 0.00922
Similarity = 0.04904
Similarity = 0.00537
Similarity = 0.0088
Similarity = 0.02018
Similarity = 0.01494
Similarity = 0.03567
Similarity = 0.02993
Similarity = 0.01587
Similarity = 0.02135
Similarity = 0.01349
Similarity = 0.01644
Similarity = 0.03495
Similarity = 0.02371
Similarity = 0.02392
Similarity = 0.01015
Similarity = 0.01967
Similarity = 0.02736
Similarity = 0.02869
Similarity = 0.00841
Similarity = 0.00785
Similarity = 0.01156
Similarity = 0.05377
Similarity = 0.06639
Similarity = 0.01284
Similarity = 0.07988
Similarity = 0.00848
Similarity = 0.04924
Similarity = 0.01669
Similarity = 0.02239
Similarity = 0.01229
Similarity = 0.02103
Similarity = 0.08751
Similarity = 0.03061
Similarity = 0.02272
Similarity = 0.03232
Similarity = 0.0251
Similarity = 0.00872
Similarity = 0.0129
Similarity = 0.01434
Similarity = 0.02477
Similarity = 0.01695
Similarity = 0.00357
Similarity = 0.01896
Similarity = 0.01138
Similarity = 0.01726
Similarity = 0.01787
Similarity = 0.00705
Similarity = 0.00548
Similarity = 0.02926
Similarity = 0.01333
Similarity = 0.02667
Similarity = 0.00304
Similarity = 0.02269
Similarity = 0.00849
Similarity = 0.0089
Similarity = 0.01677
Similarity = 0.02209
Similarity = 0.01403
Similarity = 0.01733
Similarity = 0.01346
Similarity = 0.01071
Similarity = 0.01136
Similarity = 0.01012
Similarity = 0.01393
Similarity = 0.02307
Similarity = 0.01572
Similarity = 0.00395
Similarity = 0.01484
Similarity = 0.00437
Similarity = 0.00332
Similarity = 0.02506
Similarity = 0.01825
Similarity = 0.01184
Similarity = 0.0215
Similarity = 0.01261
Similarity = 0.00489
Similarity = 0.01501
Similarity = 0.02087
Similarity = 0.01854
Similarity = 0.01198
Similarity = 0.00606
Similarity = 0.03128
Similarity = 0.02204
Similarity = 0.02271
Similarity = 0.02484
Similarity = 0.02622
Similarity = 0.02552
Similarity = 0.01916
Similarity = 0.01806
Similarity = 0.01144
Similarity = 0.00508
Similarity = 0.04195
Similarity = 0.03729
Similarity = 0.01749
Similarity = 0.01864
Similarity = 0.02531
Similarity = 0.01104
Similarity = 0.01229
Similarity = 0.02647
Similarity = 0.00593
Similarity = 0.03371
Similarity = 0.01492
Similarity = 0.06721
Similarity = 0.01232
Similarity = 0.05186
Similarity = 0.02996
Similarity = 0.06732
Similarity = 0.01997
Similarity = 0.01882
Similarity = 0.01774
Similarity = 0.03015
Similarity = 0.01691
Similarity = 0.03914
Similarity = 0.07458
Similarity = 0.00606
Similarity = 0.03633
Similarity = 0.01509
Similarity = 0.01593
Similarity = 0.09608
Similarity = 0.02084
Similarity = 0.0388
Similarity = 0.03562
Similarity = 0.02415
Similarity = 0.01836
Similarity = 0.01312
Similarity = 0.01076
Similarity = 0.02407
Similarity = 0.03335
Similarity = 0.0151
Similarity = 0.0073
Similarity = 0.02676
Similarity = 0.04962
Similarity = 0.02323
Similarity = 0.04395
Similarity = 0.01462
Similarity = 0.0334
Similarity = 0.06711
Similarity = 0.05695
Similarity = 0.03395
Similarity = 0.04436
Similarity = 0.01431
Similarity = 0.02732
Similarity = 0.03246
Similarity = 0.01368
Similarity = 0.05923
Similarity = 0.02915
Similarity = 0.0739
Similarity = 0.01161
Similarity = 0.0255
Similarity = 0.0164
Similarity = 0.04173
Similarity = 0.05974
Similarity = 0.02559
Similarity = 0.02657
Similarity = 0.06662
Similarity = 0.09001
Similarity = 0.01633
Similarity = 0.01203
Similarity = 0.07232
Similarity = 0.04372
Similarity = 0.05528
Similarity = 0.14967
Similarity = 0.0703
Similarity = 0.0197
Similarity = 0.03125
Similarity = 0.02519
Similarity = 0.02556
Similarity = 0.03549
Similarity = 0.02073
Similarity = 0.0141
Similarity = 0.02093
Similarity = 0.0265
Similarity = 0.01795
Similarity = 0.03836
Similarity = 0.01632
Similarity = 0.01566
Similarity = 0.02884
Similarity = 0.03161
Similarity = 0.01741
Similarity = 0.03051
Similarity = 0.04034
Similarity = 0.03989
Similarity = 0.04459
Similarity = 0.0431
Similarity = 0.03911
Similarity = 0.04095
Similarity = 0.03006
Similarity = 0.05097
Similarity = 0.03492
Similarity = 0.03907
Similarity = 0.0159
Similarity = 0.01089
Similarity = 0.03654
Similarity = 0.00639
Similarity = 0.08508
Similarity = 0.04631
Similarity = 0.05977
Similarity = 0.02756
Similarity = 0.0516
Similarity = 0.07358
Similarity = 0.04738
Similarity = 0.08493
Similarity = 0.01901
Similarity = 0.02243
Similarity = 0.03207
Similarity = 0.05055
Similarity = 0.03092
Similarity = 0.01208
Similarity = 0.04061
Similarity = 0.01228
Similarity = 0.05668
Similarity = 0.02802
Similarity = 0.03611
Similarity = 0.01288
Similarity = 0.02348
Similarity = 0.0316
Similarity = 0.03079
Similarity = 0.04123
Similarity = 0.01775
Similarity = 0.02503
Similarity = 0.02859
Similarity = 0.06865
Similarity = 0.04045
Similarity = 0.09184
Similarity = 0.02215
Similarity = 0.01113
Similarity = 0.04887
Similarity = 0.09415
Similarity = 0.01654
Similarity = 0.02417
Similarity = 0.03093
Similarity = 0.04321
Similarity = 0.02017
Similarity = 0.013
Similarity = 0.00902
Similarity = 0.0147
Similarity = 0.00696
Similarity = 0.00798
Similarity = 0.0187
Similarity = 0.0137
Similarity = 0.00787
Similarity = 0.00593
Similarity = 0.0062
Similarity = 0.02757
Similarity = 0.01344
Similarity = 0.01121
Similarity = 0.00231
Similarity = 0.00847
Similarity = 0.01784
Similarity = 0.01482
Similarity = 0.01992
Similarity = 0.00401
Similarity = 0.00912
Similarity = 0.00765
Similarity = 0.01509
Similarity = 0.02736
Similarity = 0.00931
Similarity = 0.01154
Similarity = 0.0261
Similarity = 0.00711
Similarity = 0.01301
Similarity = 0.01909
Similarity = 0.01495
Similarity = 0.00718
Similarity = 0.00737
Similarity = 0.01579
Similarity = 0.02752
Similarity = 0.0176
Similarity = 0.00729
Similarity = 0.00863
Similarity = 0.01775
Similarity = 0.01392
Similarity = 0.0077
Similarity = 0.02341
Similarity = 0.01249
Similarity = 0.00699
Similarity = 0.02643
Similarity = 0.01618
Similarity = 0.01251
Similarity = 0.00713
Similarity = 0.00968
Similarity = 0.03867
Similarity = 0.02389
Similarity = 0.03382
Similarity = 0.04087
Similarity = 0.0136
Similarity = 0.02787
Similarity = 0.01842
Similarity = 0.02678
Similarity = 0.04031
Similarity = 0.00744
Similarity = 0.00578
Similarity = 0.01363
Similarity = 0.00426
Similarity = 0.05576
Similarity = 0.01826
Similarity = 0.00848
Similarity = 0.01261
Similarity = 0.01972
Similarity = 0.00894
Similarity = 0.03112
Similarity = 0.01481
Similarity = 0.00791
Similarity = 0.01185
Similarity = 0.01878
Similarity = 0.04495
Similarity = 0.0132
Similarity = 0.01132
Similarity = 0.02056
Similarity = 0.00413
Similarity = 0.0065
Similarity = 0.02015
Similarity = 0.01774
Similarity = 0.01924
Similarity = 0.01229
Similarity = 0.02596
Similarity = 0.01767
Similarity = 0.02973
Similarity = 0.01408
Similarity = 0.01024
Similarity = 0.04526
Similarity = 0.01406
Similarity = 0.01268
Similarity = 0.04037
Similarity = 0.01776
Similarity = 0.01763
Similarity = 0.021
Similarity = 0.01997
Similarity = 0.01519
Similarity = 0.00735
Similarity = 0.01033
Similarity = 0.03195
Similarity = 0.02096
Similarity = 0.00695
Similarity = 0.00538
Similarity = 0.00536
Similarity = 0.01432
Similarity = 0.00689
Similarity = 0.00925
Similarity = 0.01683
Similarity = 0.00458
Similarity = 0.00264
Similarity = 0.00871
Similarity = 0.00327
Similarity = 0.04964
Similarity = 0.00618
Similarity = 0.00406
Similarity = 0.00738
Similarity = 0.00756
Similarity = 0.00578
Similarity = 0.04155
Similarity = 0.01046
Similarity = 0.01345
Similarity = 0.00893
Similarity = 0.0111
Similarity = 0.01389
Similarity = 0.01222
Similarity = 0.00431
Similarity = 0.02327
Similarity = 0.00212
Similarity = 0.01182
Similarity = 0.02477
Similarity = 0.01757
Similarity = 0.00826
Similarity = 0.01952
Similarity = 0.00797
Similarity = 0.00461
Similarity = 0.0125
Similarity = 0.00368
Similarity = 0.00988
Similarity = 0.01279
Similarity = 0.03002
Similarity = 0.02188
Similarity = 0.0101
Similarity = 0.01105
Similarity = 0.00442
Similarity = 0.01597
Similarity = 0.01622
Similarity = 0.01257
Similarity = 0.006
Similarity = 0.01166
Similarity = 0.04251
Similarity = 0.00975
Similarity = 0.02006
Similarity = 0.02881
Similarity = 0.01987
Similarity = 0.00997
Similarity = 0.02513
Similarity = 0.0136
Similarity = 0.01721
Similarity = 0.00506
Similarity = 0.0037
Similarity = 0.01636
Similarity = 0.00412
Similarity = 0.01438
Similarity = 0.01716
Similarity = 0.00626
Similarity = 0.00309
Similarity = 0.02485
Similarity = 0.0287
Similarity = 0.02261
Similarity = 0.02241
Similarity = 0.01387
Similarity = 0.0164
Similarity = 0.01257
Similarity = 0.0371
Similarity = 0.01224
Similarity = 0.00819
Similarity = 0.03862
Similarity = 0.0174
Similarity = 0.00388
Similarity = 0.00969
Similarity = 0.00854
Similarity = 0.03821
Similarity = 0.03775
Similarity = 0.00309
Similarity = 0.0136
Similarity = 0.01203
Similarity = 0.01034
Similarity = 0.00827
Similarity = 0.07895
Similarity = 0.0127
Similarity = 0.01724
Similarity = 0.03305
Similarity = 0.02398
Similarity = 0.01349
Similarity = 0.01679
Similarity = 0.03224
Similarity = 0.01145
Similarity = 0.02624
Similarity = 0.00457
Similarity = 0.02784
Similarity = 0.01332
Similarity = 0.03439
Similarity = 0.01064
Similarity = 0.00941
Similarity = 0.05128
Similarity = 0.00876
Similarity = 0.01006
Similarity = 0.02349
Similarity = 0.04007
Similarity = 0.00412
Similarity = 0.02887
Similarity = 0.02468
Similarity = 0.01309
Similarity = 0.01555
Similarity = 0.02205
Similarity = 0.01935
Similarity = 0.01527
Similarity = 0.01687
Similarity = 0.04203
Similarity = 0.0386
Similarity = 0.03854
Similarity = 0.00616
Similarity = 0.01995
Similarity = 0.01775
Similarity = 0.01206
Similarity = 0.08108
Similarity = 0.02504
Similarity = 0.06979
Similarity = 0.02026
Similarity = 0.02619
Similarity = 0.01485
Similarity = 0.00794
Similarity = 0.01306
Similarity = 0.03198
Similarity = 0.01449
Similarity = 0.01008
Similarity = 0.00912
Similarity = 0.04005
Similarity = 0.0141
Similarity = 0.01883
Similarity = 0.01094
Similarity = 0.01803
Similarity = 0.01387
Similarity = 0.0078
Similarity = 0.02206
Similarity = 0.01484
Similarity = 0.0047
Similarity = 0.00572
Similarity = 0.01384
Similarity = 0.02406
Similarity = 0.00835
Similarity = 0.02421
Similarity = 0.01178
Similarity = 0.01627
Similarity = 0.00887
Similarity = 0.0448
Similarity = 0.0101
Similarity = 0.0081
Similarity = 0.00814
Similarity = 0.00538
Similarity = 0.01755
Similarity = 0.01415
Similarity = 0.00966
Similarity = 0.02356
Similarity = 0.00692
Similarity = 0.01388
Similarity = 0.02401
Similarity = 0.00453
Similarity = 0.01284
Similarity = 0.01222
Similarity = 0.01455
Similarity = 0.01471
Similarity = 0.02653
Similarity = 0.03206
Similarity = 0.0127
Similarity = 0.1107
Similarity = 0.04774
Similarity = 0.00951
Similarity = 0.00848
Similarity = 0.0103
Similarity = 0.01656
Similarity = 0.01361
Similarity = 0.00871
Similarity = 0.01379
Similarity = 0.01527
Similarity = 0.01016
Similarity = 0.01024
Similarity = 0.00578
Similarity = 0.02125
Similarity = 0.04099
Similarity = 0.01162
Similarity = 0.04367
Similarity = 0.01346
Similarity = 0.00715
Similarity = 0.0306
Similarity = 0.01994
Similarity = 0.00631
Similarity = 0.00328
Similarity = 0.01103
Similarity = 0.04421
Similarity = 0.03684
Similarity = 0.03114
Similarity = 0.04908
Similarity = 0.0149
Similarity = 0.01654
Similarity = 0.01918
Similarity = 0.00924
Similarity = 0.01117
Similarity = 0.00732
Similarity = 0.00622
Similarity = 0.02759
Similarity = 0.01221
Similarity = 0.02224
Similarity = 0.01842
Similarity = 0.01419
Similarity = 0.01966
Similarity = 0.02437
Similarity = 0.01656
Similarity = 0.01986
Similarity = 0.01823
Similarity = 0.01646
Similarity = 0.014
Similarity = 0.01496
Similarity = 0.01959
Similarity = 0.03207
Similarity = 0.0185
Similarity = 0.02569
Similarity = 0.08493
Similarity = 0.00492
Similarity = 0.01846
Similarity = 0.03265
Similarity = 0.01661
Similarity = 0.01745
Similarity = 0.038
Similarity = 0.00551
Similarity = 0.00966
Similarity = 0.02308
Similarity = 0.00181
Similarity = 0.05355
Similarity = 0.02681
Similarity = 0.02273
Similarity = 0.00764
Similarity = 0.03352
Similarity = 0.00546
Similarity = 0.01244
Similarity = 0.045
Similarity = 0.00964
Similarity = 0.00539
Similarity = 0.01155
Similarity = 0.03132
Similarity = 0.03464
Similarity = 0.01923
Similarity = 0.01884
Similarity = 0.01362
Similarity = 0.01055
Similarity = 0.04323
Similarity = 0.03422
Similarity = 0.02454
Similarity = 0.01438
Similarity = 0.00202
Similarity = 0.00828
Similarity = 0.01079
Similarity = 0.0347
Similarity = 0.01499
Similarity = 0.0289
Similarity = 0.01327
Similarity = 0.03911
Similarity = 0.02423
Similarity = 0.03826
Similarity = 0.02896
Similarity = 0.0084
Similarity = 0.01832
Similarity = 0.01035
Similarity = 0.01721
Similarity = 0.01903
Similarity = 0.00636
Similarity = 0.01947
Similarity = 0.01161
Similarity = 0.00328
Similarity = 0.0123
Similarity = 0.02862
Similarity = 0.01167
Similarity = 0.0178
Similarity = 0.01472
Similarity = 0.00991
Similarity = 0.03238
Similarity = 0.00796
Similarity = 0.01121
Similarity = 0.02423
Similarity = 0.0111
Similarity = 0.02467
Similarity = 0.0525
Similarity = 0.02717
Similarity = 0.01849
Similarity = 0.03439
Similarity = 0.05347
Similarity = 0.01317
Similarity = 0.0158
Similarity = 0.0183
Similarity = 0.08017
Similarity = 0.03932
Similarity = 0.0322
Similarity = 0.01174
Similarity = 0.03613
Similarity = 0.01349
Similarity = 0.01589
Similarity = 0.00443
Similarity = 0.02397
Similarity = 0.00668
Similarity = 0.03107
Similarity = 0.02521
Similarity = 0.03545
Similarity = 0.01252
Similarity = 0.03433
Similarity = 0.0147
Similarity = 0.00813
Similarity = 0.0313
Similarity = 0.00837
Similarity = 0.01847
Similarity = 0.01433
Similarity = 0.0258
Similarity = 0.0071
Similarity = 0.01035
Similarity = 0.01762
Similarity = 0.00666
Similarity = 0.02798
Similarity = 0.02418
Similarity = 0.01207
Similarity = 0.02425
Similarity = 0.00955
Similarity = 0.02373
Similarity = 0.01533
Similarity = 0.019
Similarity = 0.02077
Similarity = 0.02761
Similarity = 0.00709
Similarity = 0.0158
Similarity = 0.00829
Similarity = 0.02306
Similarity = 0.01261
Similarity = 0.01909
Similarity = 0.02229
Similarity = 0.01558
Similarity = 0.02653
Similarity = 0.02948
Similarity = 0.02514
Similarity = 0.00818
Similarity = 0.01771
Similarity = 0.00978
Similarity = 0.03682
Similarity = 0.03114
Similarity = 0.00782
Similarity = 0.0281
Similarity = 0.01784
Similarity = 0.02569
Similarity = 0.01433
Similarity = 0.02679
Similarity = 0.02124
Similarity = 0.00749
Similarity = 0.01235
Similarity = 0.04717
Similarity = 0.03805
Similarity = 0.0113
Similarity = 0.02607
Similarity = 0.02092
Similarity = 0.00867
Similarity = 0.02884
Similarity = 0.01839
Similarity = 0.021
Similarity = 0.01573
Similarity = 0.04942
Similarity = 0.00846
Similarity = 0.01919
Similarity = 0.02718
Similarity = 0.02231
Similarity = 0.02319
Similarity = 0.01988
Similarity = 0.02183
Similarity = 0.01652
Similarity = 0.03004
Similarity = 0.02287
Similarity = 0.0197
Similarity = 0.01577
Similarity = 0.01844
Similarity = 0.01206
Similarity = 0.02436
Similarity = 0.03835
Similarity = 0.00727
Similarity = 0.04704
Similarity = 0.01059
Similarity = 0.04225
Similarity = 0.02249
Similarity = 0.02727
Similarity = 0.01918
Similarity = 0.02897
Similarity = 0.01841
Similarity = 0.00916
Similarity = 0.01718
Similarity = 0.00797
Similarity = 0.02271
Similarity = 0.0159
Similarity = 0.01419
Similarity = 0.02778
Similarity = 0.01368
Similarity = 0.00603
Similarity = 0.00746
Similarity = 0.01954
Similarity = 0.02065
Similarity = 0.00683
Similarity = 0.00235
Similarity = 0.00967
Similarity = 0.02999
Similarity = 0.01817
Similarity = 0.01647
Similarity = 0.00414
Similarity = 0.01388
Similarity = 0.01204
Similarity = 0.04123
Similarity = 0.02862
Similarity = 0.00723
Similarity = 0.01129
Similarity = 0.01829
Similarity = 0.01294
Similarity = 0.02518
Similarity = 0.00685
Similarity = 0.01296
Similarity = 0.01729
Similarity = 0.00902
Similarity = 0.00308
Similarity = 0.02441
Similarity = 0.02899
Similarity = 0.0107
Similarity = 0.01194
Similarity = 0.01192
Similarity = 0.01173
Similarity = 0.01653
Similarity = 0.0026
Similarity = 0.00674
Similarity = 0.01602
Similarity = 0.01439
Similarity = 0.01301
Similarity = 0.00702
Similarity = 0.01793
Similarity = 0.00577
Similarity = 0.01041
Similarity = 0.0223
Similarity = 0.01459
Similarity = 0.01113
Similarity = 0.01864
Similarity = 0.04813
Similarity = 0.02132
Similarity = 0.07515
Similarity = 0.00883
Similarity = 0.01021
Similarity = 0.02951
Similarity = 0.00905
Similarity = 0.02966
Similarity = 0.03625
Similarity = 0.02844
Similarity = 0.00413
Similarity = 0.0225
Similarity = 0.00705
Similarity = 0.03909
Similarity = 0.02154
Similarity = 0.01328
Similarity = 0.01541
Similarity = 0.04008
Similarity = 0.04014
Similarity = 0.06025
Similarity = 0.0234
Similarity = 0.01491
Similarity = 0.01331
Similarity = 0.02541
Similarity = 0.05705
Similarity = 0.02313
Similarity = 0.01959
Similarity = 0.05528
Similarity = 0.00468
Similarity = 0.01884
Similarity = 0.0371
Similarity = 0.03971
Similarity = 0.01933
Similarity = 0.03708
Similarity = 0.03836
Similarity = 0.02081
Similarity = 0.027
Similarity = 0.00899
Similarity = 0.01294
Similarity = 0.04871
Similarity = 0.03184
Similarity = 0.01741
Similarity = 0.03694
Similarity = 0.02255
Similarity = 0.012
Similarity = 0.0266
Similarity = 0.01902
Similarity = 0.00935
Similarity = 0.01503
Similarity = 0.01609
Similarity = 0.02065
Similarity = 0.0164
Similarity = 0.01177
Similarity = 0.01201
Similarity = 0.00382
Similarity = 0.00494
Similarity = 0.00384
Similarity = 0.00714
Similarity = 0.00394
Similarity = 0.00263
Similarity = 0.01488
Similarity = 0.01663
Similarity = 0.00426
Similarity = 0.00397
Similarity = 0.00229
Similarity = 0.00699
Similarity = 0.00866
Similarity = 0.01067
Similarity = 0.00678
Similarity = 0.01785
Similarity = 0.00074
Similarity = 0.02485
Similarity = 0.00211
Similarity = 0.00169
Similarity = 0.00358
Similarity = 0.00402
Similarity = 0.0216
Similarity = 0.02339
Similarity = 0.00318
Similarity = 0.00443
Similarity = 0.01632
Similarity = 0.0026
Similarity = 0.00403
Similarity = 0.0091
Similarity = 0.01005
Similarity = 0.05123
Similarity = 0.00938
Similarity = 0.00082
Similarity = 0.00783
Similarity = 0.00893
Similarity = 0.00146
Similarity = 0.00373
Similarity = 0.01714
Similarity = 0.00433
Similarity = 0.12955
Similarity = 0.01192
Similarity = 0.00384
Similarity = 0.02112
Similarity = 0.00822
Similarity = 0.01068
Similarity = 0.0441
Similarity = 0.013
Similarity = 0.00851
Similarity = 0.01687
Similarity = 0.00789
Similarity = 0.01689
Similarity = 0.02496
Similarity = 0.01749
Similarity = 0.01435
Similarity = 0.00701
Similarity = 0.00336
Similarity = 0.01717
Similarity = 0.01396
Similarity = 0.0104
Similarity = 0.02858
Similarity = 0.00401
Similarity = 0.00881
Similarity = 0.0122
Similarity = 0.0219
Similarity = 0.02162
Similarity = 0.01795
Similarity = 0.01648
Similarity = 0.00237
Similarity = 0.01837
Similarity = 0.01131
Similarity = 0.00912
Similarity = 0.00895
Similarity = 0.03666
Similarity = 0.00791
Similarity = 0.0116
Similarity = 0.0151
Similarity = 0.02344
Similarity = 0.01283
Similarity = 0.02837
Similarity = 0.01175
Similarity = 0.03004
Similarity = 0.01589
Similarity = 0.02297
Similarity = 0.01586
Similarity = 0.02422
Similarity = 0.02673
Similarity = 0.025
Similarity = 0.05375
Similarity = 0.02687
Similarity = 0.03303
Similarity = 0.04811
Similarity = 0.02801
Similarity = 0.01169
Similarity = 0.0083
Similarity = 0.01407
Similarity = 0.04675
Similarity = 0.02051
Similarity = 0.01784
Similarity = 0.0063
Similarity = 0.04033
Similarity = 0.01616
Similarity = 0.01002
Similarity = 0.01864
Similarity = 0.01792
Similarity = 0.00774
Similarity = 0.00835
Similarity = 0.01758
Similarity = 0.01183
Similarity = 0.02024
Similarity = 0.00865
Similarity = 0.00864
Similarity = 0.01016
Similarity = 0.00734
Similarity = 0.01067
Similarity = 0.05313
Similarity = 0.01113
Similarity = 0.0333
Similarity = 0.00977
Similarity = 0.01639
Similarity = 0.02536
Similarity = 0.01086
Similarity = 0.01929
Similarity = 0.02354
Similarity = 0.01516
Similarity = 0.01098
Similarity = 0.03078
Similarity = 0.01828
Similarity = 0.01235
Similarity = 0.01398
Similarity = 0.01775
Similarity = 0.01923
Similarity = 0.01482
Similarity = 0.007
Similarity = 0.01979
Similarity = 0.01651
Similarity = 0.01519
Similarity = 0.02253
Similarity = 0.01048
Similarity = 0.02224
Similarity = 0.03212
Similarity = 0.0144
Similarity = 0.01378
Similarity = 0.00827
Similarity = 0.01191
Similarity = 0.02882
Similarity = 0.03458
Similarity = 0.01377
Similarity = 0.03027
Similarity = 0.01777
Similarity = 0.01342
Similarity = 0.02078
Similarity = 0.01826
Similarity = 0.02001
Similarity = 0.02257
Similarity = 0.00842
Similarity = 0.00444
Similarity = 0.02985
Similarity = 0.02506
Similarity = 0.03284
Similarity = 0.01229
Similarity = 0.01574
Similarity = 0.01504
Similarity = 0.01363
Similarity = 0.02571
Similarity = 0.06362
Similarity = 0.0084
Similarity = 0.0169
Similarity = 0.0151
Similarity = 0.00656
Similarity = 0.01963
Similarity = 0.02949
Similarity = 0.00853
Similarity = 0.01507
Similarity = 0.01472
Similarity = 0.01886
Similarity = 0.0283
Similarity = 0.01345
Similarity = 0.02004
Similarity = 0.02437
Similarity = 0.04
Similarity = 0.00414
Similarity = 0.01896
Similarity = 0.01403
Similarity = 0.01468
Similarity = 0.03081
Similarity = 0.0679
Similarity = 0.00577
Similarity = 0.02133
Similarity = 0.02694
Similarity = 0.02013
Similarity = 0.02946
Similarity = 0.01084
Similarity = 0.01249
Similarity = 0.00695
Similarity = 0.01444
Similarity = 0.03521
Similarity = 0.02448
Similarity = 0.00658
Similarity = 0.00615
Similarity = 0.03044
Similarity = 0.01971
Similarity = 0.026
Similarity = 0.01088
Similarity = 0.01771
Similarity = 0.00555
Similarity = 0.01657
Similarity = 0.01645
Similarity = 0.01279
Similarity = 0.01433
Similarity = 0.01006
Similarity = 0.00626
Similarity = 0.0045
Similarity = 0.01661
Similarity = 0.0032
Similarity = 0.04179
Similarity = 0.00689
Similarity = 0.01361
Similarity = 0.01133
Similarity = 0.00956
Similarity = 0.035
Similarity = 0.01162
Similarity = 0.01516
Similarity = 0.02891
Similarity = 0.00643
Similarity = 0.0176
Similarity = 0.01437
Similarity = 0.01392
Similarity = 0.03115
Similarity = 0.00936
Similarity = 0.00481
Similarity = 0.01055
Similarity = 0.01198
Similarity = 0.00776
Similarity = 0.01047
Similarity = 0.01692
Similarity = 0.01258
Similarity = 0.01307
Similarity = 0.01447
Similarity = 0.02201
Similarity = 0.0068
Similarity = 0.01505
Similarity = 0.01885
Similarity = 0.00494
Similarity = 0.00899
Similarity = 0.01075
Similarity = 0.04364
Similarity = 0.02721
Similarity = 0.01411
Similarity = 0.0165
Similarity = 0.02861
Similarity = 0.00629
Similarity = 0.01248
Similarity = 0.01261
Similarity = 0.01035
Similarity = 0.00769
Similarity = 0.00626
Similarity = 0.02433
Similarity = 0.00532
Similarity = 0.01769
Similarity = 0.01757
Similarity = 0.00606
Similarity = 0.01186
Similarity = 0.01461
Similarity = 0.013
Similarity = 0.04271
Similarity = 0.01445
Similarity = 0.00632
Similarity = 0.01956
Similarity = 0.03518
Similarity = 0.01319
Similarity = 0.00902
Similarity = 0.0086
Similarity = 0.02827
Similarity = 0.00598
Similarity = 0.00708
Similarity = 0.02367
Similarity = 0.02166
Similarity = 0.0154
Similarity = 0.01381
Similarity = 0.022
Similarity = 0.01638
Similarity = 0.01473
Similarity = 0.02659
Similarity = 0.00978
Similarity = 0.02314
Similarity = 0.0109
Similarity = 0.01383
Similarity = 0.02958
Similarity = 0.0127
Similarity = 0.02496
Similarity = 0.02765
Similarity = 0.01825
Similarity = 0.00864
Similarity = 0.00967
Similarity = 0.03125
Similarity = 0.04156
Similarity = 0.031
Similarity = 0.06498
Similarity = 0.01154
Similarity = 0.02967
Similarity = 0.01196
Similarity = 0.01787
Similarity = 0.03267
Similarity = 0.02792
Similarity = 0.01121
Similarity = 0.00238
Similarity = 0.00898
Similarity = 0.01514
Similarity = 0.01975
Similarity = 0.01233
Similarity = 0.00431
Similarity = 0.00496
Similarity = 0.00795
Similarity = 0.01568
Similarity = 0.02948
Similarity = 0.03027
Similarity = 0.01582
Similarity = 0.01332
Similarity = 0.02609
Similarity = 0.02505
Similarity = 0.00726
Similarity = 0.00633
Similarity = 0.01233
Similarity = 0.00758
Similarity = 0.00996
Similarity = 0.03263
Similarity = 0.01986
Similarity = 0.02447
Similarity = 0.00787
Similarity = 0.01887
Similarity = 0.01658
Similarity = 0.03036
Similarity = 0.00586
Similarity = 0.00846
Similarity = 0.00984
Similarity = 0.03192
Similarity = 0.00831
Similarity = 0.0239
Similarity = 0.01395
Similarity = 0.00709
Similarity = 0.03135
Similarity = 0.03276
Similarity = 0.01426
Similarity = 0.00968
Similarity = 0.03724
Similarity = 0.07959
Similarity = 0.04402
Similarity = 0.03352
Similarity = 0.05054
Similarity = 0.04442
Similarity = 0.0319
Similarity = 0.01616
Similarity = 0.02726
Similarity = 0.0283
Similarity = 0.01199
Similarity = 0.00427
Similarity = 0.03003
Similarity = 0.00888
Similarity = 0.03796
Similarity = 0.0263
Similarity = 0.01411
Similarity = 0.00362
Similarity = 0.03904
Similarity = 0.07002
Similarity = 0.04084
Similarity = 0.02041
Similarity = 0.00813
Similarity = 0.01194
Similarity = 0.00757
Similarity = 0.05065
Similarity = 0.04543
Similarity = 0.01551
Similarity = 0.03018
Similarity = 0.00581
Similarity = 0.07789
Similarity = 0.02692
Similarity = 0.0623
Similarity = 0.02545
Similarity = 0.01059
Similarity = 0.02524
Similarity = 0.03613
Similarity = 0.02742
Similarity = 0.00732
Similarity = 0.03341
Similarity = 0.05024
Similarity = 0.06148
Similarity = 0.0437
Similarity = 0.04063
Similarity = 0.02852
Similarity = 0.01486
Similarity = 0.03328
Similarity = 0.06966
Similarity = 0.02088
Similarity = 0.01384
Similarity = 0.01948
Similarity = 0.02581
Similarity = 0.01507
Similarity = 0.01954
Similarity = 0.0195
Similarity = 0.02234
Similarity = 0.19462
Similarity = 0.02126
Similarity = 0.01616
Similarity = 0.08279
Similarity = 0.01437
Similarity = 0.00122
Similarity = 0.01147
Similarity = 0.01216
Similarity = 0.01348
Similarity = 0.00866
Similarity = 0.00672
Similarity = 0.02472
Similarity = 0.05076
Similarity = 0.05681
Similarity = 0.01776
Similarity = 0.01883
Similarity = 0.01559
Similarity = 0.01398
Similarity = 0.15167
Similarity = 0.0284
Similarity = 0.01812
Similarity = 0.00873
Similarity = 0.02254
Similarity = 0.02904
Similarity = 0.00847
Similarity = 0.00799
Similarity = 0.0312
Similarity = 0.01263
Similarity = 0.03071
Similarity = 0.03381
Similarity = 0.08088
Similarity = 0.01645
Similarity = 0.00576
Similarity = 0.02399
Similarity = 0.02455
Similarity = 0.01101
Similarity = 0.0053
Similarity = 0.03523
Similarity = 0.01435
Similarity = 0.00886
Similarity = 0.06374
Similarity = 0.05667
Similarity = 0.01313
Similarity = 0.02212
Similarity = 0.04638
Similarity = 0.03327
Similarity = 0.02674
Similarity = 0.01888
Similarity = 0.02261
Similarity = 0.02848
Similarity = 0.02978
Similarity = 0.02553
Similarity = 0.01367
Similarity = 0.01591
Similarity = 0.0073
Similarity = 0.01073
Similarity = 0.01588
Similarity = 0.01252
Similarity = 0.03346
Similarity = 0.02432
Similarity = 0.01373
Similarity = 0.00979
Similarity = 0.01611
Similarity = 0.02554
Similarity = 0.03652
Similarity = 0.00923
Similarity = 0.01923
Similarity = 0.00747
Similarity = 0.00652
Similarity = 0.01491
Similarity = 0.01251
Similarity = 0.0094
Similarity = 0.05579
Similarity = 0.01524
Similarity = 0.01046
Similarity = 0.02322
Similarity = 0.01715
Similarity = 0.01446
Similarity = 0.01306
Similarity = 0.01866
Similarity = 0.01584
Similarity = 0.02031
Similarity = 0.01662
Similarity = 0.01038
Similarity = 0.01785
Similarity = 0.02742
Similarity = 0.03016
Similarity = 0.04619
Similarity = 0.02332
Similarity = 0.00888
Similarity = 0.04647
Similarity = 0.03093
Similarity = 0.00956
Similarity = 0.01242
Similarity = 0.01322
Similarity = 0.03011
Similarity = 0.0146
Similarity = 0.01839
Similarity = 0.00473
Similarity = 0.01165
Similarity = 0.00866
Similarity = 0.00872
Similarity = 0.0162
Similarity = 0.01248
Similarity = 0.00879
Similarity = 0.0081
Similarity = 0.01988
Similarity = 0.00823
Similarity = 0.00836
Similarity = 0.0108
Similarity = 0.00878
Similarity = 0.01689
Similarity = 0.01341
Similarity = 0.02231
Similarity = 0.01987
Similarity = 0.01373
Similarity = 0.01397
Similarity = 0.01609
Similarity = 0.00661
Similarity = 0.00976
Similarity = 0.01065
Similarity = 0.01358
Similarity = 0.02358
Similarity = 0.00556
Similarity = 0.01279
Similarity = 0.01297
Similarity = 0.01036
Similarity = 0.00996
Similarity = 0.00701
Similarity = 0.01574
Similarity = 0.00867
Similarity = 0.01322
Similarity = 0.00842
Similarity = 0.0048
Similarity = 0.01339
Similarity = 0.02542
Similarity = 0.0131
Similarity = 0.01871
Similarity = 0.02631
Similarity = 0.00891
Similarity = 0.02039
Similarity = 0.02416
Similarity = 0.01276
Similarity = 0.00977
Similarity = 0.02458
Similarity = 0.01892
Similarity = 0.03169
Similarity = 0.00976
Similarity = 0.00362
Similarity = 0.01038
Similarity = 0.00299
Similarity = 0.00736
Similarity = 0.00624
Similarity = 0.01397
Similarity = 0.00156
Similarity = 0.00711
Similarity = 0.00418
Similarity = 0.00692
Similarity = 0.00688
Similarity = 0.00717
Similarity = 0.01118
Similarity = 0.00625
Similarity = 0.02591
Similarity = 0.00942
Similarity = 0.00846
Similarity = 0.01592
Similarity = 0.01355
Similarity = 0.01017
Similarity = 0.025
Similarity = 0.00965
Similarity = 0.00405
Similarity = 0.01197
Similarity = 0.0272
Similarity = 0.0124
Similarity = 0.01574
Similarity = 0.00768
Similarity = 0.00426
Similarity = 0.00471
Similarity = 0.00575
Similarity = 0.01424
Similarity = 0.01367
Similarity = 0.00446
Similarity = 0.0036
Similarity = 0.00468
Similarity = 0.00769
Similarity = 0.00266
Similarity = 0.00643
Similarity = 0.00357
Similarity = 0.00436
Similarity = 0.00934
Similarity = 0.00425
Similarity = 0.02344
Similarity = 0.0056
Similarity = 0.01486
Similarity = 0.00959
Similarity = 0.03703
Similarity = 0.01867
Similarity = 0.02408
Similarity = 0.01332
Similarity = 0.01264
Similarity = 0.0073
Similarity = 0.0309
Similarity = 0.01438
Similarity = 0.01925
Similarity = 0.01207
Similarity = 0.00211
Similarity = 0.01077
Similarity = 0.00805
Similarity = 0.02648
Similarity = 0.00969
Similarity = 0.00771
Similarity = 0.00852
Similarity = 0.03385
Similarity = 0.00709
Similarity = 0.02634
Similarity = 0.04016
Similarity = 0.01352
Similarity = 0.01664
Similarity = 0.03379
Similarity = 0.01372
Similarity = 0.01654
Similarity = 0.00679
Similarity = 0.03187
Similarity = 0.00925
Similarity = 0.01494
Similarity = 0.01579
Similarity = 0.02242
Similarity = 0.02264
Similarity = 0.0163
Similarity = 0.01208
Similarity = 0.01631
Similarity = 0.0161
Similarity = 0.02066
Similarity = 0.01146
Similarity = 0.02361
Similarity = 0.00837
Similarity = 0.01969
Similarity = 0.03631
Similarity = 0.02858
Similarity = 0.0093
Similarity = 0.03747
Similarity = 0.01466
Similarity = 0.01325
Similarity = 0.00946
Similarity = 0.03958
Similarity = 0.01867
Similarity = 0.00835
Similarity = 0.01742
Similarity = 0.00799
Similarity = 0.00426
Similarity = 0.0138
Similarity = 0.02922
Similarity = 0.01286
Similarity = 0.01577
Similarity = 0.0049
Similarity = 0.00176
Similarity = 0.01201
Similarity = 0.00358
Similarity = 0.00538
Similarity = 0.01987
Similarity = 0.00443
Similarity = 0.0013
Similarity = 0.00468
Similarity = 0.01034
Similarity = 0.00335
Similarity = 0.00556
Similarity = 0.01838
Similarity = 0.00309
Similarity = 0.00512
Similarity = 0.00522
Similarity = 0.01526
Similarity = 0.0035
Similarity = 0.00508
Similarity = 0.00517
Similarity = 0.00874
Similarity = 0.00738
Similarity = 0.00885
Similarity = 0.01175
Similarity = 0.01127
Similarity = 0.00395
Similarity = 0.00754
Similarity = 0.00779
Similarity = 0.01065
Similarity = 0.00125
Similarity = 0.01208
Similarity = 0.01479
Similarity = 0.00451
Similarity = 0.02857
Similarity = 0.00465
Similarity = 0.00838
Similarity = 0.01496
Similarity = 0.01673
Similarity = 0.01374
Similarity = 0.00704
Similarity = 0.003
Similarity = 0.01297
Similarity = 0.00557
Similarity = 0.05
Similarity = 0.01747
Similarity = 0.0092
Similarity = 0.01436
Similarity = 0.00893
Similarity = 0.00713
Similarity = 0.02004
Similarity = 0.01444
Similarity = 0.00757
Similarity = 0.01241
Similarity = 0.01088
Similarity = 0.01418
Similarity = 0.00626
Similarity = 0.00541
Similarity = 0.01639
Similarity = 0.02434
Similarity = 0.01691
Similarity = 0.02298
Similarity = 0.02479
Similarity = 0.00391
Similarity = 0.01764
Similarity = 0.00896
Similarity = 0.04211
Similarity = 0.00177
Similarity = 0.01199
Similarity = 0.12172
Similarity = 0.00995
Similarity = 0.01341
Similarity = 0.01251
Similarity = 0.00971
Similarity = 0.00878
Similarity = 0.01816
Similarity = 0.01279
Similarity = 0.02927
Similarity = 0.00611
Similarity = 0.00552
Similarity = 0.0169
Similarity = 0.0058
Similarity = 0.00245
Similarity = 0.00856
Similarity = 0.0377
Similarity = 0.00654
Similarity = 0.01618
Similarity = 0.01557
Similarity = 0.02989
Similarity = 0.00868
Similarity = 0.00714
Similarity = 0.05579
Similarity = 0.01655
Similarity = 0.01873
Similarity = 0.02655
Similarity = 0.02065
Similarity = 0.00658
Similarity = 0.0325
Similarity = 0.04941
Similarity = 0.02719
Similarity = 0.02545
Similarity = 0.00686
Similarity = 0.00308
Similarity = 0.01611
Similarity = 0.02575
Similarity = 0.02145
Similarity = 0.01059
Similarity = 0.00722
Similarity = 0.01511
Similarity = 0.11528
Similarity = 0.03387
Similarity = 0.02193
Similarity = 0.04306
Similarity = 0.00255
Similarity = 0.01145
Similarity = 0.02314
Similarity = 0.01782
Similarity = 0.00371
Similarity = 0.01477
Similarity = 0.04903
Similarity = 0.0335
Similarity = 0.00475
Similarity = 0.0123
Similarity = 0.02269
Similarity = 0.00536
Similarity = 0.01691
Similarity = 0.00752
Similarity = 0.01248
Similarity = 0.02582
Similarity = 0.01482
Similarity = 0.00922
Similarity = 0.03645
Similarity = 0.00985
Similarity = 0.01922
Similarity = 0.02351
Similarity = 0.0153
Similarity = 0.00833
Similarity = 0.017
Similarity = 0.06884
Similarity = 0.0103
Similarity = 0.00884
Similarity = 0.0104
Similarity = 0.06106
Similarity = 0.11855
Similarity = 0.02355
Similarity = 0.01517
Similarity = 0.01389
Similarity = 0.01165
Similarity = 0.01032
Similarity = 0.02025
Similarity = 0.01493
Similarity = 0.0045
Similarity = 0.0051
Similarity = 0.0216
Similarity = 0.00473
Similarity = 0.026
Similarity = 0.00964
Similarity = 0.01014
Similarity = 0.00324
Similarity = 0.10437
Similarity = 0.04374
Similarity = 0.02466
Similarity = 0.00418
Similarity = 0.01549
Similarity = 0.00197
Similarity = 0.03034
Similarity = 0.05364
Similarity = 0.00461
Similarity = 0.00317
Similarity = 0.02055
Similarity = 0.00994
Similarity = 0.00762
Similarity = 0.01577
Similarity = 0.00426
Similarity = 0.00705
Similarity = 0.042
Similarity = 0.00744
Similarity = 0.01213
Similarity = 0.01657
Similarity = 0.0303
Similarity = 0.0057
Similarity = 0.07372
Similarity = 0.00373
Similarity = 0.00876
Similarity = 0.04923
Similarity = 0.01717
Similarity = 0.01596
Similarity = 0.01483
Similarity = 0.0103
Similarity = 0.0067
Similarity = 0.00433
Similarity = 0.00734
Similarity = 0.01988
Similarity = 0.01265
Similarity = 0.01444
Similarity = 0.01153
Similarity = 0.01899
Similarity = 0.01842
Similarity = 0.01397
Similarity = 0.01579
Similarity = 0.00808
Similarity = 0.00312
Similarity = 0.00273
Similarity = 0.01597
Similarity = 0.03025
Similarity = 0.01289
Similarity = 0.01415
Similarity = 0.00825
Similarity = 0.00556
Similarity = 0.0097
Similarity = 0.01334
Similarity = 0.01069
Similarity = 0.00472
Similarity = 0.00686
Similarity = 0.00248
Similarity = 0.02689
Similarity = 0.01632
Similarity = 0.00584
Similarity = 0.00271
Similarity = 0.02194
Similarity = 0.01093
Similarity = 0.00822
Similarity = 0.00508
Similarity = 0.00812
Similarity = 0.01986
Similarity = 0.0127
Similarity = 0.00734
Similarity = 0.00447
Similarity = 0.01479
Similarity = 0.03376
Similarity = 0.00806
Similarity = 0.02707
Similarity = 0.01945
Similarity = 0.01822
Similarity = 0.02137
Similarity = 0.00446
Similarity = 0.00913
Similarity = 0.00526
Similarity = 0.01488
Similarity = 0.00696
Similarity = 0.00623
Similarity = 0.01858
Similarity = 0.04091
Similarity = 0.02347
Similarity = 0.01114
Similarity = 0.02923
Similarity = 0.01252
Similarity = 0.01361
Similarity = 0.02467
Similarity = 0.02265
Similarity = 0.01571
Similarity = 0.00537
Similarity = 0.00209
Similarity = 0.02658
Similarity = 0.01109
Similarity = 0.00673
Similarity = 0.02418
Similarity = 0.01157
Similarity = 0.01049
Similarity = 0.02084
Similarity = 0.01088
Similarity = 0.01142
Similarity = 0.00909
Similarity = 0.02795
Similarity = 0.00723
Similarity = 0.00985
Similarity = 0.02538
Similarity = 0.00684
Similarity = 0.01905
Similarity = 0.01863
Similarity = 0.00679
Similarity = 0.01242
Similarity = 0.00702
Similarity = 0.01435
Similarity = 0.00958
Similarity = 0.01655
Similarity = 0.01958
Similarity = 0.00715
Similarity = 0.0196
Similarity = 0.0179
Similarity = 0.0029
Similarity = 0.01607
Similarity = 0.02891
Similarity = 0.0166
Similarity = 0.01921
Similarity = 0.01594
Similarity = 0.00913
Similarity = 0.00965
Similarity = 0.02355
Similarity = 0.01942
Similarity = 0.01801
Similarity = 0.078
Similarity = 0.0211
Similarity = 0.007
Similarity = 0.00788
Similarity = 0.00222
Similarity = 0.00527
Similarity = 0.04115
Similarity = 0.03455
Similarity = 0.00818
Similarity = 0.01818
Similarity = 0.00705
Similarity = 0.00945
Similarity = 0.02037
Similarity = 0.02145
Similarity = 0.00445
Similarity = 0.00431
Similarity = 0.00363
Similarity = 0.01653
Similarity = 0.02302
Similarity = 0.0089
Similarity = 0.03865
Similarity = 0.01122
Similarity = 0.00853
Similarity = 0.01573
Similarity = 0.01066
Similarity = 0.00773
Similarity = 0.00966
Similarity = 0.00256
Similarity = 0.05817
Similarity = 0.01047
Similarity = 0.00426
Similarity = 0.02165
Similarity = 0.02306
Similarity = 0.01691
Similarity = 0.01897
Similarity = 0.01594
Similarity = 0.00954
Similarity = 0.00707
Similarity = 0.019
Similarity = 0.03982
Similarity = 0.02175
Similarity = 0.03191
Similarity = 0.00455
Similarity = 0.00184
Similarity = 0.01397
Similarity = 0.0067
Similarity = 0.01325
Similarity = 0.00431
Similarity = 0.0093
Similarity = 0.00806
Similarity = 0.01133
Similarity = 0.06898
Similarity = 0.03825
Similarity = 0.02615
Similarity = 0.00989
Similarity = 0.02993
Similarity = 0.00492
Similarity = 0.0233
Similarity = 0.0394
Similarity = 0.02181
Similarity = 0.0028
Similarity = 0.00303
Similarity = 0.02851
Similarity = 0.05345
Similarity = 0.02588
Similarity = 0.01115
Similarity = 0.01014
Similarity = 0.00797
Similarity = 0.0176
Similarity = 0.00839
Similarity = 0.08745
Similarity = 0.03721
Similarity = 0.05928
Similarity = 0.01682
Similarity = 0.03103
Similarity = 0.0383
Similarity = 0.00932
Similarity = 0.04885
Similarity = 0.0504
Similarity = 0.0387
Similarity = 0.02571
Similarity = 0.04341
Similarity = 0.02564
Similarity = 0.00971
Similarity = 0.02549
Similarity = 0.0097
Similarity = 0.03233
Similarity = 0.04034
Similarity = 0.00437
Similarity = 0.01296
Similarity = 0.03161
Similarity = 0.01941
Similarity = 0.02622
Similarity = 0.01349
Similarity = 0.01415
Similarity = 0.01558
Similarity = 0.03758
Similarity = 0.01925
Similarity = 0.0239
Similarity = 0.01722
Similarity = 0.01519
Similarity = 0.0173
Similarity = 0.05136
Similarity = 0.00316
Similarity = 0.01742
Similarity = 0.0114
Similarity = 0.01001
Similarity = 0.01862
Similarity = 0.00861
Similarity = 0.01087
Similarity = 0.00329
Similarity = 0.00078
Similarity = 0.00722
Similarity = 0.01283
Similarity = 0.01231
Similarity = 0.00324
Similarity = 0.00542
Similarity = 0.01759
Similarity = 0.02155
Similarity = 0.01972
Similarity = 0.01993
Similarity = 0.00586
Similarity = 0.00945
Similarity = 0.0064
Similarity = 0.00643
Similarity = 0.01387
Similarity = 0.01075
Similarity = 0.01626
Similarity = 0.0177
Similarity = 0.00554
Similarity = 0.00742
Similarity = 0.01132
Similarity = 0.0125
Similarity = 0.02209
Similarity = 0.01688
Similarity = 0.00506
Similarity = 0.01605
Similarity = 0.00951
Similarity = 0.01022
Similarity = 0.00689
Similarity = 0.03205
Similarity = 0.0288
Similarity = 0.00695
Similarity = 0.00569
Similarity = 0.0175
Similarity = 0.00928
Similarity = 0.01322
Similarity = 0.00893
Similarity = 0.01449
Similarity = 0.00701
Similarity = 0.01391
Similarity = 0.01585
Similarity = 0.02684
Similarity = 0.04318
Similarity = 0.0072
Similarity = 0.01212
Similarity = 0.01579
Similarity = 0.01275
Similarity = 0.02523
Similarity = 0.05009
Similarity = 0.01767
Similarity = 0.0081
Similarity = 0.02124
Similarity = 0.01918
Similarity = 0.02066
Similarity = 0.02145
Similarity = 0.00776
Similarity = 0.01305
Similarity = 0.04569
Similarity = 0.01653
Similarity = 0.04045
Similarity = 0.01039
Similarity = 0.02655
Similarity = 0.01009
Similarity = 0.02912
Similarity = 0.02308
Similarity = 0.01006
Similarity = 0.01912
Similarity = 0.06253
Similarity = 0.00992
Similarity = 0.00775
Similarity = 0.01832
Similarity = 0.05522
Similarity = 0.0145
Similarity = 0.01293
Similarity = 0.01606
Similarity = 0.01999
Similarity = 0.01774
Similarity = 0.01333
Similarity = 0.00911
Similarity = 0.01337
Similarity = 0.04126
Similarity = 0.02644
Similarity = 0.01432
Similarity = 0.03699
Similarity = 0.00867
Similarity = 0.03856
Similarity = 0.01998
Similarity = 0.03489
Similarity = 0.04393
Similarity = 0.0269
Similarity = 0.04009
Similarity = 0.05968
Similarity = 0.03169
Similarity = 0.01629
Similarity = 0.02116
Similarity = 0.04234
Similarity = 0.0196
Similarity = 0.01052
Similarity = 0.03563
Similarity = 0.01144
Similarity = 0.00876
Similarity = 0.03163
Similarity = 0.01546
Similarity = 0.04203
Similarity = 0.02407
Similarity = 0.01656
Similarity = 0.00953
Similarity = 0.01939
Similarity = 0.01729
Similarity = 0.0172
Similarity = 0.01061
Similarity = 0.02127
Similarity = 0.00864
Similarity = 0.02634
Similarity = 0.0406
Similarity = 0.01055
Similarity = 0.00936
Similarity = 0.03105
Similarity = 0.01903
Similarity = 0.01564
Similarity = 0.02039
Similarity = 0.01942
Similarity = 0.03178
Similarity = 0.01701
Similarity = 0.01799
Similarity = 0.0187
Similarity = 0.01067
Similarity = 0.01891
Similarity = 0.01089
Similarity = 0.02877
Similarity = 0.01982
Similarity = 0.02027
Similarity = 0.03047
Similarity = 0.04305
Similarity = 0.0103
Similarity = 0.03057
Similarity = 0.02493
Similarity = 0.00569
Similarity = 0.01283
Similarity = 0.02874
Similarity = 0.03742
Similarity = 0.02422
Similarity = 0.02405
Similarity = 0.03943
Similarity = 0.01334
Similarity = 0.02687
Similarity = 0.01359
Similarity = 0.0162
Similarity = 0.03274
Similarity = 0.0062
Similarity = 0.00344
Similarity = 0.01549
Similarity = 0.019
Similarity = 0.02775
Similarity = 0.0241
Similarity = 0.01989
Similarity = 0.04784
Similarity = 0.03099
Similarity = 0.01515
Similarity = 0.04577
Similarity = 0.02222
Similarity = 0.01796
Similarity = 0.08282
Similarity = 0.02085
Similarity = 0.05754
Similarity = 0.07251
Similarity = 0.01761
Similarity = 0.0423
Similarity = 0.01926
Similarity = 0.01779
Similarity = 0.02732
Similarity = 0.04789
Similarity = 0.08728
Similarity = 0.02453
Similarity = 0.05171
Similarity = 0.03158
Similarity = 0.01699
Similarity = 0.01425
Similarity = 0.01003
Similarity = 0.01247
Similarity = 0.02292
Similarity = 0.02748
Similarity = 0.03004
Similarity = 0.02678
Similarity = 0.01053
Similarity = 0.07316
Similarity = 0.01503
Similarity = 0.01011
Similarity = 0.02205
Similarity = 0.01761
Similarity = 0.00786
Similarity = 0.00763
Similarity = 0.02638
Similarity = 0.00694
Similarity = 0.01577
Similarity = 0.00836
Similarity = 0.03145
Similarity = 0.01479
Similarity = 0.03052
Similarity = 0.00747
Similarity = 0.00118
Similarity = 0.00488
Similarity = 0.01345
Similarity = 0.02012
Similarity = 0.01984
Similarity = 0.01066
Similarity = 0.00557
Similarity = 0.02254
Similarity = 0.01378
Similarity = 0.02089
Similarity = 0.0221
Similarity = 0.00447
Similarity = 0.00291
Similarity = 0.03216
Similarity = 0.01056
Similarity = 0.01139
Similarity = 0.00583
Similarity = 0.03163
Similarity = 0.0398
Similarity = 0.00239
Similarity = 0.01446
Similarity = 0.01451
Similarity = 0.01197
Similarity = 0.00771
Similarity = 0.01016
Similarity = 0.01494
Similarity = 0.01362
Similarity = 0.00525
Similarity = 0.02216
Similarity = 0.02342
Similarity = 0.01679
Similarity = 0.00935
Similarity = 0.01825
Similarity = 0.01902
Similarity = 0.01555
Similarity = 0.02475
Similarity = 0.01916
Similarity = 0.00728
Similarity = 0.00683
Similarity = 0.0088
Similarity = 0.03467
Similarity = 0.02052
Similarity = 0.09127
Similarity = 0.03918
Similarity = 0.02181
Similarity = 0.02625
Similarity = 0.01336
Similarity = 0.02444
Similarity = 0.06424
Similarity = 0.01148
Similarity = 0.00303
Similarity = 0.03015
Similarity = 0.01018
Similarity = 0.03202
Similarity = 0.02058
Similarity = 0.02118
Similarity = 0.01124
Similarity = 0.04282
Similarity = 0.04538
Similarity = 0.0459
Similarity = 0.04067
Similarity = 0.01594
Similarity = 0.00998
Similarity = 0.03923
Similarity = 0.07746
Similarity = 0.02874
Similarity = 0.01125
Similarity = 0.16588
Similarity = 0.00679
Similarity = 0.01725
Similarity = 0.02868
Similarity = 0.05297
Similarity = 0.01444
Similarity = 0.01438
Similarity = 0.01853
Similarity = 0.02969
Similarity = 0.02308
Similarity = 0.00768
Similarity = 0.03774
Similarity = 0.03459
Similarity = 0.01759
Similarity = 0.00948
Similarity = 0.02618
Similarity = 0.03316
Similarity = 0.01124
Similarity = 0.03055
Similarity = 0.04759
Similarity = 0.01116
Similarity = 0.00811
Similarity = 0.06492
Similarity = 0.01609
Similarity = 0.01734
Similarity = 0.09778
Similarity = 0.02503
Similarity = 0.01799
Similarity = 0.04758
Similarity = 0.00602
Similarity = 0.02291
Similarity = 0.0357
Similarity = 0.01584
Similarity = 0.01009
Similarity = 0.01977
Similarity = 0.0252
Similarity = 0.05961
Similarity = 0.00437
Similarity = 0.00518
Similarity = 0.0249
Similarity = 0.0202
Similarity = 0.041
Similarity = 0.04311
Similarity = 0.0328
Similarity = 0.02535
Similarity = 0.04652
Similarity = 0.01736
Similarity = 0.08093
Similarity = 0.02924
Similarity = 0.01282
Similarity = 0.15683
Similarity = 0.00527
Similarity = 0.00938
Similarity = 0.01803
Similarity = 0.02219
Similarity = 0.01537
Similarity = 0.0151
Similarity = 0.03069
Similarity = 0.0223
Similarity = 0.02606
Similarity = 0.00555
Similarity = 0.01663
Similarity = 0.04565
Similarity = 0.05192
Similarity = 0.01338
Similarity = 0.02276
Similarity = 0.03973
Similarity = 0.0264
Similarity = 0.04591
Similarity = 0.03636
Similarity = 0.01336
Similarity = 0.02028
Similarity = 0.04795
Similarity = 0.01535
Similarity = 0.02421
Similarity = 0.02154
Similarity = 0.01192
Similarity = 0.01767
Similarity = 0.02041
Similarity = 0.04434
Similarity = 0.01557
Similarity = 0.01989
Similarity = 0.00802
Similarity = 0.01843
Similarity = 0.04743
Similarity = 0.139
Similarity = 0.00987
Similarity = 0.11137
Similarity = 0.01121
Similarity = 0.01335
Similarity = 0.00651
Similarity = 0.00369
Similarity = 0.04694
Similarity = 0.02102
Similarity = 0.05441
Similarity = 0.03286
Similarity = 0.01295
Similarity = 0.01786
Similarity = 0.0063
Similarity = 0.1538
Similarity = 0.01836
Similarity = 0.15584
Similarity = 0.0059
Similarity = 0.00756
Similarity = 0.01556
Similarity = 0.01165
Similarity = 0.12084
Similarity = 0.05364
Similarity = 0.07597
Similarity = 0.0145
Similarity = 0.02969
Similarity = 0.03566
Similarity = 0.01174
Similarity = 0.02507
Similarity = 0.01229
Similarity = 0.02201
Similarity = 0.01829
Similarity = 0.00811
Similarity = 0.01745
Similarity = 0.03946
Similarity = 0.00525
Similarity = 0.00534
Similarity = 0.01462
Similarity = 0.03306
Similarity = 0.04189
Similarity = 0.02427
Similarity = 0.00957
Similarity = 0.00263
Similarity = 0.00885
Similarity = 0.00643
Similarity = 0.00887
Similarity = 0.01031
Similarity = 0.00352
Similarity = 0.00368
Similarity = 0.00242
Similarity = 0.00411
Similarity = 0.04304
Similarity = 0.00911
Similarity = 0.00375
Similarity = 0.00297
Similarity = 0.01491
Similarity = 0.00955
Similarity = 0.04743
Similarity = 0.01715
Similarity = 0.00478
Similarity = 0.00268
Similarity = 0.00438
Similarity = 0.01232
Similarity = 0.0194
Similarity = 0.03221
Similarity = 0.01928
Similarity = 0.00502
Similarity = 0.00467
Similarity = 0.01519
Similarity = 0.01187
Similarity = 0.00589
Similarity = 0.01833
Similarity = 0.00456
Similarity = 0.01423
Similarity = 0.01098
Similarity = 0.00593
Similarity = 0.00337
Similarity = 0.02589
Similarity = 0.00378
Similarity = 0.00677
Similarity = 0.01901
Similarity = 0.0278
Similarity = 0.04227
Similarity = 0.02109
Similarity = 0.00646
Similarity = 0.00596
Similarity = 0.00375
Similarity = 0.00511
Similarity = 0.03286
Similarity = 0.01508
Similarity = 0.015
Similarity = 0.00965
Similarity = 0.01535
Similarity = 0.01582
Similarity = 0.01121
Similarity = 0.01139
Similarity = 0.01408
Similarity = 0.00729
Similarity = 0.00201
Similarity = 0.01387
Similarity = 0.00889
Similarity = 0.01274
Similarity = 0.03027
Similarity = 0.01239
Similarity = 0.00302
Similarity = 0.02173
Similarity = 0.00484
Similarity = 0.03166
Similarity = 0.00488
Similarity = 0.00555
Similarity = 0.00724
Similarity = 0.00314
Similarity = 0.01562
Similarity = 0.00408
Similarity = 0.01491
Similarity = 0.00743
Similarity = 0.0024
Similarity = 0.01382
Similarity = 0.00951
Similarity = 0.01633
Similarity = 0.00392
Similarity = 0.00697
Similarity = 0.00787
Similarity = 0.02674
Similarity = 0.00821
Similarity = 0.014
Similarity = 0.00638
Similarity = 0.02439
Similarity = 0.02052
Similarity = 0.00975
Similarity = 0.005
Similarity = 0.0082
Similarity = 0.0049
Similarity = 0.00717
Similarity = 0.00488
Similarity = 0.01171
Similarity = 0.00864
Similarity = 0.01499
Similarity = 0.02439
Similarity = 0.03212
Similarity = 0.02481
Similarity = 0.1122
Similarity = 0.0235
Similarity = 0.01497
Similarity = 0.01705
Similarity = 0.04431
Similarity = 0.01547
Similarity = 0.0109
Similarity = 0.00227
Similarity = 0.04294
Similarity = 0.0275
Similarity = 0.04009
Similarity = 0.02325
Similarity = 0.02428
Similarity = 0.00851
Similarity = 0.04459
Similarity = 0.02024
Similarity = 0.02568
Similarity = 0.04801
Similarity = 0.03208
Similarity = 0.00817
Similarity = 0.12121
Similarity = 0.03582
Similarity = 0.03888
Similarity = 0.00545
Similarity = 0.01183
Similarity = 0.00535
Similarity = 0.01668
Similarity = 0.00941
Similarity = 0.02522
Similarity = 0.02267
Similarity = 0.02529
Similarity = 0.00978
Similarity = 0.0094
Similarity = 0.04588
Similarity = 0.00413
Similarity = 0.00468
Similarity = 0.03839
Similarity = 0.01205
Similarity = 0.0171
Similarity = 0.01345
Similarity = 0.01782
Similarity = 0.00843
Similarity = 0.0228
Similarity = 0.172
Similarity = 0.04389
Similarity = 0.02453
Similarity = 0.0697
Similarity = 0.03054
Similarity = 0.03051
Similarity = 0.01769
Similarity = 0.01775
Similarity = 0.02095
Similarity = 0.00478
Similarity = 0.01144
Similarity = 0.00884
Similarity = 0.01329
Similarity = 0.0128
Similarity = 0.00513
Similarity = 0.01014
Similarity = 0.02196
Similarity = 0.02234
Similarity = 0.00546
Similarity = 0.00612
Similarity = 0.00547
Similarity = 0.04191
Similarity = 0.00928
Similarity = 0.02282
Similarity = 0.02237
Similarity = 0.00336
Similarity = 0.03539
Similarity = 0.00702
Similarity = 0.01999
Similarity = 0.00692
Similarity = 0.01196
Similarity = 0.01636
Similarity = 0.00571
Similarity = 0.00597
Similarity = 0.01192
Similarity = 0.01909
Similarity = 0.02543
Similarity = 0.01885
Similarity = 0.02321
Similarity = 0.0029
Similarity = 0.01046
Similarity = 0.00277
Similarity = 0.00742
Similarity = 0.03298
Similarity = 0.00834
Similarity = 0.00891
Similarity = 0.05707
Similarity = 0.01347
Similarity = 0.00614
Similarity = 0.02335
Similarity = 0.01342
Similarity = 0.01018
Similarity = 0.00734
Similarity = 0.01412
0.020417356
