Files are 20_newsgroups/sci.crypt  20_newsgroups/sci.space
Similarity = 0.00755
Similarity = 0.01818
Similarity = 0.0061
Similarity = 0.01073
Similarity = 0.0073
Similarity = 0.00621
Similarity = 0.02077
Similarity = 0.01552
Similarity = 0.00469
Similarity = 0.00103
Similarity = 0.01248
Similarity = 0.0184
Similarity = 0.02292
Similarity = 0.01422
Similarity = 0.0065
Similarity = 0.00305
Similarity = 0.00921
Similarity = 0.01408
Similarity = 0.01134
Similarity = 0.01122
Similarity = 0.00944
Similarity = 0.00929
Similarity = 0.00858
Similarity = 0.02859
Similarity = 0.02314
Similarity = 0.0044
Similarity = 0.01094
Similarity = 0.01003
Similarity = 0.01661
Similarity = 0.01176
Similarity = 0.02399
Similarity = 0.00974
Similarity = 0.01383
Similarity = 0.01277
Similarity = 0.00872
Similarity = 0.0255
Similarity = 0.00605
Similarity = 0.00365
Similarity = 0.02198
Similarity = 0.00244
Similarity = 0.0178
Similarity = 0.00445
Similarity = 0.01647
Similarity = 0.02579
Similarity = 0.01798
Similarity = 0.0023
Similarity = 0.03062
Similarity = 0.01136
Similarity = 0.02294
Similarity = 0.03197
Similarity = 0.00736
Similarity = 0.01464
Similarity = 0.00385
Similarity = 0.01016
Similarity = 0.00184
Similarity = 0.00289
Similarity = 0.02049
Similarity = 0.01699
Similarity = 0.01355
Similarity = 0.00158
Similarity = 0.00441
Similarity = 0.01237
Similarity = 0.00861
Similarity = 0.02709
Similarity = 0.01002
Similarity = 0.00286
Similarity = 0.0029
Similarity = 0.0091
Similarity = 0.00688
Similarity = 0.0046
Similarity = 0.00837
Similarity = 0.00411
Similarity = 0.02418
Similarity = 0.01419
Similarity = 0.01676
Similarity = 0.01046
Similarity = 0.00573
Similarity = 0.01722
Similarity = 0.00977
Similarity = 0.00281
Similarity = 0.01402
Similarity = 0.00542
Similarity = 0.00935
Similarity = 0.00978
Similarity = 0.03053
Similarity = 0.0
Similarity = 0.022
Similarity = 0.01137
Similarity = 0.00447
Similarity = 0.00158
Similarity = 0.0293
Similarity = 0.0
Similarity = 0.00827
Similarity = 0.00385
Similarity = 0.00271
Similarity = 0.00379
Similarity = 0.02237
Similarity = 0.00484
Similarity = 0.01065
Similarity = 0.01523
Similarity = 0.01487
Similarity = 0.01757
Similarity = 0.0016
Similarity = 0.01319
Similarity = 0.00341
Similarity = 0.00977
Similarity = 0.02214
Similarity = 0.01933
Similarity = 0.00298
Similarity = 0.00869
Similarity = 0.01591
Similarity = 0.02334
Similarity = 0.00453
Similarity = 0.00758
Similarity = 0.01872
Similarity = 0.013
Similarity = 0.00943
Similarity = 0.03212
Similarity = 0.01595
Similarity = 0.00874
Similarity = 0.00433
Similarity = 0.00631
Similarity = 0.02275
Similarity = 0.01772
Similarity = 0.03025
Similarity = 0.01449
Similarity = 0.00362
Similarity = 0.01959
Similarity = 0.00863
Similarity = 0.0122
Similarity = 0.03185
Similarity = 0.02902
Similarity = 0.01724
Similarity = 0.01674
Similarity = 0.01002
Similarity = 0.00844
Similarity = 0.01075
Similarity = 0.00313
Similarity = 0.00817
Similarity = 0.0068
Similarity = 0.02246
Similarity = 0.0
Similarity = 0.02243
Similarity = 0.00938
Similarity = 0.01111
Similarity = 0.00749
Similarity = 0.01232
Similarity = 0.00648
Similarity = 0.008
Similarity = 0.02629
Similarity = 0.00572
Similarity = 0.03804
Similarity = 0.00587
Similarity = 0.0214
Similarity = 0.01858
Similarity = 0.00862
Similarity = 0.04159
Similarity = 0.04539
Similarity = 0.00092
Similarity = 0.00463
Similarity = 0.0172
Similarity = 0.05143
Similarity = 0.04797
Similarity = 0.0195
Similarity = 0.03007
Similarity = 0.00459
Similarity = 0.01283
Similarity = 0.02503
Similarity = 0.02119
Similarity = 0.01223
Similarity = 0.02353
Similarity = 0.02525
Similarity = 0.01041
Similarity = 0.02983
Similarity = 0.03875
Similarity = 0.03001
Similarity = 0.00864
Similarity = 0.01378
Similarity = 0.01983
Similarity = 0.00475
Similarity = 0.04294
Similarity = 0.01833
Similarity = 0.00835
Similarity = 0.01503
Similarity = 0.0144
Similarity = 0.0069
Similarity = 0.0207
Similarity = 0.00049
Similarity = 0.01552
Similarity = 0.00199
Similarity = 0.02787
Similarity = 0.01456
Similarity = 0.01679
Similarity = 0.01174
Similarity = 0.01234
Similarity = 0.01414
Similarity = 0.03414
Similarity = 0.02184
Similarity = 0.015
Similarity = 0.06184
Similarity = 0.0
Similarity = 0.01725
Similarity = 8e-05
Similarity = 0.00636
Similarity = 0.00942
Similarity = 0.02636
Similarity = 0.01069
Similarity = 0.01481
Similarity = 0.01778
Similarity = 0.0
Similarity = 0.00518
Similarity = 0.018
Similarity = 0.00258
Similarity = 0.01654
Similarity = 0.00291
Similarity = 0.00242
Similarity = 0.00718
Similarity = 0.00064
Similarity = 0.01968
Similarity = 0.00364
Similarity = 0.00819
Similarity = 0.00902
Similarity = 0.00528
Similarity = 0.00541
Similarity = 0.00954
Similarity = 0.01639
Similarity = 0.00034
Similarity = 0.00592
Similarity = 0.02105
Similarity = 0.00919
Similarity = 0.02107
Similarity = 0.00595
Similarity = 0.00618
Similarity = 0.0062
Similarity = 0.00459
Similarity = 0.00543
Similarity = 0.02226
Similarity = 0.0
Similarity = 0.00317
Similarity = 0.00353
Similarity = 0.0096
Similarity = 0.0
Similarity = 0.00984
Similarity = 0.00493
Similarity = 0.00017
Similarity = 0.00232
Similarity = 0.01671
Similarity = 0.0198
Similarity = 0.00134
Similarity = 0.01321
Similarity = 0.01249
Similarity = 0.00307
Similarity = 0.01829
Similarity = 0.0011
Similarity = 0.00068
Similarity = 0.00269
Similarity = 0.02311
Similarity = 0.00631
Similarity = 0.00189
Similarity = 0.0
Similarity = 0.00193
Similarity = 0.00341
Similarity = 0.00182
Similarity = 0.00165
Similarity = 0.00396
Similarity = 0.00049
Similarity = 0.00102
Similarity = 0.01165
Similarity = 0.00141
Similarity = 0.0048
Similarity = 0.00487
Similarity = 0.00565
Similarity = 0.00739
Similarity = 0.00783
Similarity = 0.00832
Similarity = 0.00155
Similarity = 0.0
Similarity = 0.0057
Similarity = 0.00632
Similarity = 0.0182
Similarity = 0.01218
Similarity = 0.00245
Similarity = 0.00253
Similarity = 0.00131
Similarity = 0.00145
Similarity = 0.0
Similarity = 0.00305
Similarity = 0.00102
Similarity = 0.00314
Similarity = 0.0
Similarity = 0.00724
Similarity = 0.0
Similarity = 0.01346
Similarity = 0.00222
Similarity = 0.00127
Similarity = 0.00206
Similarity = 0.00988
Similarity = 0.00304
Similarity = 0.00432
Similarity = 0.00404
Similarity = 0.01452
Similarity = 0.05918
Similarity = 0.01279
Similarity = 0.05275
Similarity = 0.02604
Similarity = 0.02816
Similarity = 0.08415
Similarity = 0.06131
Similarity = 0.01206
Similarity = 0.02732
Similarity = 0.03423
Similarity = 0.05105
Similarity = 0.05502
Similarity = 0.0731
Similarity = 0.0385
Similarity = 0.02475
Similarity = 0.03071
Similarity = 0.04301
Similarity = 0.02954
Similarity = 0.05635
Similarity = 0.06567
Similarity = 0.03493
Similarity = 0.0275
Similarity = 0.06926
Similarity = 0.03531
Similarity = 0.05224
Similarity = 0.03347
Similarity = 0.02356
Similarity = 0.04251
Similarity = 0.0153
Similarity = 0.0735
Similarity = 0.03928
Similarity = 0.03449
Similarity = 0.0365
Similarity = 0.04907
Similarity = 0.03154
Similarity = 0.04221
Similarity = 0.01153
Similarity = 0.02526
Similarity = 0.01411
Similarity = 0.05581
Similarity = 0.01851
Similarity = 0.04698
Similarity = 0.04195
Similarity = 0.03924
Similarity = 0.03784
Similarity = 0.0602
Similarity = 0.02059
Similarity = 0.02302
Similarity = 0.11469
Similarity = 0.00089
Similarity = 0.01717
Similarity = 0.00083
Similarity = 0.02336
Similarity = 0.00249
Similarity = 0.00419
Similarity = 0.0273
Similarity = 0.01399
Similarity = 0.01601
Similarity = 0.01272
Similarity = 0.12564
Similarity = 0.04288
Similarity = 0.00516
Similarity = 0.02854
Similarity = 0.01291
Similarity = 0.00801
Similarity = 0.00745
Similarity = 0.00455
Similarity = 0.00596
Similarity = 0.00367
Similarity = 0.03062
Similarity = 0.06225
Similarity = 0.01411
Similarity = 0.05271
Similarity = 0.02718
Similarity = 0.02624
Similarity = 0.00833
Similarity = 0.00339
Similarity = 0.05472
Similarity = 0.00601
Similarity = 0.00631
Similarity = 0.00928
Similarity = 0.00931
Similarity = 0.05176
Similarity = 0.00856
Similarity = 0.00599
Similarity = 0.00941
Similarity = 0.00021
Similarity = 0.00221
Similarity = 0.00333
Similarity = 0.01924
Similarity = 0.0
Similarity = 0.01566
Similarity = 0.01201
Similarity = 0.00449
Similarity = 0.00043
Similarity = 0.02081
Similarity = 0.00616
Similarity = 0.00465
Similarity = 0.04972
Similarity = 0.0
Similarity = 0.0139
Similarity = 2e-05
Similarity = 0.00731
Similarity = 0.02135
Similarity = 0.00815
Similarity = 0.00407
Similarity = 0.00766
Similarity = 0.01266
Similarity = 0.0
Similarity = 0.00121
Similarity = 0.01538
Similarity = 0.02274
Similarity = 0.01516
Similarity = 0.00939
Similarity = 0.00935
Similarity = 4e-05
Similarity = 0.00151
Similarity = 0.00572
Similarity = 0.00092
Similarity = 0.01951
Similarity = 0.00286
Similarity = 0.01427
Similarity = 0.01464
Similarity = 0.0135
Similarity = 0.00067
Similarity = 0.0001
Similarity = 0.02195
Similarity = 0.01026
Similarity = 0.00394
Similarity = 0.0052
Similarity = 0.00151
Similarity = 0.0051
Similarity = 0.00105
Similarity = 0.05054
Similarity = 0.02645
Similarity = 0.04423
Similarity = 0.0
Similarity = 0.0045
Similarity = 4e-05
Similarity = 0.01386
Similarity = 0.0
Similarity = 0.0196
Similarity = 0.00326
Similarity = 5e-05
Similarity = 0.00223
Similarity = 0.00594
Similarity = 0.0242
Similarity = 0.00162
Similarity = 0.00214
Similarity = 0.00199
Similarity = 0.0303
Similarity = 0.00997
Similarity = 0.02098
Similarity = 0.01182
Similarity = 0.01328
Similarity = 0.02089
Similarity = 0.01355
Similarity = 0.03102
Similarity = 0.0319
Similarity = 0.00513
Similarity = 0.03321
Similarity = 0.02445
Similarity = 0.02264
Similarity = 0.01381
Similarity = 0.01022
Similarity = 0.00742
Similarity = 0.0124
Similarity = 0.01674
Similarity = 0.0234
Similarity = 0.03635
Similarity = 0.00946
Similarity = 0.01921
Similarity = 0.02446
Similarity = 0.01081
Similarity = 0.02434
Similarity = 0.00036
Similarity = 0.00698
Similarity = 0.01277
Similarity = 0.00942
Similarity = 0.01436
Similarity = 0.00942
Similarity = 0.01202
Similarity = 0.03364
Similarity = 0.01044
Similarity = 0.01444
Similarity = 0.00805
Similarity = 0.01654
Similarity = 0.00978
Similarity = 0.00468
Similarity = 0.02606
Similarity = 0.00517
Similarity = 0.02547
Similarity = 0.00481
Similarity = 0.00759
Similarity = 0.00939
Similarity = 0.02171
Similarity = 0.01046
Similarity = 0.0137
Similarity = 0.03004
Similarity = 0.00344
Similarity = 0.00392
Similarity = 0.00122
Similarity = 0.00514
Similarity = 0.00347
Similarity = 0.00541
Similarity = 0.015
Similarity = 0.00915
Similarity = 0.00012
Similarity = 0.0
Similarity = 0.00204
Similarity = 0.01019
Similarity = 0.02309
Similarity = 0.00326
Similarity = 0.00492
Similarity = 0.00369
Similarity = 0.0027
Similarity = 0.01232
Similarity = 0.00239
Similarity = 0.00202
Similarity = 0.00243
Similarity = 0.0011
Similarity = 0.004
Similarity = 0.01265
Similarity = 0.00486
Similarity = 0.00236
Similarity = 0.00414
Similarity = 0.00929
Similarity = 0.00556
Similarity = 0.00045
Similarity = 0.00857
Similarity = 0.0021
Similarity = 0.00331
Similarity = 0.00638
Similarity = 0.00185
Similarity = 0.00299
Similarity = 0.00318
Similarity = 0.00202
Similarity = 0.00494
Similarity = 1e-05
Similarity = 0.00473
Similarity = 0.0
Similarity = 0.01216
Similarity = 0.00577
Similarity = 0.00429
Similarity = 0.00289
Similarity = 0.00722
Similarity = 0.00539
Similarity = 0.0023
Similarity = 0.0104
Similarity = 0.00243
Similarity = 0.0328
Similarity = 0.00383
Similarity = 0.03392
Similarity = 0.00561
Similarity = 0.01772
Similarity = 0.03389
Similarity = 0.02475
Similarity = 0.01909
Similarity = 0.01498
Similarity = 0.00942
Similarity = 0.02378
Similarity = 0.02676
Similarity = 0.03663
Similarity = 0.02175
Similarity = 0.00437
Similarity = 0.00607
Similarity = 0.01275
Similarity = 0.01531
Similarity = 0.01574
Similarity = 0.04077
Similarity = 0.06692
Similarity = 0.03146
Similarity = 0.0284
Similarity = 0.03235
Similarity = 0.02239
Similarity = 0.02724
Similarity = 0.01053
Similarity = 0.01773
Similarity = 0.04397
Similarity = 0.04055
Similarity = 0.02559
Similarity = 0.01965
Similarity = 0.03189
Similarity = 0.01781
Similarity = 0.02389
Similarity = 0.01166
Similarity = 0.00993
Similarity = 0.01121
Similarity = 0.00837
Similarity = 0.04426
Similarity = 0.0
Similarity = 0.02452
Similarity = 0.01454
Similarity = 0.01151
Similarity = 0.01247
Similarity = 0.0272
Similarity = 0.03651
Similarity = 0.01826
Similarity = 0.03857
Similarity = 0.00253
Similarity = 0.01865
Similarity = 0.00432
Similarity = 0.01045
Similarity = 0.01867
Similarity = 0.00733
Similarity = 0.0139
Similarity = 0.01944
Similarity = 0.01477
Similarity = 0.00113
Similarity = 0.00884
Similarity = 0.01895
Similarity = 0.00396
Similarity = 0.01417
Similarity = 0.01129
Similarity = 0.0112
Similarity = 0.00251
Similarity = 0.01248
Similarity = 0.0075
Similarity = 0.00251
Similarity = 0.01702
Similarity = 0.01141
Similarity = 0.01323
Similarity = 0.01458
Similarity = 0.01541
Similarity = 0.0235
Similarity = 0.00248
Similarity = 0.00839
Similarity = 0.01268
Similarity = 0.00302
Similarity = 0.01817
Similarity = 0.02631
Similarity = 0.00954
Similarity = 0.02103
Similarity = 0.00601
Similarity = 0.01909
Similarity = 0.0162
Similarity = 0.00747
Similarity = 0.00634
Similarity = 0.01604
Similarity = 0.01665
Similarity = 0.00875
Similarity = 0.0143
Similarity = 0.02003
Similarity = 0.00784
Similarity = 0.00325
Similarity = 0.02266
Similarity = 0.00144
Similarity = 0.01021
Similarity = 0.02045
Similarity = 0.00359
Similarity = 0.00936
Similarity = 0.00122
Similarity = 0.02663
Similarity = 0.00346
Similarity = 0.00568
Similarity = 0.00844
Similarity = 0.0081
Similarity = 0.01518
Similarity = 0.00118
Similarity = 0.01047
Similarity = 0.0098
Similarity = 0.00395
Similarity = 0.00785
Similarity = 0.00366
Similarity = 0.00326
Similarity = 0.00411
Similarity = 0.00248
Similarity = 0.00308
Similarity = 0.00154
Similarity = 0.00906
Similarity = 0.00665
Similarity = 0.01322
Similarity = 0.01984
Similarity = 0.00966
Similarity = 0.00421
Similarity = 0.00561
Similarity = 0.00496
Similarity = 0.00519
Similarity = 0.02099
Similarity = 0.04537
Similarity = 0.00433
Similarity = 0.01873
Similarity = 0.01032
Similarity = 0.00499
Similarity = 0.0047
Similarity = 0.00619
Similarity = 0.01161
Similarity = 0.03491
Similarity = 0.00526
Similarity = 0.01969
Similarity = 0.0
Similarity = 0.00829
Similarity = 0.02654
Similarity = 0.00479
Similarity = 0.03648
Similarity = 0.01102
Similarity = 0.00283
Similarity = 0.00228
Similarity = 0.01107
Similarity = 0.00798
Similarity = 0.02391
Similarity = 0.00308
Similarity = 0.02173
Similarity = 0.00845
Similarity = 0.01098
Similarity = 0.038
Similarity = 0.04119
Similarity = 0.0104
Similarity = 0.00265
Similarity = 0.02441
Similarity = 0.02697
Similarity = 0.0363
Similarity = 0.01086
Similarity = 0.02968
Similarity = 0.02667
Similarity = 0.01697
Similarity = 0.02342
Similarity = 0.01707
Similarity = 0.01247
Similarity = 0.01521
Similarity = 0.02158
Similarity = 0.02763
Similarity = 0.0354
Similarity = 0.03742
Similarity = 0.01828
Similarity = 0.02218
Similarity = 0.00891
Similarity = 0.01735
Similarity = 0.00647
Similarity = 0.03148
Similarity = 0.03052
Similarity = 0.01127
Similarity = 0.01103
Similarity = 0.01929
Similarity = 0.02271
Similarity = 0.04408
Similarity = 0.00126
Similarity = 0.01068
Similarity = 0.00646
Similarity = 0.03948
Similarity = 0.00289
Similarity = 0.02023
Similarity = 0.01129
Similarity = 0.01624
Similarity = 0.01279
Similarity = 0.03244
Similarity = 0.01999
Similarity = 0.02031
Similarity = 0.05587
Similarity = 0.00094
Similarity = 0.01558
Similarity = 0.00091
Similarity = 0.01324
Similarity = 0.0099
Similarity = 0.00913
Similarity = 0.01773
Similarity = 0.01204
Similarity = 0.0
Similarity = 0.00238
Similarity = 0.01868
Similarity = 0.00424
Similarity = 0.00139
Similarity = 0.02041
Similarity = 0.01309
Similarity = 0.01339
Similarity = 0.02154
Similarity = 0.00683
Similarity = 0.01591
Similarity = 0.002
Similarity = 0.01522
Similarity = 0.00077
Similarity = 0.00609
Similarity = 0.01244
Similarity = 0.00948
Similarity = 0.01337
Similarity = 0.00992
Similarity = 0.0038
Similarity = 0.02094
Similarity = 0.0
Similarity = 0.00868
Similarity = 0.00699
Similarity = 0.02609
Similarity = 0.00502
Similarity = 0.01006
Similarity = 0.03362
Similarity = 0.00247
Similarity = 0.0
Similarity = 0.00025
Similarity = 0.00951
Similarity = 0.00717
Similarity = 0.01241
Similarity = 0.01645
Similarity = 0.007
Similarity = 0.0023
Similarity = 0.01456
Similarity = 0.012
Similarity = 0.0104
Similarity = 0.0081
Similarity = 0.02002
Similarity = 0.0
Similarity = 0.01167
Similarity = 0.00294
Similarity = 0.004
Similarity = 0.01072
Similarity = 0.00121
Similarity = 0.03663
Similarity = 0.00523
Similarity = 0.00534
Similarity = 0.00472
Similarity = 0.00121
Similarity = 0.01231
Similarity = 0.00267
Similarity = 0.01192
Similarity = 0.00613
Similarity = 0.00011
Similarity = 0.00227
Similarity = 0.0077
Similarity = 0.0036
Similarity = 0.00135
Similarity = 0.00701
Similarity = 0.00204
Similarity = 0.00389
Similarity = 0.00774
Similarity = 0.00282
Similarity = 0.00067
Similarity = 0.00124
Similarity = 0.00273
Similarity = 0.00343
Similarity = 0.00168
Similarity = 0.00795
Similarity = 0.00202
Similarity = 0.003
Similarity = 0.00701
Similarity = 0.00712
Similarity = 0.00323
Similarity = 0.01304
Similarity = 0.00976
Similarity = 0.00287
Similarity = 3e-05
Similarity = 0.00544
Similarity = 0.02063
Similarity = 0.01228
Similarity = 0.00181
Similarity = 0.00356
Similarity = 0.00111
Similarity = 0.00628
Similarity = 0.00303
Similarity = 0.00553
Similarity = 0.00693
Similarity = 0.01215
Similarity = 0.02699
Similarity = 0.00409
Similarity = 0.02164
Similarity = 0.00412
Similarity = 0.00782
Similarity = 0.02672
Similarity = 0.03328
Similarity = 0.00258
Similarity = 0.01228
Similarity = 0.01241
Similarity = 0.02252
Similarity = 0.0462
Similarity = 0.01732
Similarity = 0.02197
Similarity = 0.005
Similarity = 0.00818
Similarity = 0.02641
Similarity = 0.01075
Similarity = 0.01037
Similarity = 0.02025
Similarity = 0.02687
Similarity = 0.01642
Similarity = 0.01479
Similarity = 0.03499
Similarity = 0.01531
Similarity = 0.00697
Similarity = 0.01682
Similarity = 0.01476
Similarity = 0.02844
Similarity = 0.02957
Similarity = 0.0125
Similarity = 0.01069
Similarity = 0.01511
Similarity = 0.02201
Similarity = 0.01587
Similarity = 0.01943
Similarity = 0.00019
Similarity = 0.00776
Similarity = 0.01102
Similarity = 0.02619
Similarity = 0.00937
Similarity = 0.01564
Similarity = 0.00376
Similarity = 0.01063
Similarity = 0.00281
Similarity = 0.02941
Similarity = 0.01999
Similarity = 0.01374
Similarity = 0.04532
Similarity = 0.00239
Similarity = 0.02319
Similarity = 0.00295
Similarity = 0.04575
Similarity = 0.03304
Similarity = 0.00748
Similarity = 0.03149
Similarity = 0.01936
Similarity = 0.00482
Similarity = 0.0
Similarity = 0.00321
Similarity = 0.02048
Similarity = 0.01521
Similarity = 0.02642
Similarity = 0.01164
Similarity = 0.00228
Similarity = 0.00718
Similarity = 0.01322
Similarity = 0.00949
Similarity = 0.00736
Similarity = 0.04136
Similarity = 0.01193
Similarity = 0.02077
Similarity = 0.01421
Similarity = 0.03294
Similarity = 0.00478
Similarity = 0.00541
Similarity = 0.00747
Similarity = 0.01986
Similarity = 0.01454
Similarity = 0.0215
Similarity = 0.0063
Similarity = 0.01293
Similarity = 0.015
Similarity = 0.00575
Similarity = 0.00251
Similarity = 0.00681
Similarity = 0.0
Similarity = 0.0069
Similarity = 4e-05
Similarity = 0.02952
Similarity = 0.01583
Similarity = 0.0133
Similarity = 0.00208
Similarity = 0.01252
Similarity = 0.00316
Similarity = 0.02989
Similarity = 0.01367
Similarity = 0.01734
Similarity = 0.04799
Similarity = 0.0132
Similarity = 0.02884
Similarity = 0.0
Similarity = 0.01489
Similarity = 0.00316
Similarity = 0.00677
Similarity = 0.02901
Similarity = 0.01475
Similarity = 0.00208
Similarity = 0.0
Similarity = 0.02027
Similarity = 0.01888
Similarity = 0.0368
Similarity = 0.06221
Similarity = 0.00449
Similarity = 0.0078
Similarity = 0.00251
Similarity = 0.00817
Similarity = 0.00712
Similarity = 0.00278
Similarity = 0.01236
Similarity = 0.01118
Similarity = 0.00898
Similarity = 0.03626
Similarity = 0.03043
Similarity = 0.03117
Similarity = 0.00235
Similarity = 0.00204
Similarity = 0.0182
Similarity = 0.01188
Similarity = 0.0229
Similarity = 0.02123
Similarity = 0.01001
Similarity = 0.01248
Similarity = 0.0019
Similarity = 0.02329
Similarity = 0.02001
Similarity = 0.01441
Similarity = 0.00964
Similarity = 0.00091
Similarity = 0.0124
Similarity = 0.00564
Similarity = 0.01395
Similarity = 0.01727
Similarity = 0.00388
Similarity = 0.01249
Similarity = 0.03393
Similarity = 0.006
Similarity = 0.00476
Similarity = 0.04442
Similarity = 0.00272
Similarity = 0.01793
Similarity = 0.00855
Similarity = 0.01718
Similarity = 0.01021
Similarity = 0.00534
Similarity = 0.00728
Similarity = 0.00968
Similarity = 0.04532
Similarity = 0.00061
Similarity = 0.00679
Similarity = 0.01642
Similarity = 0.00784
Similarity = 0.00205
Similarity = 0.00747
Similarity = 0.00155
Similarity = 0.00998
Similarity = 0.00871
Similarity = 0.00818
Similarity = 0.00268
Similarity = 0.0187
Similarity = 0.00461
Similarity = 0.0106
Similarity = 0.01136
Similarity = 0.00863
Similarity = 0.00399
Similarity = 0.0064
Similarity = 0.00768
Similarity = 0.01374
Similarity = 0.00238
Similarity = 0.01742
Similarity = 0.00524
Similarity = 0.01097
Similarity = 0.00663
Similarity = 0.00537
Similarity = 0.00111
Similarity = 0.0147
Similarity = 0.00118
Similarity = 0.01018
Similarity = 0.01538
Similarity = 0.01394
Similarity = 0.00942
Similarity = 0.01209
Similarity = 0.00603
Similarity = 0.00667
Similarity = 0.00748
Similarity = 0.01538
Similarity = 0.00427
Similarity = 0.01046
Similarity = 0.0264
Similarity = 0.0156
Similarity = 0.05358
Similarity = 0.00223
Similarity = 0.02969
Similarity = 0.01031
Similarity = 0.01053
Similarity = 0.04843
Similarity = 0.03987
Similarity = 0.01623
Similarity = 0.0214
Similarity = 0.02058
Similarity = 0.03226
Similarity = 0.01355
Similarity = 0.02184
Similarity = 0.03227
Similarity = 0.00694
Similarity = 0.00699
Similarity = 0.02243
Similarity = 0.01087
Similarity = 0.02705
Similarity = 0.03811
Similarity = 0.01617
Similarity = 0.03211
Similarity = 0.01284
Similarity = 0.03162
Similarity = 0.01986
Similarity = 0.01866
Similarity = 0.01162
Similarity = 0.01496
Similarity = 0.00314
Similarity = 0.05359
Similarity = 0.02729
Similarity = 0.02367
Similarity = 0.02028
Similarity = 0.01052
Similarity = 0.00475
Similarity = 0.06247
Similarity = 0.00751
Similarity = 0.01422
Similarity = 0.0174
Similarity = 0.05043
Similarity = 0.0
Similarity = 0.02219
Similarity = 0.01884
Similarity = 0.01519
Similarity = 0.01665
Similarity = 0.04855
Similarity = 0.01594
Similarity = 0.02474
Similarity = 0.04612
Similarity = 0.03955
Similarity = 0.02729
Similarity = 0.00155
Similarity = 0.01498
Similarity = 0.01492
Similarity = 0.01258
Similarity = 0.02114
Similarity = 0.02782
Similarity = 0.0135
Similarity = 0.02439
Similarity = 0.04336
Similarity = 0.03467
Similarity = 0.00591
Similarity = 0.0336
Similarity = 0.02194
Similarity = 0.00666
Similarity = 0.01427
Similarity = 0.02793
Similarity = 0.01883
Similarity = 0.00845
Similarity = 0.01312
Similarity = 0.0499
Similarity = 0.0274
Similarity = 0.03755
Similarity = 0.03589
Similarity = 0.00689
Similarity = 0.02813
Similarity = 0.00659
Similarity = 0.02086
Similarity = 0.00385
Similarity = 0.01438
Similarity = 0.00501
Similarity = 0.02425
Similarity = 0.03565
Similarity = 0.01211
Similarity = 0.02429
Similarity = 0.01348
Similarity = 0.00155
Similarity = 0.01421
Similarity = 0.00651
Similarity = 0.03319
Similarity = 0.09383
Similarity = 0.01961
Similarity = 0.02441
Similarity = 0.02476
Similarity = 0.01219
Similarity = 0.01447
Similarity = 0.02874
Similarity = 0.03086
Similarity = 0.06694
Similarity = 0.03691
Similarity = 0.1047
Similarity = 0.01844
Similarity = 0.0639
Similarity = 0.02432
Similarity = 0.0345
Similarity = 0.08065
Similarity = 0.08175
Similarity = 0.02622
Similarity = 0.02246
Similarity = 0.03264
Similarity = 0.07274
Similarity = 0.08807
Similarity = 0.0752
Similarity = 0.05321
Similarity = 0.03254
Similarity = 0.02333
Similarity = 0.07635
Similarity = 0.04537
Similarity = 0.05221
Similarity = 0.05938
Similarity = 0.04763
Similarity = 0.05639
Similarity = 0.0776
Similarity = 0.06159
Similarity = 0.0579
Similarity = 0.06066
Similarity = 0.0367
Similarity = 0.03892
Similarity = 0.02591
Similarity = 0.08403
Similarity = 0.06192
Similarity = 0.03803
Similarity = 0.03962
Similarity = 0.03982
Similarity = 0.02984
Similarity = 0.0408
Similarity = 0.02311
Similarity = 0.02623
Similarity = 0.03077
Similarity = 0.07506
Similarity = 0.0449
Similarity = 0.05708
Similarity = 0.04985
Similarity = 0.03986
Similarity = 0.02303
Similarity = 0.07758
Similarity = 0.06411
Similarity = 0.03071
Similarity = 0.14057
Similarity = 0.00557
Similarity = 0.03768
Similarity = 0.00752
Similarity = 0.02256
Similarity = 0.01333
Similarity = 0.01662
Similarity = 0.02441
Similarity = 0.03719
Similarity = 0.00139
Similarity = 0.00131
Similarity = 0.02167
Similarity = 0.01439
Similarity = 0.02909
Similarity = 0.02673
Similarity = 0.02358
Similarity = 0.00807
Similarity = 0.009
Similarity = 0.01472
Similarity = 0.00519
Similarity = 0.01308
Similarity = 0.01777
Similarity = 0.01534
Similarity = 0.02236
Similarity = 0.05688
Similarity = 0.0382
Similarity = 0.02078
Similarity = 0.01966
Similarity = 0.00517
Similarity = 0.01314
Similarity = 0.02106
Similarity = 0.02161
Similarity = 0.02728
Similarity = 0.01243
Similarity = 0.0156
Similarity = 0.01562
Similarity = 0.01462
Similarity = 0.02743
Similarity = 0.01681
Similarity = 0.02833
Similarity = 0.00442
Similarity = 0.03039
Similarity = 0.0
Similarity = 0.01574
Similarity = 0.04117
Similarity = 0.01022
Similarity = 0.01723
Similarity = 0.03399
Similarity = 0.00715
Similarity = 0.01653
Similarity = 0.05867
Similarity = 0.02357
Similarity = 0.04104
Similarity = 0.00734
Similarity = 0.02099
Similarity = 0.01825
Similarity = 0.02682
Similarity = 0.02573
Similarity = 0.03811
Similarity = 0.00831
Similarity = 0.01435
Similarity = 0.17791
Similarity = 0.05371
Similarity = 0.01003
Similarity = 0.02124
Similarity = 0.02576
Similarity = 0.00554
Similarity = 0.00982
Similarity = 0.03259
Similarity = 0.01845
Similarity = 0.01594
Similarity = 0.02024
Similarity = 0.11148
Similarity = 0.04604
Similarity = 0.08215
Similarity = 0.01617
Similarity = 0.03201
Similarity = 0.03407
Similarity = 0.01131
Similarity = 0.07098
Similarity = 0.02438
Similarity = 0.02001
Similarity = 0.02087
Similarity = 0.02036
Similarity = 0.07454
Similarity = 0.0088
Similarity = 0.00693
Similarity = 0.02573
Similarity = 0.00097
Similarity = 0.00594
Similarity = 0.0
Similarity = 0.04199
Similarity = 0.06675
Similarity = 0.01939
Similarity = 0.02699
Similarity = 0.01234
Similarity = 0.02048
Similarity = 0.02284
Similarity = 0.01014
Similarity = 0.02077
Similarity = 0.08338
Similarity = 0.0096
Similarity = 0.02741
Similarity = 0.00583
Similarity = 0.00611
Similarity = 0.00998
Similarity = 0.01436
Similarity = 0.01617
Similarity = 0.03724
Similarity = 0.02294
Similarity = 0.01514
Similarity = 0.00421
Similarity = 0.02683
Similarity = 0.02707
Similarity = 0.04031
Similarity = 0.00778
Similarity = 0.01383
Similarity = 0.00647
Similarity = 0.01021
Similarity = 0.01176
Similarity = 0.00849
Similarity = 0.04174
Similarity = 0.03079
Similarity = 0.01814
Similarity = 0.03609
Similarity = 0.02874
Similarity = 0.00854
Similarity = 0.02622
Similarity = 0.00402
Similarity = 0.0092
Similarity = 0.00874
Similarity = 0.01082
Similarity = 0.00609
Similarity = 0.01544
Similarity = 0.00724
Similarity = 0.00759
Similarity = 0.0152
Similarity = 0.01459
Similarity = 0.02912
Similarity = 0.02526
Similarity = 0.00276
Similarity = 0.03008
Similarity = 0.0279
Similarity = 0.02869
Similarity = 0.01102
Similarity = 0.00751
Similarity = 0.01335
Similarity = 0.02132
Similarity = 0.02817
Similarity = 0.01059
Similarity = 0.02401
Similarity = 0.01109
Similarity = 0.02736
Similarity = 0.00269
Similarity = 0.02366
Similarity = 0.00591
Similarity = 0.01941
Similarity = 0.0417
Similarity = 0.0209
Similarity = 0.0076
Similarity = 0.00462
Similarity = 0.00857
Similarity = 0.08694
Similarity = 0.018
Similarity = 0.02259
Similarity = 0.06071
Similarity = 0.00655
Similarity = 0.02596
Similarity = 0.01392
Similarity = 0.02259
Similarity = 0.02143
Similarity = 0.02749
Similarity = 0.03957
Similarity = 0.01437
Similarity = 0.01367
Similarity = 0.01034
Similarity = 0.01267
Similarity = 0.01206
Similarity = 0.01195
Similarity = 0.02242
Similarity = 0.00471
Similarity = 0.02554
Similarity = 0.00635
Similarity = 0.01243
Similarity = 0.01244
Similarity = 0.03283
Similarity = 0.01275
Similarity = 0.02005
Similarity = 0.00321
Similarity = 0.00518
Similarity = 0.00093
Similarity = 0.01755
Similarity = 0.00769
Similarity = 0.02724
Similarity = 0.00747
Similarity = 0.00941
Similarity = 0.00599
Similarity = 0.02885
Similarity = 0.01378
Similarity = 0.00965
Similarity = 0.05436
Similarity = 0.00963
Similarity = 0.02417
Similarity = 0.00748
Similarity = 0.02112
Similarity = 0.00883
Similarity = 0.01867
Similarity = 0.01958
Similarity = 0.0202
Similarity = 0.00441
Similarity = 0.01005
Similarity = 0.0171
Similarity = 0.03607
Similarity = 0.01589
Similarity = 0.01966
Similarity = 0.00289
Similarity = 0.00191
Similarity = 0.01155
Similarity = 0.00959
Similarity = 0.02321
Similarity = 0.01419
Similarity = 0.0243
Similarity = 0.02397
Similarity = 0.00716
Similarity = 0.01983
Similarity = 0.02181
Similarity = 0.00907
Similarity = 0.01318
Similarity = 0.00654
Similarity = 0.02402
Similarity = 0.00683
Similarity = 0.0191
Similarity = 0.00858
Similarity = 0.0262
Similarity = 0.00908
Similarity = 0.00449
Similarity = 0.00374
Similarity = 0.01315
Similarity = 0.00805
Similarity = 0.00536
Similarity = 0.01043
Similarity = 0.01186
Similarity = 0.01279
Similarity = 0.01074
Similarity = 0.00752
Similarity = 0.00787
Similarity = 0.01443
Similarity = 0.01483
Similarity = 0.00556
Similarity = 0.01588
Similarity = 0.02225
Similarity = 0.01421
Similarity = 0.04917
Similarity = 0.01221
Similarity = 0.05259
Similarity = 0.01967
Similarity = 0.02504
Similarity = 0.05191
Similarity = 0.03859
Similarity = 0.01706
Similarity = 0.00855
Similarity = 0.01868
Similarity = 0.04237
Similarity = 0.03014
Similarity = 0.08662
Similarity = 0.03939
Similarity = 0.01298
Similarity = 0.01513
Similarity = 0.02681
Similarity = 0.05699
Similarity = 0.02957
Similarity = 0.03999
Similarity = 0.02434
Similarity = 0.0316
Similarity = 0.02767
Similarity = 0.04438
Similarity = 0.03366
Similarity = 0.04165
Similarity = 0.03641
Similarity = 0.02791
Similarity = 0.02107
Similarity = 0.06087
Similarity = 0.02494
Similarity = 0.02648
Similarity = 0.03343
Similarity = 0.02536
Similarity = 0.00898
Similarity = 0.03023
Similarity = 0.00408
Similarity = 0.01975
Similarity = 0.00646
Similarity = 0.04052
Similarity = 0.00541
Similarity = 0.03766
Similarity = 0.03467
Similarity = 0.02174
Similarity = 0.02113
Similarity = 0.04927
Similarity = 0.01963
Similarity = 0.03738
Similarity = 0.09707
Similarity = 0.00449
Similarity = 0.02893
Similarity = 0.00607
Similarity = 0.04559
Similarity = 0.00336
Similarity = 0.00353
Similarity = 0.03946
Similarity = 0.02686
Similarity = 0.00202
Similarity = 0.00509
Similarity = 0.09011
Similarity = 0.04319
Similarity = 0.07263
Similarity = 0.05776
Similarity = 0.00803
Similarity = 0.01217
Similarity = 0.01226
Similarity = 0.02623
Similarity = 0.01958
Similarity = 0.01761
Similarity = 0.0248
Similarity = 0.05465
Similarity = 0.02501
Similarity = 0.04502
Similarity = 0.01378
Similarity = 0.01811
Similarity = 0.01528
Similarity = 0.0094
Similarity = 0.04518
Similarity = 0.00669
Similarity = 0.01786
Similarity = 0.00922
Similarity = 0.00597
Similarity = 0.03284
Similarity = 0.00903
Similarity = 0.01316
Similarity = 0.02601
Similarity = 0.01837
Similarity = 0.00771
Similarity = 0.00482
Similarity = 0.0248
Similarity = 0.01098
Similarity = 0.03184
Similarity = 0.01229
Similarity = 0.01044
Similarity = 0.02729
Similarity = 0.03608
Similarity = 0.00498
Similarity = 0.01405
Similarity = 0.06558
Similarity = 0.00135
Similarity = 0.01708
Similarity = 0.00307
Similarity = 0.00961
Similarity = 0.00895
Similarity = 0.0073
Similarity = 0.02709
Similarity = 0.01367
Similarity = 0.02346
Similarity = 0.0017
Similarity = 0.0425
Similarity = 0.00841
Similarity = 0.0077
Similarity = 0.00778
Similarity = 0.00137
Similarity = 0.01897
Similarity = 0.00436
Similarity = 0.02369
Similarity = 0.00017
Similarity = 0.01178
Similarity = 0.01931
Similarity = 0.02892
Similarity = 0.02695
Similarity = 0.02065
Similarity = 0.02357
Similarity = 0.0388
Similarity = 0.01113
Similarity = 0.0023
Similarity = 0.02258
Similarity = 0.00484
Similarity = 0.02176
Similarity = 0.00495
Similarity = 0.00646
Similarity = 0.01476
Similarity = 0.0162
Similarity = 0.01301
Similarity = 0.01016
Similarity = 0.00082
Similarity = 0.00997
Similarity = 0.00228
Similarity = 0.02353
Similarity = 0.0
Similarity = 0.01225
Similarity = 0.01139
Similarity = 0.01076
Similarity = 0.00669
Similarity = 0.02107
Similarity = 0.00242
Similarity = 0.00778
Similarity = 0.02425
Similarity = 0.0
Similarity = 0.01151
Similarity = 0.00248
Similarity = 0.01596
Similarity = 0.00886
Similarity = 0.007
Similarity = 0.01695
Similarity = 0.01261
Similarity = 0.02429
Similarity = 0.00642
Similarity = 0.00532
Similarity = 0.01561
Similarity = 0.02811
Similarity = 0.00767
Similarity = 0.00702
Similarity = 0.00442
Similarity = 0.01289
Similarity = 0.01804
Similarity = 0.01377
Similarity = 0.0122
Similarity = 0.0103
Similarity = 0.01637
Similarity = 0.00664
Similarity = 0.01692
Similarity = 0.00725
Similarity = 0.01168
Similarity = 0.00762
Similarity = 0.01183
Similarity = 0.01225
Similarity = 0.01021
Similarity = 0.02463
Similarity = 0.0052
Similarity = 0.00946
Similarity = 0.00531
Similarity = 0.00568
Similarity = 0.00556
Similarity = 0.02189
Similarity = 0.01103
Similarity = 0.0132
Similarity = 0.00264
Similarity = 0.01438
Similarity = 0.26888
Similarity = 0.01308
Similarity = 0.02147
Similarity = 0.00666
Similarity = 0.02097
Similarity = 0.01375
Similarity = 0.01224
Similarity = 0.01103
Similarity = 0.03006
Similarity = 0.00522
Similarity = 0.08249
Similarity = 0.00956
Similarity = 0.00956
Similarity = 0.02189
Similarity = 0.00713
Similarity = 0.04469
Similarity = 0.05114
Similarity = 0.00224
Similarity = 0.00264
Similarity = 0.0092
Similarity = 0.03423
Similarity = 0.04976
Similarity = 0.02489
Similarity = 0.03121
Similarity = 0.02071
Similarity = 0.01727
Similarity = 0.03915
Similarity = 0.02535
Similarity = 0.0194
Similarity = 0.02446
Similarity = 0.01537
Similarity = 0.01971
Similarity = 0.01912
Similarity = 0.08013
Similarity = 0.02046
Similarity = 0.00479
Similarity = 0.00922
Similarity = 0.01496
Similarity = 0.01478
Similarity = 0.02396
Similarity = 0.00872
Similarity = 0.01172
Similarity = 0.03556
Similarity = 0.01102
Similarity = 0.01356
Similarity = 0.0116
Similarity = 0.02865
Similarity = 0.00894
Similarity = 0.00285
Similarity = 0.02666
Similarity = 0.06195
Similarity = 0.025
Similarity = 0.01484
Similarity = 0.01462
Similarity = 0.03511
Similarity = 0.02558
Similarity = 0.00709
Similarity = 0.0136
Similarity = 0.05988
Similarity = 0.00749
Similarity = 0.0213
Similarity = 0.00327
Similarity = 0.00942
Similarity = 0.00564
Similarity = 0.00247
Similarity = 0.01738
Similarity = 0.0333
Similarity = 0.01145
Similarity = 0.0
Similarity = 0.00619
Similarity = 0.01479
Similarity = 0.05615
Similarity = 0.01681
Similarity = 0.00976
Similarity = 0.00423
Similarity = 0.00172
Similarity = 0.02576
Similarity = 0.00944
Similarity = 0.0059
Similarity = 0.01925
Similarity = 0.01828
Similarity = 0.0116
Similarity = 0.01879
Similarity = 0.04037
Similarity = 0.02351
Similarity = 0.00624
Similarity = 0.00488
Similarity = 0.00322
Similarity = 0.0038
Similarity = 0.0175
Similarity = 0.00602
Similarity = 0.03469
Similarity = 0.01243
Similarity = 0.00651
Similarity = 0.01769
Similarity = 0.0117
Similarity = 0.00407
Similarity = 0.00528
Similarity = 0.0
Similarity = 0.02848
Similarity = 0.0
Similarity = 0.0204
Similarity = 0.00645
Similarity = 0.0032
Similarity = 0.00369
Similarity = 0.01473
Similarity = 0.02281
Similarity = 0.00879
Similarity = 0.04041
Similarity = 0.0
Similarity = 0.00826
Similarity = 0.00133
Similarity = 0.00518
Similarity = 0.01689
Similarity = 0.00929
Similarity = 0.00468
Similarity = 0.00732
Similarity = 0.00555
Similarity = 0.00542
Similarity = 0.00394
Similarity = 0.0148
Similarity = 0.00541
Similarity = 0.00777
Similarity = 0.01533
Similarity = 0.00207
Similarity = 0.00433
Similarity = 0.00738
Similarity = 0.02821
Similarity = 0.01117
Similarity = 0.01745
Similarity = 0.01339
Similarity = 0.00856
Similarity = 0.00906
Similarity = 0.00704
Similarity = 0.02832
Similarity = 0.00301
Similarity = 0.01592
Similarity = 0.00846
Similarity = 0.00478
Similarity = 0.00882
Similarity = 0.01742
Similarity = 0.01476
Similarity = 0.00743
Similarity = 0.00753
Similarity = 0.00632
Similarity = 0.00454
Similarity = 0.03642
Similarity = 0.00898
Similarity = 0.00163
Similarity = 0.01388
Similarity = 0.1004
Similarity = 0.01171
Similarity = 0.01054
Similarity = 0.00628
Similarity = 0.00637
Similarity = 0.01288
Similarity = 0.01557
Similarity = 0.01066
Similarity = 0.01491
Similarity = 0.03854
Similarity = 0.06778
Similarity = 0.011
Similarity = 0.03216
Similarity = 0.01953
Similarity = 0.01426
Similarity = 0.053
Similarity = 0.0442
Similarity = 0.01762
Similarity = 0.03272
Similarity = 0.05145
Similarity = 0.06136
Similarity = 0.05051
Similarity = 0.03016
Similarity = 0.03388
Similarity = 0.02997
Similarity = 0.01872
Similarity = 0.04408
Similarity = 0.03064
Similarity = 0.02298
Similarity = 0.02948
Similarity = 0.04114
Similarity = 0.0367
Similarity = 0.03634
Similarity = 0.03557
Similarity = 0.01864
Similarity = 0.03412
Similarity = 0.03426
Similarity = 0.03866
Similarity = 0.02105
Similarity = 0.071
Similarity = 0.03222
Similarity = 0.04024
Similarity = 0.04888
Similarity = 0.03159
Similarity = 0.01483
Similarity = 0.02405
Similarity = 0.00446
Similarity = 0.01769
Similarity = 0.01524
Similarity = 0.04513
Similarity = 0.03711
Similarity = 0.0285
Similarity = 0.01244
Similarity = 0.03181
Similarity = 0.01508
Similarity = 0.03794
Similarity = 0.03396
Similarity = 0.02953
Similarity = 0.11428
Similarity = 0.01242
Similarity = 0.03753
Similarity = 0.00692
Similarity = 0.03196
Similarity = 0.0083
Similarity = 0.01447
Similarity = 0.03853
Similarity = 0.01631
Similarity = 0.0054
Similarity = 0.01387
Similarity = 0.01396
Similarity = 0.04803
Similarity = 0.0166
Similarity = 0.0442
Similarity = 0.00913
Similarity = 0.00623
Similarity = 0.00964
Similarity = 0.00927
Similarity = 0.01875
Similarity = 0.03043
Similarity = 0.03462
Similarity = 0.03946
Similarity = 0.01314
Similarity = 0.03691
Similarity = 0.03355
Similarity = 0.01108
Similarity = 0.0315
Similarity = 0.01813
Similarity = 0.0223
Similarity = 0.02249
Similarity = 0.05021
Similarity = 0.01179
Similarity = 0.02368
Similarity = 0.02534
Similarity = 0.02658
Similarity = 0.00433
Similarity = 0.01876
Similarity = 0.01781
Similarity = 0.03106
Similarity = 0.02026
Similarity = 0.0141
Similarity = 0.00761
Similarity = 0.02769
Similarity = 0.04848
Similarity = 0.00919
Similarity = 0.02187
Similarity = 0.03769
Similarity = 0.02555
Similarity = 0.01261
Similarity = 0.04322
Similarity = 0.00354
Similarity = 0.02994
Similarity = 0.01278
Similarity = 0.01927
Similarity = 0.00344
Similarity = 0.00167
Similarity = 0.05762
Similarity = 0.00807
Similarity = 0.00223
Similarity = 0.0
Similarity = 0.0051
Similarity = 0.01286
Similarity = 0.07695
Similarity = 0.012
Similarity = 0.0184
Similarity = 0.00165
Similarity = 0.0298
Similarity = 0.01224
Similarity = 0.00682
Similarity = 0.02407
Similarity = 0.00533
Similarity = 0.00581
Similarity = 0.01238
Similarity = 0.01254
Similarity = 0.02347
Similarity = 0.02491
Similarity = 0.00441
Similarity = 0.00431
Similarity = 0.00454
Similarity = 0.0009
Similarity = 0.01492
Similarity = 0.05364
Similarity = 0.00421
Similarity = 0.01253
Similarity = 0.00902
Similarity = 0.01626
Similarity = 0.00956
Similarity = 0.00858
Similarity = 0.00425
Similarity = 3e-05
Similarity = 0.01157
Similarity = 0.0
Similarity = 0.01394
Similarity = 0.02177
Similarity = 0.00328
Similarity = 0.00955
Similarity = 0.01639
Similarity = 0.00575
Similarity = 0.00614
Similarity = 0.02785
Similarity = 0.01471
Similarity = 0.02235
Similarity = 0.00943
Similarity = 0.01849
Similarity = 0.0033
Similarity = 0.01599
Similarity = 0.0269
Similarity = 0.02464
Similarity = 0.00355
Similarity = 0.00237
Similarity = 0.00974
Similarity = 0.03614
Similarity = 0.02257
Similarity = 0.02419
Similarity = 0.02336
Similarity = 0.0041
Similarity = 0.01091
Similarity = 0.01372
Similarity = 0.00418
Similarity = 0.00946
Similarity = 0.02791
Similarity = 0.0095
Similarity = 0.00904
Similarity = 0.02809
Similarity = 0.01897
Similarity = 0.01844
Similarity = 0.01007
Similarity = 0.01055
Similarity = 0.00854
Similarity = 0.02286
Similarity = 0.03046
Similarity = 0.01746
Similarity = 0.00724
Similarity = 0.01935
Similarity = 0.02606
Similarity = 0.00509
Similarity = 0.02974
Similarity = 0.00529
Similarity = 0.02745
Similarity = 0.00619
Similarity = 0.0144
Similarity = 0.00786
Similarity = 0.01895
Similarity = 0.02608
Similarity = 0.00883
Similarity = 0.005
Similarity = 0.0314
Similarity = 0.01539
Similarity = 0.0072
Similarity = 0.03338
Similarity = 0.00012
Similarity = 0.00537
Similarity = 0.00031
Similarity = 0.0029
Similarity = 0.0054
Similarity = 0.00182
Similarity = 0.01266
Similarity = 0.00519
Similarity = 0.00107
Similarity = 0.0
Similarity = 0.00289
Similarity = 0.01486
Similarity = 0.00054
Similarity = 0.00864
Similarity = 0.00341
Similarity = 0.00413
Similarity = 0.0024
Similarity = 0.00484
Similarity = 0.00458
Similarity = 0.00075
Similarity = 0.00518
Similarity = 0.01064
Similarity = 0.01387
Similarity = 0.00938
Similarity = 0.0061
Similarity = 0.00132
Similarity = 0.00123
Similarity = 0.00041
Similarity = 0.0092
Similarity = 0.00609
Similarity = 0.00191
Similarity = 0.00254
Similarity = 0.0012
Similarity = 0.00721
Similarity = 0.00115
Similarity = 0.00282
Similarity = 0.01029
Similarity = 0.00025
Similarity = 0.00192
Similarity = 5e-05
Similarity = 0.01268
Similarity = 0.00069
Similarity = 0.00538
Similarity = 0.00178
Similarity = 0.00245
Similarity = 0.00089
Similarity = 0.00783
Similarity = 0.00184
Similarity = 0.00172
Similarity = 0.01966
Similarity = 0.0095
Similarity = 0.01078
Similarity = 0.00291
Similarity = 0.00568
Similarity = 0.01414
Similarity = 0.00931
Similarity = 0.00937
Similarity = 0.01374
Similarity = 0.00576
Similarity = 0.00422
Similarity = 0.00351
Similarity = 0.00895
Similarity = 0.01713
Similarity = 0.00778
Similarity = 0.0062
Similarity = 0.00723
Similarity = 0.00245
Similarity = 0.00908
Similarity = 0.00419
Similarity = 0.00775
Similarity = 0.00681
Similarity = 0.00493
Similarity = 0.0176
Similarity = 0.02454
Similarity = 0.00797
Similarity = 0.02351
Similarity = 0.00035
Similarity = 0.00552
Similarity = 0.01566
Similarity = 0.00311
Similarity = 0.00651
Similarity = 0.00542
Similarity = 0.00368
Similarity = 0.00156
Similarity = 0.02371
Similarity = 0.00841
Similarity = 0.01149
Similarity = 0.0054
Similarity = 0.00683
Similarity = 4e-05
Similarity = 0.02076
Similarity = 0.0
Similarity = 0.00997
Similarity = 2e-05
Similarity = 0.00365
Similarity = 0.00204
Similarity = 0.02054
Similarity = 0.00685
Similarity = 0.00973
Similarity = 0.01924
Similarity = 0.00778
Similarity = 0.04272
Similarity = 0.01701
Similarity = 0.02425
Similarity = 0.01575
Similarity = 0.02149
Similarity = 0.03787
Similarity = 0.03375
Similarity = 0.01565
Similarity = 0.01153
Similarity = 0.01222
Similarity = 0.03524
Similarity = 0.02411
Similarity = 0.04577
Similarity = 0.02238
Similarity = 0.0095
Similarity = 0.01554
Similarity = 0.02434
Similarity = 0.02116
Similarity = 0.01726
Similarity = 0.0543
Similarity = 0.01793
Similarity = 0.01961
Similarity = 0.02468
Similarity = 0.02662
Similarity = 0.02668
Similarity = 0.01772
Similarity = 0.01672
Similarity = 0.02409
Similarity = 0.01226
Similarity = 0.05551
Similarity = 0.03103
Similarity = 0.02759
Similarity = 0.01684
Similarity = 0.01863
Similarity = 0.00568
Similarity = 0.02098
Similarity = 0.01194
Similarity = 0.00865
Similarity = 0.00445
Similarity = 0.02643
Similarity = 0.00987
Similarity = 0.02414
Similarity = 0.02074
Similarity = 0.01413
Similarity = 0.01361
Similarity = 0.03637
Similarity = 0.01007
Similarity = 0.01468
Similarity = 0.03538
Similarity = 0.0
Similarity = 0.01314
Similarity = 0.00273
Similarity = 0.0143
Similarity = 0.00239
Similarity = 0.00925
Similarity = 0.00427
Similarity = 0.01943
Similarity = 0.00666
Similarity = 0.00066
Similarity = 0.02097
Similarity = 0.02043
Similarity = 0.01581
Similarity = 0.00344
Similarity = 0.00412
Similarity = 0.0048
Similarity = 0.00191
Similarity = 0.00768
Similarity = 0.04515
Similarity = 0.00701
Similarity = 0.01235
Similarity = 0.02113
Similarity = 0.01454
Similarity = 0.00901
Similarity = 0.02041
Similarity = 0.0299
Similarity = 0.00179
Similarity = 0.02625
Similarity = 0.02028
Similarity = 0.00721
Similarity = 0.01997
Similarity = 0.00487
Similarity = 0.02443
Similarity = 0.00835
Similarity = 0.01719
Similarity = 0.00237
Similarity = 0.00771
Similarity = 0.00523
Similarity = 0.01001
Similarity = 0.00851
Similarity = 0.0189
Similarity = 0.0098
Similarity = 0.00904
Similarity = 0.00271
Similarity = 0.01076
Similarity = 0.00778
Similarity = 0.0129
Similarity = 0.00386
Similarity = 0.01434
Similarity = 0.02911
Similarity = 0.01114
Similarity = 0.04438
Similarity = 0.00719
Similarity = 0.0292
Similarity = 0.01084
Similarity = 0.03762
Similarity = 0.05087
Similarity = 0.03681
Similarity = 0.00619
Similarity = 0.0113
Similarity = 0.01124
Similarity = 0.02595
Similarity = 0.03054
Similarity = 0.03416
Similarity = 0.02176
Similarity = 0.00459
Similarity = 0.01218
Similarity = 0.0237
Similarity = 0.01486
Similarity = 0.04317
Similarity = 0.02409
Similarity = 0.01466
Similarity = 0.01075
Similarity = 0.02034
Similarity = 0.03109
Similarity = 0.02832
Similarity = 0.04292
Similarity = 0.02225
Similarity = 0.01804
Similarity = 0.02222
Similarity = 0.06261
Similarity = 0.0312
Similarity = 0.02204
Similarity = 0.01609
Similarity = 0.01478
Similarity = 0.01071
Similarity = 0.02045
Similarity = 0.03288
Similarity = 0.01086
Similarity = 0.00716
Similarity = 0.02495
Similarity = 0.00671
Similarity = 0.02606
Similarity = 0.01551
Similarity = 0.02166
Similarity = 0.0105
Similarity = 0.04246
Similarity = 0.02051
Similarity = 0.01053
Similarity = 0.04917
Similarity = 0.00077
Similarity = 0.02353
Similarity = 0.02014
Similarity = 0.01507
Similarity = 0.02045
Similarity = 0.00586
Similarity = 0.01968
Similarity = 0.00955
Similarity = 0.00629
Similarity = 0.00172
Similarity = 0.00379
Similarity = 0.02049
Similarity = 0.00977
Similarity = 0.01505
Similarity = 0.01053
Similarity = 0.01166
Similarity = 0.00845
Similarity = 0.02054
Similarity = 0.01168
Similarity = 0.03778
Similarity = 0.03273
Similarity = 0.01364
Similarity = 0.01319
Similarity = 0.01666
Similarity = 0.02558
Similarity = 0.01932
Similarity = 0.00194
Similarity = 0.00718
Similarity = 0.0109
Similarity = 0.00734
Similarity = 0.01465
Similarity = 0.02021
Similarity = 0.02859
Similarity = 0.01122
Similarity = 0.02991
Similarity = 0.00221
Similarity = 0.03992
Similarity = 0.02382
Similarity = 0.0087
Similarity = 7e-05
Similarity = 0.0172
Similarity = 0.0
Similarity = 0.02477
Similarity = 0.01022
Similarity = 0.01596
Similarity = 0.01149
Similarity = 0.03525
Similarity = 0.00797
Similarity = 0.00707
Similarity = 0.02843
Similarity = 0.00722
Similarity = 0.02526
Similarity = 0.00686
Similarity = 0.01838
Similarity = 0.01452
Similarity = 0.0172
Similarity = 0.03539
Similarity = 0.02978
Similarity = 0.00364
Similarity = 0.00414
Similarity = 0.01173
Similarity = 0.02539
Similarity = 0.09605
Similarity = 0.02207
Similarity = 0.01646
Similarity = 0.01945
Similarity = 0.00961
Similarity = 0.024
Similarity = 0.01469
Similarity = 0.00494
Similarity = 0.01087
Similarity = 0.04176
Similarity = 0.04956
Similarity = 0.03622
Similarity = 0.01691
Similarity = 0.01459
Similarity = 0.00504
Similarity = 0.01277
Similarity = 0.01286
Similarity = 0.0022
Similarity = 0.02592
Similarity = 0.02296
Similarity = 0.00786
Similarity = 0.01551
Similarity = 0.01105
Similarity = 0.04106
Similarity = 0.01599
Similarity = 0.00234
Similarity = 0.00847
Similarity = 0.00959
Similarity = 0.04821
Similarity = 0.01235
Similarity = 0.02923
Similarity = 0.01012
Similarity = 0.01339
Similarity = 0.01508
Similarity = 0.02595
Similarity = 0.03959
Similarity = 0.0099
Similarity = 0.04693
Similarity = 0.0
Similarity = 0.01811
Similarity = 0.00993
Similarity = 0.01975
Similarity = 0.00862
Similarity = 0.00911
Similarity = 0.02456
Similarity = 0.01698
Similarity = 0.0167
Similarity = 0.00139
Similarity = 0.01669
Similarity = 0.02023
Similarity = 0.02743
Similarity = 0.01046
Similarity = 0.01054
Similarity = 0.01116
Similarity = 0.00614
Similarity = 0.0121
Similarity = 0.01212
Similarity = 0.01182
Similarity = 0.00932
Similarity = 0.02135
Similarity = 0.01488
Similarity = 0.00295
Similarity = 0.02994
Similarity = 0.03069
Similarity = 0.03517
Similarity = 0.00883
Similarity = 0.01261
Similarity = 0.00534
Similarity = 0.01619
Similarity = 0.01001
Similarity = 0.01557
Similarity = 0.01956
Similarity = 0.02317
Similarity = 0.00075
Similarity = 0.02569
Similarity = 0.00011
Similarity = 0.03142
Similarity = 0.00193
Similarity = 0.02944
Similarity = 0.0
Similarity = 0.0127
Similarity = 0.01123
Similarity = 0.00557
Similarity = 0.00688
Similarity = 0.01093
Similarity = 0.00652
Similarity = 0.01331
Similarity = 0.05919
Similarity = 0.01947
Similarity = 0.06502
Similarity = 0.01672
Similarity = 0.04355
Similarity = 0.01736
Similarity = 0.01002
Similarity = 0.0634
Similarity = 0.05417
Similarity = 0.0054
Similarity = 0.01163
Similarity = 0.02513
Similarity = 0.04462
Similarity = 0.06264
Similarity = 0.03258
Similarity = 0.03699
Similarity = 0.01747
Similarity = 0.02079
Similarity = 0.04142
Similarity = 0.02328
Similarity = 0.03363
Similarity = 0.04172
Similarity = 0.03033
Similarity = 0.04897
Similarity = 0.03125
Similarity = 0.06355
Similarity = 0.04393
Similarity = 0.02085
Similarity = 0.01875
Similarity = 0.03709
Similarity = 0.02831
Similarity = 0.06687
Similarity = 0.03316
Similarity = 0.02803
Similarity = 0.03832
Similarity = 0.01852
Similarity = 0.01253
Similarity = 0.03544
Similarity = 0.01937
Similarity = 0.02179
Similarity = 0.01306
Similarity = 0.054
Similarity = 0.00857
Similarity = 0.03365
Similarity = 0.02675
Similarity = 0.02809
Similarity = 0.02727
Similarity = 0.05733
Similarity = 0.02241
Similarity = 0.02117
Similarity = 0.10264
Similarity = 0.00383
Similarity = 0.02093
Similarity = 0.00528
Similarity = 0.02881
Similarity = 0.00835
Similarity = 0.02027
Similarity = 0.03337
Similarity = 0.02248
Similarity = 0.00173
Similarity = 0.0
Similarity = 0.01195
Similarity = 0.02292
Similarity = 0.03101
Similarity = 0.02172
Similarity = 0.00992
Similarity = 0.0076
Similarity = 0.01455
Similarity = 0.01298
Similarity = 0.02635
Similarity = 0.01248
Similarity = 0.02293
Similarity = 0.0156
Similarity = 0.012
Similarity = 0.01303
Similarity = 0.03719
Similarity = 0.01189
Similarity = 0.018
Similarity = 0.02004
Similarity = 0.00992
Similarity = 0.01532
Similarity = 0.0343
Similarity = 0.02301
Similarity = 0.00629
Similarity = 0.01964
Similarity = 0.00932
Similarity = 0.00754
Similarity = 0.03352
Similarity = 0.00343
Similarity = 0.00725
Similarity = 0.00539
Similarity = 0.03158
Similarity = 0.00242
Similarity = 0.02456
Similarity = 0.01257
Similarity = 0.0048
Similarity = 0.00777
Similarity = 0.0265
Similarity = 0.01405
Similarity = 0.02113
Similarity = 0.03498
0.017709643999999945
