Files are 20_newsgroups/rec.motorcycles  20_newsgroups/rec.sport.hockey
Similarity = 0.0077
Similarity = 0.00616
Similarity = 0.00218
Similarity = 0.01495
Similarity = 0.01227
Similarity = 0.01774
Similarity = 0.02013
Similarity = 0.00844
Similarity = 0.02316
Similarity = 0.00243
Similarity = 0.00633
Similarity = 0.01354
Similarity = 0.00552
Similarity = 0.00371
Similarity = 0.00839
Similarity = 0.01286
Similarity = 0.01115
Similarity = 0.00872
Similarity = 0.00254
Similarity = 0.0093
Similarity = 0.00433
Similarity = 0.0
Similarity = 0.04266
Similarity = 0.02536
Similarity = 0.00656
Similarity = 0.00624
Similarity = 0.0
Similarity = 0.00498
Similarity = 0.01697
Similarity = 0.00702
Similarity = 0.00942
Similarity = 0.00514
Similarity = 0.0
Similarity = 0.00848
Similarity = 0.01284
Similarity = 0.02555
Similarity = 0.00445
Similarity = 0.01523
Similarity = 0.00355
Similarity = 0.0154
Similarity = 0.00145
Similarity = 0.04998
Similarity = 0.00276
Similarity = 0.00406
Similarity = 0.01985
Similarity = 0.02504
Similarity = 0.00431
Similarity = 0.00965
Similarity = 0.01247
Similarity = 0.01088
Similarity = 0.02399
Similarity = 0.01461
Similarity = 0.02519
Similarity = 0.0327
Similarity = 0.0312
Similarity = 0.01682
Similarity = 0.01998
Similarity = 0.01805
Similarity = 0.03215
Similarity = 0.0009
Similarity = 0.04436
Similarity = 0.03151
Similarity = 0.01134
Similarity = 0.0119
Similarity = 0.01038
Similarity = 0.01237
Similarity = 0.02867
Similarity = 0.031
Similarity = 0.00877
Similarity = 0.01599
Similarity = 0.01111
Similarity = 0.01006
Similarity = 0.05989
Similarity = 0.03077
Similarity = 0.03295
Similarity = 0.01586
Similarity = 0.00322
Similarity = 0.00721
Similarity = 0.02037
Similarity = 0.0276
Similarity = 0.01405
Similarity = 0.01606
Similarity = 0.00174
Similarity = 0.01157
Similarity = 0.0065
Similarity = 0.0233
Similarity = 0.01365
Similarity = 0.02656
Similarity = 0.00468
Similarity = 0.04895
Similarity = 0.01683
Similarity = 0.01651
Similarity = 0.01531
Similarity = 0.01727
Similarity = 0.02217
Similarity = 0.0221
Similarity = 0.01972
Similarity = 0.01967
Similarity = 0.02349
Similarity = 0.00891
Similarity = 0.00562
Similarity = 0.00307
Similarity = 0.00316
Similarity = 0.01227
Similarity = 0.02105
Similarity = 0.01025
Similarity = 0.01382
Similarity = 0.01184
Similarity = 0.00843
Similarity = 0.01669
Similarity = 0.00645
Similarity = 0.00981
Similarity = 0.00241
Similarity = 0.00283
Similarity = 0.01513
Similarity = 0.00658
Similarity = 0.01588
Similarity = 0.01251
Similarity = 0.00979
Similarity = 0.00986
Similarity = 0.01641
Similarity = 0.00248
Similarity = 0.03309
Similarity = 0.01961
Similarity = 0.01252
Similarity = 0.01337
Similarity = 0.00106
Similarity = 0.00604
Similarity = 0.00394
Similarity = 0.01939
Similarity = 0.01379
Similarity = 0.00171
Similarity = 0.00329
Similarity = 0.02976
Similarity = 0.00778
Similarity = 0.00952
Similarity = 0.02032
Similarity = 0.00528
Similarity = 0.01849
Similarity = 0.02732
Similarity = 0.01465
Similarity = 0.00816
Similarity = 0.00754
Similarity = 0.00655
Similarity = 0.01574
Similarity = 0.00974
Similarity = 0.00558
Similarity = 0.00457
Similarity = 0.02773
Similarity = 0.00634
Similarity = 0.01931
Similarity = 0.0113
Similarity = 0.00571
Similarity = 0.02485
Similarity = 0.0203
Similarity = 0.01191
Similarity = 0.00745
Similarity = 0.0159
Similarity = 0.00533
Similarity = 0.00522
Similarity = 0.01475
Similarity = 0.04739
Similarity = 0.01426
Similarity = 0.00468
Similarity = 0.00997
Similarity = 0.00731
Similarity = 0.02012
Similarity = 0.02173
Similarity = 0.00869
Similarity = 0.02914
Similarity = 0.01974
Similarity = 0.00086
Similarity = 0.05177
Similarity = 0.03107
Similarity = 0.02123
Similarity = 0.01619
Similarity = 0.00154
Similarity = 0.0114
Similarity = 0.01183
Similarity = 0.01436
Similarity = 0.00877
Similarity = 0.01456
Similarity = 0.00053
Similarity = 0.0143
Similarity = 0.00994
Similarity = 0.02604
Similarity = 0.01884
Similarity = 0.01315
Similarity = 0.01988
Similarity = 0.03667
Similarity = 0.01447
Similarity = 0.01391
Similarity = 0.00786
Similarity = 0.02239
Similarity = 0.04511
Similarity = 0.00451
Similarity = 0.00536
Similarity = 0.00806
Similarity = 0.00977
Similarity = 0.01052
Similarity = 0.02006
Similarity = 0.02119
Similarity = 0.00081
Similarity = 0.02921
Similarity = 0.0168
Similarity = 0.01163
Similarity = 0.00797
Similarity = 0.01256
Similarity = 0.01316
Similarity = 4e-05
Similarity = 0.02873
Similarity = 0.01308
Similarity = 0.01596
Similarity = 0.00159
Similarity = 0.01872
Similarity = 0.00831
Similarity = 0.0235
Similarity = 0.04255
Similarity = 0.01987
Similarity = 0.00784
Similarity = 0.00582
Similarity = 0.0
Similarity = 0.05868
Similarity = 0.01933
Similarity = 0.01415
Similarity = 0.01523
Similarity = 0.00957
Similarity = 0.00586
Similarity = 0.01926
Similarity = 0.01247
Similarity = 0.00472
Similarity = 0.03705
Similarity = 0.0
Similarity = 0.01118
Similarity = 0.00602
Similarity = 0.02583
Similarity = 0.00635
Similarity = 0.022
Similarity = 0.01784
Similarity = 0.02036
Similarity = 0.01116
Similarity = 0.00279
Similarity = 0.00537
Similarity = 0.01171
Similarity = 0.0146
Similarity = 0.00377
Similarity = 0.039
Similarity = 0.00807
Similarity = 0.01641
Similarity = 0.01955
Similarity = 0.00167
Similarity = 0.00187
Similarity = 0.00047
Similarity = 0.01058
Similarity = 0.00915
Similarity = 0.00968
Similarity = 0.0048
Similarity = 0.00674
Similarity = 0.00831
Similarity = 0.00336
Similarity = 0.00318
Similarity = 0.0138
Similarity = 0.00428
Similarity = 0.00039
Similarity = 0.01087
Similarity = 0.0003
Similarity = 0.01162
Similarity = 0.00322
Similarity = 0.0029
Similarity = 0.0146
Similarity = 0.00774
Similarity = 0.00048
Similarity = 0.01639
Similarity = 0.00514
Similarity = 0.00889
Similarity = 0.00458
Similarity = 0.0
Similarity = 0.00111
Similarity = 0.00285
Similarity = 0.00014
Similarity = 0.00776
Similarity = 4e-05
Similarity = 0.0
Similarity = 0.01606
Similarity = 0.0024
Similarity = 0.04224
Similarity = 0.00602
Similarity = 0.00796
Similarity = 0.01491
Similarity = 0.00455
Similarity = 0.00069
Similarity = 0.0502
Similarity = 0.00236
Similarity = 0.00428
Similarity = 0.01679
Similarity = 0.02486
Similarity = 0.00662
Similarity = 0.00332
Similarity = 0.01131
Similarity = 0.00661
Similarity = 0.0047
Similarity = 0.01211
Similarity = 0.01841
Similarity = 0.01305
Similarity = 0.0315
Similarity = 0.05465
Similarity = 0.01664
Similarity = 0.02208
Similarity = 0.02646
Similarity = 0.00161
Similarity = 0.0131
Similarity = 0.01863
Similarity = 0.00618
Similarity = 0.00171
Similarity = 0.01178
Similarity = 0.00657
Similarity = 0.00393
Similarity = 0.03856
Similarity = 0.00993
Similarity = 0.00051
Similarity = 0.01903
Similarity = 0.03112
Similarity = 0.01913
Similarity = 0.01577
Similarity = 0.01955
Similarity = 0.0074
Similarity = 0.0
Similarity = 0.01043
Similarity = 0.00935
Similarity = 0.00207
Similarity = 0.00808
Similarity = 0.01339
Similarity = 0.0
Similarity = 0.0052
Similarity = 0.00602
Similarity = 0.00798
Similarity = 0.01718
Similarity = 0.01312
Similarity = 0.0033
Similarity = 0.00173
Similarity = 0.01088
Similarity = 0.01522
Similarity = 0.00072
Similarity = 0.02478
Similarity = 0.01241
Similarity = 0.00822
Similarity = 0.0352
Similarity = 0.00615
Similarity = 0.00997
Similarity = 0.00727
Similarity = 0.00445
Similarity = 0.01355
Similarity = 0.01069
Similarity = 0.01791
Similarity = 0.02044
Similarity = 0.01768
Similarity = 0.02299
Similarity = 0.03354
Similarity = 0.00204
Similarity = 0.00175
Similarity = 0.01903
Similarity = 0.03394
Similarity = 0.00345
Similarity = 0.03091
Similarity = 0.01441
Similarity = 0.01667
Similarity = 0.01788
Similarity = 0.03205
Similarity = 0.00598
Similarity = 0.02685
Similarity = 0.08761
Similarity = 0.00516
Similarity = 0.02989
Similarity = 0.03416
Similarity = 0.02879
Similarity = 0.01371
Similarity = 0.00118
Similarity = 0.01374
Similarity = 0.00346
Similarity = 0.01292
Similarity = 0.01045
Similarity = 0.0211
Similarity = 0.01171
Similarity = 0.01544
Similarity = 0.00379
Similarity = 0.01927
Similarity = 0.02037
Similarity = 0.01498
Similarity = 0.00543
Similarity = 0.00828
Similarity = 0.00874
Similarity = 0.01398
Similarity = 0.00527
Similarity = 0.00203
Similarity = 0.01418
Similarity = 0.01604
Similarity = 0.0105
Similarity = 0.0065
Similarity = 0.00315
Similarity = 0.00171
Similarity = 0.0179
Similarity = 0.02121
Similarity = 0.01065
Similarity = 0.02659
Similarity = 0.05282
Similarity = 0.02233
Similarity = 0.02808
Similarity = 0.04707
Similarity = 0.03668
Similarity = 0.00133
Similarity = 0.05947
Similarity = 0.02674
Similarity = 0.02606
Similarity = 0.00697
Similarity = 0.01501
Similarity = 0.03459
Similarity = 0.0385
Similarity = 0.07884
Similarity = 0.03066
Similarity = 0.00678
Similarity = 0.01596
Similarity = 0.00972
Similarity = 0.10472
Similarity = 0.04559
Similarity = 0.05857
Similarity = 0.0232
Similarity = 0.00701
Similarity = 0.02435
Similarity = 0.03053
Similarity = 0.05572
Similarity = 0.01785
Similarity = 0.03211
Similarity = 0.0
Similarity = 0.02583
Similarity = 0.00836
Similarity = 0.04116
Similarity = 0.0132
Similarity = 0.02831
Similarity = 0.01427
Similarity = 0.03698
Similarity = 0.0367
Similarity = 0.02083
Similarity = 0.02121
Similarity = 0.02534
Similarity = 0.02238
Similarity = 0.03023
Similarity = 0.0149
Similarity = 0.02649
Similarity = 0.02652
Similarity = 0.04074
Similarity = 0.00498
Similarity = 0.00226
Similarity = 0.00042
Similarity = 0.01376
Similarity = 0.02246
Similarity = 0.00393
Similarity = 0.04498
Similarity = 0.00694
Similarity = 0.00036
Similarity = 0.0
Similarity = 0.00358
Similarity = 0.05015
Similarity = 0.00501
Similarity = 0.02258
Similarity = 0.00492
Similarity = 0.00664
Similarity = 0.00051
Similarity = 0.00672
Similarity = 0.00582
Similarity = 0.00094
Similarity = 0.03731
Similarity = 0.03314
Similarity = 0.01945
Similarity = 0.04247
Similarity = 0.00807
Similarity = 0.01031
Similarity = 0.0
Similarity = 0.00573
Similarity = 0.00913
Similarity = 0.0012
Similarity = 0.00489
Similarity = 0.00347
Similarity = 0.0
Similarity = 0.00795
Similarity = 0.00393
Similarity = 0.00198
Similarity = 0.00328
Similarity = 0.00707
Similarity = 0.00346
Similarity = 0.00212
Similarity = 0.00851
Similarity = 0.02472
Similarity = 0.00305
Similarity = 0.0
Similarity = 0.01649
Similarity = 0.01804
Similarity = 0.05247
Similarity = 0.00456
Similarity = 0.00914
Similarity = 0.01051
Similarity = 0.00091
Similarity = 0.00373
Similarity = 0.00058
Similarity = 0.0067
Similarity = 0.02428
Similarity = 0.00452
Similarity = 0.0115
Similarity = 0.00309
Similarity = 0.02151
Similarity = 0.00126
Similarity = 0.00164
Similarity = 0.01314
Similarity = 0.00196
Similarity = 0.00966
Similarity = 0.00294
Similarity = 0.00769
Similarity = 0.00686
Similarity = 0.00665
Similarity = 0.00367
Similarity = 0.00552
Similarity = 0.02206
Similarity = 0.00033
Similarity = 0.0277
Similarity = 0.00857
Similarity = 0.01169
Similarity = 0.00859
Similarity = 0.00165
Similarity = 0.01763
Similarity = 0.02013
Similarity = 0.00992
Similarity = 0.00819
Similarity = 0.00347
Similarity = 0.0121
Similarity = 0.00789
Similarity = 0.00362
Similarity = 0.00779
Similarity = 0.00496
Similarity = 0.00804
Similarity = 0.00551
Similarity = 0.01752
Similarity = 0.00698
Similarity = 0.00425
Similarity = 0.00464
Similarity = 0.0127
Similarity = 0.00536
Similarity = 0.02436
Similarity = 0.00656
Similarity = 0.00311
Similarity = 0.00249
Similarity = 0.01085
Similarity = 0.00264
Similarity = 0.01462
Similarity = 0.00565
Similarity = 0.0197
Similarity = 0.01673
Similarity = 0.00787
Similarity = 0.00751
Similarity = 0.01049
Similarity = 0.00943
Similarity = 0.00169
Similarity = 0.01927
Similarity = 0.00796
Similarity = 0.00732
Similarity = 0.0088
Similarity = 0.00285
Similarity = 0.01283
Similarity = 0.01945
Similarity = 0.01783
Similarity = 0.0094
Similarity = 0.00274
Similarity = 0.01063
Similarity = 0.00045
Similarity = 0.03052
Similarity = 0.01219
Similarity = 0.00795
Similarity = 0.00928
Similarity = 0.00125
Similarity = 0.00162
Similarity = 0.00948
Similarity = 0.02063
Similarity = 0.01045
Similarity = 0.00756
Similarity = 0.00043
Similarity = 0.02278
Similarity = 0.00492
Similarity = 0.02221
Similarity = 0.00251
Similarity = 0.00458
Similarity = 0.03352
Similarity = 0.02387
Similarity = 0.00763
Similarity = 0.00905
Similarity = 0.0038
Similarity = 0.00982
Similarity = 0.00686
Similarity = 0.00165
Similarity = 0.01009
Similarity = 0.00687
Similarity = 0.02238
Similarity = 0.00753
Similarity = 0.00868
Similarity = 0.00346
Similarity = 0.00563
Similarity = 0.02372
Similarity = 0.02382
Similarity = 0.02424
Similarity = 0.00629
Similarity = 0.01185
Similarity = 0.01784
Similarity = 0.00304
Similarity = 0.01133
Similarity = 0.00973
Similarity = 0.00458
Similarity = 0.01173
Similarity = 0.0158
Similarity = 0.00766
Similarity = 0.02638
Similarity = 0.02162
Similarity = 0.00754
Similarity = 0.00546
Similarity = 0.01432
Similarity = 0.0038
Similarity = 0.03869
Similarity = 0.01488
Similarity = 0.01505
Similarity = 0.00847
Similarity = 0.0026
Similarity = 0.00698
Similarity = 0.02152
Similarity = 0.01939
Similarity = 0.00586
Similarity = 0.00634
Similarity = 0.00821
Similarity = 0.00954
Similarity = 0.01441
Similarity = 0.02305
Similarity = 0.02332
Similarity = 0.01345
Similarity = 0.00216
Similarity = 0.00542
Similarity = 0.01234
Similarity = 0.03272
Similarity = 0.01404
Similarity = 0.0073
Similarity = 0.01822
Similarity = 0.01776
Similarity = 0.01433
Similarity = 0.00817
Similarity = 0.02033
Similarity = 0.01087
Similarity = 0.00855
Similarity = 0.01004
Similarity = 0.01153
Similarity = 0.02206
Similarity = 0.02453
Similarity = 0.00839
Similarity = 0.02034
Similarity = 0.01696
Similarity = 0.00701
Similarity = 0.00132
Similarity = 0.02023
Similarity = 0.02908
Similarity = 0.00533
Similarity = 0.00416
Similarity = 0.00912
Similarity = 0.00411
Similarity = 0.02402
Similarity = 0.02775
Similarity = 0.00917
Similarity = 0.01305
Similarity = 0.01341
Similarity = 0.00472
Similarity = 0.04717
Similarity = 0.02919
Similarity = 0.01445
Similarity = 0.01647
Similarity = 0.00685
Similarity = 0.01671
Similarity = 0.01826
Similarity = 0.01811
Similarity = 0.00826
Similarity = 0.01119
Similarity = 0.00318
Similarity = 0.01292
Similarity = 0.01027
Similarity = 0.01913
Similarity = 0.01041
Similarity = 0.02526
Similarity = 0.0242
Similarity = 0.01871
Similarity = 0.00956
Similarity = 0.01142
Similarity = 0.01273
Similarity = 0.01063
Similarity = 0.01685
Similarity = 0.0215
Similarity = 0.01436
Similarity = 0.01304
Similarity = 0.0123
Similarity = 0.00688
Similarity = 0.0083
Similarity = 0.00989
Similarity = 0.01723
Similarity = 0.00989
Similarity = 0.03419
Similarity = 0.01547
Similarity = 0.01175
Similarity = 0.03697
Similarity = 0.02569
Similarity = 0.00306
Similarity = 0.03711
Similarity = 0.01499
Similarity = 0.0196
Similarity = 0.00503
Similarity = 0.01485
Similarity = 0.0131
Similarity = 0.01671
Similarity = 0.0275
Similarity = 0.00296
Similarity = 0.0047
Similarity = 0.00765
Similarity = 0.00483
Similarity = 0.05001
Similarity = 0.03492
Similarity = 0.01632
Similarity = 0.01184
Similarity = 0.00801
Similarity = 0.00416
Similarity = 0.01948
Similarity = 0.02712
Similarity = 0.00736
Similarity = 0.0098
Similarity = 0.00021
Similarity = 0.00974
Similarity = 0.00664
Similarity = 0.01789
Similarity = 0.0052
Similarity = 0.01163
Similarity = 0.00245
Similarity = 0.01384
Similarity = 0.04169
Similarity = 0.0071
Similarity = 0.00724
Similarity = 0.00857
Similarity = 0.01282
Similarity = 0.0141
Similarity = 0.01534
Similarity = 0.01811
Similarity = 0.02532
Similarity = 0.01918
Similarity = 0.01768
Similarity = 0.02683
Similarity = 0.00704
Similarity = 0.02463
Similarity = 0.03419
Similarity = 0.02004
Similarity = 0.01688
Similarity = 0.0373
Similarity = 0.03077
Similarity = 0.00127
Similarity = 0.01643
Similarity = 0.02039
Similarity = 0.01573
Similarity = 0.00886
Similarity = 0.00469
Similarity = 0.0096
Similarity = 0.03031
Similarity = 0.05027
Similarity = 0.01018
Similarity = 0.01207
Similarity = 0.01737
Similarity = 0.02005
Similarity = 0.07889
Similarity = 0.03379
Similarity = 0.02646
Similarity = 0.01593
Similarity = 0.00214
Similarity = 0.02014
Similarity = 0.02322
Similarity = 0.03814
Similarity = 0.01532
Similarity = 0.02424
Similarity = 0.00388
Similarity = 0.01534
Similarity = 0.06372
Similarity = 0.02863
Similarity = 0.01421
Similarity = 0.01632
Similarity = 0.00585
Similarity = 0.05491
Similarity = 0.0202
Similarity = 0.00811
Similarity = 0.0151
Similarity = 0.01342
Similarity = 0.01608
Similarity = 0.03163
Similarity = 0.01512
Similarity = 0.02397
Similarity = 0.01321
Similarity = 0.01395
Similarity = 0.03643
Similarity = 0.00636
Similarity = 0.00978
Similarity = 0.03297
Similarity = 0.02538
Similarity = 0.0097
Similarity = 0.02588
Similarity = 0.04779
Similarity = 0.04258
Similarity = 0.01404
Similarity = 0.03057
Similarity = 0.02363
Similarity = 0.01072
Similarity = 0.00136
Similarity = 0.00529
Similarity = 0.00519
Similarity = 0.03483
Similarity = 0.04896
Similarity = 0.01902
Similarity = 0.01001
Similarity = 0.01209
Similarity = 0.0
Similarity = 0.07104
Similarity = 0.01967
Similarity = 0.01886
Similarity = 0.01843
Similarity = 0.0
Similarity = 0.01367
Similarity = 0.02158
Similarity = 0.01893
Similarity = 0.02958
Similarity = 0.01707
Similarity = 0.00323
Similarity = 0.00573
Similarity = 0.01476
Similarity = 0.02766
Similarity = 0.0142
Similarity = 0.0215
Similarity = 0.0007
Similarity = 0.01882
Similarity = 0.01947
Similarity = 0.01915
Similarity = 0.00958
Similarity = 0.02454
Similarity = 0.02193
Similarity = 0.01006
Similarity = 0.00957
Similarity = 0.02356
Similarity = 0.00956
Similarity = 0.00405
Similarity = 0.00963
Similarity = 0.02507
Similarity = 0.00041
Similarity = 0.01785
Similarity = 0.01394
Similarity = 0.00298
Similarity = 0.00685
Similarity = 0.00121
Similarity = 0.0091
Similarity = 0.00142
Similarity = 0.00098
Similarity = 0.00674
Similarity = 0.00223
Similarity = 0.00321
Similarity = 0.01214
Similarity = 0.00263
Similarity = 0.00871
Similarity = 0.00816
Similarity = 0.01076
Similarity = 0.00362
Similarity = 0.00323
Similarity = 0.00167
Similarity = 0.01721
Similarity = 0.01301
Similarity = 0.00218
Similarity = 0.01204
Similarity = 0.00101
Similarity = 0.00031
Similarity = 0.01178
Similarity = 0.02148
Similarity = 0.01281
Similarity = 0.00065
Similarity = 0.00117
Similarity = 0.00029
Similarity = 0.00026
Similarity = 0.01951
Similarity = 0.00045
Similarity = 0.01786
Similarity = 0.01018
Similarity = 0.02855
Similarity = 0.00579
Similarity = 0.00334
Similarity = 0.00579
Similarity = 0.00472
Similarity = 0.01313
Similarity = 0.00372
Similarity = 0.00039
Similarity = 0.00355
Similarity = 0.01199
Similarity = 0.00594
Similarity = 0.00088
Similarity = 0.00084
Similarity = 0.00165
Similarity = 0.00487
Similarity = 0.00963
Similarity = 0.00185
Similarity = 0.01129
Similarity = 0.00196
Similarity = 0.00151
Similarity = 0.00299
Similarity = 0.00107
Similarity = 0.00406
Similarity = 0.0026
Similarity = 0.0019
Similarity = 0.00336
Similarity = 0.00197
Similarity = 0.00597
Similarity = 0.00312
Similarity = 0.00548
Similarity = 0.00242
Similarity = 0.00454
Similarity = 0.0
Similarity = 0.00639
Similarity = 0.00837
Similarity = 0.00082
Similarity = 0.01114
Similarity = 0.00191
Similarity = 0.0019
Similarity = 0.00308
Similarity = 0.02137
Similarity = 0.00169
Similarity = 0.00076
Similarity = 5e-05
Similarity = 0.01032
Similarity = 0.00116
Similarity = 0.00222
Similarity = 0.0116
Similarity = 0.0031
Similarity = 0.00013
Similarity = 0.05633
Similarity = 0.01338
Similarity = 0.00432
Similarity = 0.00169
Similarity = 0.00115
Similarity = 0.00571
Similarity = 0.00482
Similarity = 0.0051
Similarity = 0.00854
Similarity = 0.00235
Similarity = 0.00432
Similarity = 0.01069
Similarity = 0.02563
Similarity = 0.00646
Similarity = 0.02116
Similarity = 0.02341
Similarity = 0.01105
Similarity = 0.01013
Similarity = 0.0256
Similarity = 0.01606
Similarity = 0.00451
Similarity = 0.01057
Similarity = 0.01042
Similarity = 0.01668
Similarity = 0.00293
Similarity = 0.01713
Similarity = 0.00339
Similarity = 0.03315
Similarity = 0.025
Similarity = 0.0051
Similarity = 0.00811
Similarity = 0.00815
Similarity = 0.00346
Similarity = 0.04854
Similarity = 0.01281
Similarity = 0.02474
Similarity = 0.02493
Similarity = 0.01614
Similarity = 0.00473
Similarity = 0.01848
Similarity = 0.03635
Similarity = 0.01194
Similarity = 0.01389
Similarity = 7e-05
Similarity = 0.0088
Similarity = 0.01967
Similarity = 0.04924
Similarity = 0.01693
Similarity = 0.01939
Similarity = 0.00518
Similarity = 0.03266
Similarity = 0.01079
Similarity = 0.0081
Similarity = 0.01427
Similarity = 0.0154
Similarity = 0.01108
Similarity = 0.0124
Similarity = 0.00857
Similarity = 0.00811
Similarity = 0.03715
Similarity = 0.00976
Similarity = 0.03088
Similarity = 0.01496
Similarity = 0.03886
Similarity = 0.02668
Similarity = 0.04035
Similarity = 0.00722
Similarity = 0.0061
Similarity = 0.03139
Similarity = 0.00422
Similarity = 0.02429
Similarity = 0.00968
Similarity = 0.00832
Similarity = 0.01598
Similarity = 0.0058
Similarity = 0.01036
Similarity = 0.01081
Similarity = 0.03509
Similarity = 0.02488
Similarity = 0.01311
Similarity = 0.01644
Similarity = 0.00753
Similarity = 0.00255
Similarity = 0.05242
Similarity = 0.03674
Similarity = 0.02304
Similarity = 0.00755
Similarity = 0.00328
Similarity = 0.00556
Similarity = 0.00836
Similarity = 0.05243
Similarity = 0.01233
Similarity = 0.01195
Similarity = 0.01053
Similarity = 0.01116
Similarity = 0.01406
Similarity = 0.01245
Similarity = 0.00281
Similarity = 0.0236
Similarity = 0.01311
Similarity = 0.02934
Similarity = 0.0206
Similarity = 0.00572
Similarity = 0.01466
Similarity = 0.01015
Similarity = 0.02012
Similarity = 0.01735
Similarity = 0.01914
Similarity = 0.00946
Similarity = 0.01514
Similarity = 0.01772
Similarity = 0.00962
Similarity = 0.00744
Similarity = 0.00507
Similarity = 0.01425
Similarity = 0.03826
Similarity = 0.01495
Similarity = 0.00491
Similarity = 0.02924
Similarity = 0.03385
Similarity = 0.00318
Similarity = 0.0313
Similarity = 0.00572
Similarity = 0.00318
Similarity = 0.00301
Similarity = 0.00306
Similarity = 0.01411
Similarity = 0.02471
Similarity = 0.01771
Similarity = 0.008
Similarity = 0.01062
Similarity = 0.00465
Similarity = 0.00069
Similarity = 0.02945
Similarity = 0.02532
Similarity = 0.01293
Similarity = 0.00823
Similarity = 0.00397
Similarity = 0.0029
Similarity = 0.01081
Similarity = 0.0063
Similarity = 0.00652
Similarity = 0.00587
Similarity = 0.0018
Similarity = 0.00425
Similarity = 0.01102
Similarity = 0.01583
Similarity = 0.00602
Similarity = 0.01668
Similarity = 0.00055
Similarity = 0.0195
Similarity = 0.00586
Similarity = 0.00723
Similarity = 0.00788
Similarity = 0.01819
Similarity = 0.01224
Similarity = 0.00325
Similarity = 0.00397
Similarity = 0.00765
Similarity = 0.00648
Similarity = 0.00195
Similarity = 0.00114
Similarity = 0.01404
Similarity = 0.01397
Similarity = 0.01702
Similarity = 0.01647
Similarity = 0.00773
Similarity = 0.00793
Similarity = 0.0242
Similarity = 0.01712
Similarity = 0.00684
Similarity = 0.03699
Similarity = 0.01452
Similarity = 0.01832
Similarity = 0.00362
Similarity = 0.03211
Similarity = 0.02313
Similarity = 0.01379
Similarity = 0.04064
Similarity = 0.00996
Similarity = 0.00615
Similarity = 0.00851
Similarity = 0.00041
Similarity = 0.02965
Similarity = 0.0234
Similarity = 0.01941
Similarity = 0.01271
Similarity = 0.00265
Similarity = 0.0177
Similarity = 0.01812
Similarity = 0.02948
Similarity = 0.01337
Similarity = 0.01683
Similarity = 5e-05
Similarity = 0.00406
Similarity = 0.01521
Similarity = 0.01796
Similarity = 0.00675
Similarity = 0.01868
Similarity = 0.00527
Similarity = 0.02603
Similarity = 0.01071
Similarity = 0.01768
Similarity = 0.01588
Similarity = 0.01645
Similarity = 0.01246
Similarity = 0.00717
Similarity = 0.00756
Similarity = 0.06011
Similarity = 0.01851
Similarity = 0.00882
Similarity = 0.00332
Similarity = 0.00142
Similarity = 0.00093
Similarity = 0.00465
Similarity = 0.00583
Similarity = 0.00427
Similarity = 0.00293
Similarity = 0.0075
Similarity = 0.00366
Similarity = 0.00421
Similarity = 0.005
Similarity = 0.00279
Similarity = 0.00211
Similarity = 0.00049
Similarity = 0.01077
Similarity = 0.0024
Similarity = 0.00506
Similarity = 0.00197
Similarity = 0.00368
Similarity = 0.00159
Similarity = 0.00605
Similarity = 0.0
Similarity = 0.01405
Similarity = 0.00509
Similarity = 0.00075
Similarity = 0.00271
Similarity = 0.0
Similarity = 0.00056
Similarity = 0.00049
Similarity = 0.00073
Similarity = 0.00354
Similarity = 0.0001
Similarity = 0.0
Similarity = 0.00243
Similarity = 0.0017
Similarity = 0.00512
Similarity = 0.00284
Similarity = 0.00616
Similarity = 0.00013
Similarity = 0.00668
Similarity = 0.00274
Similarity = 0.06204
Similarity = 0.01126
Similarity = 0.00195
Similarity = 0.02256
Similarity = 0.02188
Similarity = 0.02626
Similarity = 0.00165
Similarity = 0.00546
Similarity = 0.00091
Similarity = 0.0002
Similarity = 0.00021
Similarity = 0.00026
Similarity = 0.00442
Similarity = 0.00584
Similarity = 0.00058
Similarity = 0.00139
Similarity = 0.00585
Similarity = 0.00039
Similarity = 0.0
Similarity = 0.0
Similarity = 0.00068
Similarity = 0.00079
Similarity = 0.00157
Similarity = 0.00555
Similarity = 0.00389
Similarity = 0.00195
Similarity = 0.0008
Similarity = 0.0011
Similarity = 0.00118
Similarity = 0.0366
Similarity = 0.0
Similarity = 0.00343
Similarity = 0.00092
Similarity = 0.00466
Similarity = 0.0012
Similarity = 0.0011
Similarity = 0.00069
Similarity = 0.00474
Similarity = 0.0
Similarity = 0.0003
Similarity = 0.0
Similarity = 0.0
Similarity = 0.00124
Similarity = 0.00046
Similarity = 0.00112
Similarity = 0.00234
Similarity = 0.00036
Similarity = 0.0
Similarity = 0.0005
Similarity = 0.00116
Similarity = 0.00037
Similarity = 0.00073
Similarity = 0.00564
Similarity = 0.0019
Similarity = 0.00042
Similarity = 0.00141
Similarity = 0.00103
Similarity = 0.0003
Similarity = 0.00034
Similarity = 0.02366
Similarity = 0.02774
Similarity = 0.01847
Similarity = 0.03303
Similarity = 0.02231
Similarity = 0.00827
Similarity = 0.00941
Similarity = 0.01537
Similarity = 0.00667
Similarity = 0.01631
Similarity = 0.03743
Similarity = 0.01067
Similarity = 0.00499
Similarity = 0.00645
Similarity = 0.00493
Similarity = 0.01541
Similarity = 0.02659
Similarity = 0.03278
Similarity = 0.00407
Similarity = 0.01293
Similarity = 0.01576
Similarity = 0.00684
Similarity = 0.04859
Similarity = 0.02213
Similarity = 0.01645
Similarity = 0.01784
Similarity = 0.00642
Similarity = 0.00372
Similarity = 0.0289
Similarity = 0.01346
Similarity = 0.00899
Similarity = 0.01155
Similarity = 3e-05
Similarity = 0.02892
Similarity = 0.00707
Similarity = 0.01436
Similarity = 0.01516
Similarity = 0.01543
Similarity = 0.0004
Similarity = 0.03099
Similarity = 0.01349
Similarity = 0.00469
Similarity = 0.0112
Similarity = 0.01122
Similarity = 0.01392
Similarity = 0.01152
Similarity = 0.01007
Similarity = 0.01047
Similarity = 0.0127
Similarity = 0.00351
Similarity = 0.00785
Similarity = 0.01465
Similarity = 0.00693
Similarity = 0.01651
Similarity = 0.01441
Similarity = 0.00221
Similarity = 0.00382
Similarity = 0.028
Similarity = 0.00316
Similarity = 5e-05
Similarity = 0.02189
Similarity = 0.00938
Similarity = 0.00649
Similarity = 0.00394
Similarity = 0.00419
Similarity = 0.00336
Similarity = 0.01127
Similarity = 0.03976
Similarity = 0.00431
Similarity = 0.00509
Similarity = 0.00646
Similarity = 0.00771
Similarity = 0.0222
Similarity = 0.01727
Similarity = 0.02552
Similarity = 0.00516
Similarity = 0.00331
Similarity = 0.01936
Similarity = 0.01015
Similarity = 0.04263
Similarity = 0.01834
Similarity = 0.01537
Similarity = 7e-05
Similarity = 0.01143
Similarity = 0.00092
Similarity = 0.01482
Similarity = 0.00546
Similarity = 0.00322
Similarity = 0.00746
Similarity = 0.08374
Similarity = 0.00985
Similarity = 0.00515
Similarity = 0.00295
Similarity = 0.00065
Similarity = 0.01371
Similarity = 0.00049
Similarity = 0.00435
Similarity = 0.00643
Similarity = 0.01758
Similarity = 0.01267
Similarity = 0.01514
Similarity = 0.02291
Similarity = 0.01409
Similarity = 0.01994
Similarity = 0.037
Similarity = 0.01174
Similarity = 0.02152
Similarity = 0.01734
Similarity = 0.02314
Similarity = 0.00114
Similarity = 0.01331
Similarity = 0.03255
Similarity = 0.00254
Similarity = 0.01051
Similarity = 0.00846
Similarity = 0.01221
Similarity = 0.01929
Similarity = 0.0217
Similarity = 0.00258
Similarity = 0.02434
Similarity = 0.00564
Similarity = 0.00472
Similarity = 0.03864
Similarity = 0.0333
Similarity = 0.01247
Similarity = 0.01504
Similarity = 0.0
Similarity = 0.0054
Similarity = 0.02329
Similarity = 0.00925
Similarity = 0.0123
Similarity = 0.02052
Similarity = 0.01385
Similarity = 0.01072
Similarity = 0.01209
Similarity = 0.01184
Similarity = 0.00929
Similarity = 0.02011
Similarity = 0.02809
Similarity = 0.01308
Similarity = 0.01355
Similarity = 0.01845
Similarity = 0.02647
Similarity = 0.01537
Similarity = 0.01195
Similarity = 0.01718
Similarity = 0.02159
Similarity = 0.01744
Similarity = 0.01229
Similarity = 0.0077
Similarity = 0.0067
Similarity = 0.02067
Similarity = 0.01602
Similarity = 0.0251
Similarity = 0.00506
Similarity = 0.01085
Similarity = 0.00068
Similarity = 0.00527
Similarity = 0.00032
Similarity = 4e-05
Similarity = 0.00085
Similarity = 0.01723
Similarity = 0.00069
Similarity = 0.01446
Similarity = 0.00166
Similarity = 0.01656
Similarity = 0.00688
Similarity = 0.00138
Similarity = 0.00942
Similarity = 0.03052
Similarity = 0.00132
Similarity = 0.0
Similarity = 0.00998
Similarity = 0.0036
Similarity = 0.00225
Similarity = 0.00526
Similarity = 0.00113
Similarity = 0.00058
Similarity = 0.00202
Similarity = 0.00014
Similarity = 0.00645
Similarity = 4e-05
Similarity = 0.00152
Similarity = 0.00651
Similarity = 0.00105
Similarity = 0.00887
Similarity = 0.00146
Similarity = 0.01742
Similarity = 5e-05
Similarity = 0.01122
Similarity = 0.00398
Similarity = 0.00143
Similarity = 0.00213
Similarity = 0.00211
Similarity = 0.00187
Similarity = 0.00067
Similarity = 0.00325
Similarity = 0.0006
Similarity = 0.00052
Similarity = 0.00251
Similarity = 0.00022
Similarity = 0.001
Similarity = 0.00029
Similarity = 0.00055
Similarity = 0.01639
Similarity = 0.00195
Similarity = 0.00155
Similarity = 0.00758
Similarity = 0.00043
Similarity = 0.0
Similarity = 0.0
Similarity = 0.00075
Similarity = 0.00104
Similarity = 0.00037
Similarity = 0.00577
Similarity = 0.00719
Similarity = 0.00104
Similarity = 0.00277
Similarity = 0.00122
Similarity = 0.00085
Similarity = 0.00269
Similarity = 0.0
Similarity = 0.0132
Similarity = 0.00727
Similarity = 0.0
Similarity = 0.00096
Similarity = 0.0
Similarity = 0.00021
Similarity = 0.00376
Similarity = 0.03341
Similarity = 0.00033
Similarity = 0.00275
Similarity = 0.0
Similarity = 0.00152
Similarity = 0.00051
Similarity = 0.00124
Similarity = 0.00278
Similarity = 0.00467
Similarity = 0.0
Similarity = 0.00184
Similarity = 0.0
Similarity = 0.00042
Similarity = 0.01864
Similarity = 0.0
Similarity = 0.00152
Similarity = 0.00046
Similarity = 0.00623
Similarity = 0.0
Similarity = 0.00034
Similarity = 0.0
Similarity = 0.01066
Similarity = 0.01157
Similarity = 0.01245
Similarity = 0.01294
Similarity = 0.02163
Similarity = 0.01025
Similarity = 0.00673
Similarity = 0.00916
Similarity = 0.00962
Similarity = 0.00599
Similarity = 0.01073
Similarity = 0.02408
Similarity = 0.00725
Similarity = 0.00402
Similarity = 0.02279
Similarity = 0.00978
Similarity = 0.01563
Similarity = 0.01222
Similarity = 0.00855
Similarity = 0.02005
Similarity = 0.00812
Similarity = 0.00043
Similarity = 0.04252
Similarity = 0.01039
Similarity = 0.00779
Similarity = 0.04489
Similarity = 0.00215
Similarity = 0.00181
Similarity = 0.04789
Similarity = 0.0279
Similarity = 0.00921
Similarity = 0.00535
Similarity = 0.00912
Similarity = 0.00644
Similarity = 0.0097
Similarity = 0.03418
Similarity = 0.00337
Similarity = 0.00933
Similarity = 0.01881
Similarity = 0.04651
Similarity = 0.00656
Similarity = 0.04831
Similarity = 0.01192
Similarity = 0.05467
Similarity = 0.01917
Similarity = 0.0263
Similarity = 0.00512
Similarity = 0.00688
Similarity = 0.02468
Similarity = 0.00898
Similarity = 0.0056
Similarity = 0.01287
Similarity = 0.01168
Similarity = 0.02215
Similarity = 0.00923
Similarity = 0.01283
Similarity = 0.00344
Similarity = 0.00328
Similarity = 0.00555
Similarity = 4e-05
Similarity = 0.02445
Similarity = 0.01435
Similarity = 0.00304
Similarity = 0.00958
Similarity = 0.00799
Similarity = 0.04773
Similarity = 0.01177
Similarity = 0.01234
Similarity = 0.00443
Similarity = 0.01647
Similarity = 0.00373
Similarity = 0.00193
Similarity = 0.02675
Similarity = 0.01561
Similarity = 0.00477
Similarity = 0.00776
Similarity = 0.00199
Similarity = 0.00113
Similarity = 0.00878
Similarity = 0.01122
Similarity = 0.01356
Similarity = 0.0125
Similarity = 0.0185
Similarity = 0.0243
Similarity = 0.01458
Similarity = 0.02877
Similarity = 0.01074
Similarity = 0.01068
Similarity = 0.04445
Similarity = 0.02654
Similarity = 0.00545
Similarity = 0.00117
Similarity = 0.00589
Similarity = 0.01375
Similarity = 0.00521
Similarity = 0.02172
Similarity = 0.00411
Similarity = 0.00399
Similarity = 0.01443
Similarity = 0.00747
Similarity = 0.00982
Similarity = 0.01772
Similarity = 0.00333
Similarity = 0.01661
Similarity = 0.01979
Similarity = 0.00742
Similarity = 0.0166
Similarity = 0.02093
Similarity = 0.00977
Similarity = 0.00831
Similarity = 0.01236
Similarity = 0.01054
Similarity = 0.01124
Similarity = 0.01249
Similarity = 0.00409
Similarity = 0.00912
Similarity = 0.01874
Similarity = 0.03011
Similarity = 0.00652
Similarity = 0.00497
Similarity = 0.01285
Similarity = 0.00383
Similarity = 0.03793
Similarity = 0.01503
Similarity = 0.02365
Similarity = 0.02018
Similarity = 0.00364
Similarity = 0.00724
Similarity = 0.01172
Similarity = 0.00851
Similarity = 0.01849
Similarity = 0.01388
Similarity = 4e-05
Similarity = 0.00578
Similarity = 0.00324
Similarity = 0.00867
Similarity = 0.0178
Similarity = 0.01663
Similarity = 0.00187
Similarity = 0.01033
Similarity = 0.01269
Similarity = 0.00369
Similarity = 0.00679
Similarity = 0.0161
Similarity = 0.01001
Similarity = 0.01069
Similarity = 0.0077
Similarity = 0.0079
Similarity = 0.00876
Similarity = 0.00732
Similarity = 0.0
Similarity = 0.00808
Similarity = 0.0
Similarity = 0.00629
Similarity = 0.01157
Similarity = 0.00562
Similarity = 0.0
Similarity = 0.0
Similarity = 0.0
Similarity = 0.0
Similarity = 0.00483
Similarity = 0.0
Similarity = 0.0
Similarity = 0.01715
Similarity = 0.01407
Similarity = 0.03031
Similarity = 0.0
Similarity = 0.01192
Similarity = 0.0
Similarity = 0.05171
Similarity = 0.0
Similarity = 0.0
Similarity = 0.00657
Similarity = 0.00564
Similarity = 0.00534
Similarity = 0.0188
Similarity = 0.0
Similarity = 0.02736
Similarity = 0.0
Similarity = 0.00927
Similarity = 0.00288
Similarity = 0.0
Similarity = 0.00765
Similarity = 0.01133
Similarity = 0.0
Similarity = 0.00893
Similarity = 0.00163
Similarity = 0.0
Similarity = 0.05228
Similarity = 0.04034
Similarity = 0.0012
Similarity = 0.0
Similarity = 0.02992
Similarity = 0.0
Similarity = 0.0
Similarity = 0.00583
Similarity = 0.0
Similarity = 0.00248
Similarity = 0.01531
Similarity = 0.0176
Similarity = 0.01497
Similarity = 0.01263
Similarity = 0.02367
Similarity = 0.02781
Similarity = 0.05248
Similarity = 0.01068
Similarity = 0.0378
Similarity = 0.04651
Similarity = 0.01445
Similarity = 0.00253
Similarity = 0.03065
Similarity = 0.01844
Similarity = 0.02413
Similarity = 0.00736
Similarity = 0.00971
Similarity = 0.00869
Similarity = 0.02161
Similarity = 0.02853
Similarity = 0.0194
Similarity = 0.00469
Similarity = 0.0245
Similarity = 0.01006
Similarity = 0.0676
Similarity = 0.03325
Similarity = 0.02014
Similarity = 0.0176
Similarity = 0.00823
Similarity = 0.00515
Similarity = 0.0224
Similarity = 0.02747
Similarity = 0.02854
Similarity = 0.01827
Similarity = 0.00337
Similarity = 0.0193
Similarity = 0.01303
Similarity = 0.01676
Similarity = 0.00884
Similarity = 0.01805
Similarity = 0.00713
Similarity = 0.07025
Similarity = 0.01279
Similarity = 0.01071
Similarity = 0.02526
Similarity = 0.0197
Similarity = 0.02583
Similarity = 0.02729
Similarity = 0.00987
Similarity = 0.01204
Similarity = 0.01825
Similarity = 0.0088
Similarity = 0.00905
Similarity = 0.00514
Similarity = 0.00559
Similarity = 0.0205
Similarity = 0.02255
Similarity = 0.01129
Similarity = 0.01564
Similarity = 0.01562
Similarity = 0.01862
Similarity = 0.00202
Similarity = 0.02991
Similarity = 0.01565
Similarity = 0.00636
Similarity = 0.0021
Similarity = 0.00384
Similarity = 0.00709
Similarity = 0.00803
Similarity = 0.01541
Similarity = 0.00335
Similarity = 0.00714
Similarity = 0.02051
Similarity = 0.00059
Similarity = 0.05587
Similarity = 0.02086
Similarity = 0.01211
Similarity = 0.01336
Similarity = 0.0
Similarity = 0.0026
Similarity = 0.01082
Similarity = 0.00473
Similarity = 0.01572
Similarity = 0.00618
Similarity = 0.00055
Similarity = 0.00637
Similarity = 0.00905
Similarity = 0.02047
Similarity = 0.00883
Similarity = 0.00894
Similarity = 0.00237
Similarity = 0.00655
Similarity = 0.00475
Similarity = 0.01263
Similarity = 0.00662
Similarity = 0.01109
Similarity = 0.01531
Similarity = 0.00961
Similarity = 0.00814
Similarity = 0.00753
Similarity = 0.00728
Similarity = 0.00563
Similarity = 0.00533
Similarity = 0.0124
Similarity = 0.00648
Similarity = 0.01736
Similarity = 0.03437
Similarity = 0.0139
Similarity = 0.03084
Similarity = 0.01802
Similarity = 0.01054
Similarity = 0.00437
Similarity = 0.01775
Similarity = 0.01658
Similarity = 0.00497
Similarity = 0.0092
Similarity = 0.00788
Similarity = 0.00549
Similarity = 0.02633
Similarity = 0.03035
Similarity = 0.00494
Similarity = 0.00646
Similarity = 0.0212
Similarity = 0.00553
Similarity = 0.04486
Similarity = 0.03113
Similarity = 0.00722
Similarity = 0.01666
Similarity = 0.00227
Similarity = 0.0088
Similarity = 0.02037
Similarity = 0.02345
Similarity = 0.01323
Similarity = 0.00973
Similarity = 0.00062
Similarity = 0.01717
Similarity = 0.01202
Similarity = 0.00907
Similarity = 0.04315
Similarity = 0.01463
Similarity = 0.02845
Similarity = 0.0339
Similarity = 0.01958
Similarity = 0.00991
Similarity = 0.01665
Similarity = 0.0238
Similarity = 0.00775
Similarity = 0.02363
Similarity = 0.00493
Similarity = 0.01129
Similarity = 0.01104
Similarity = 0.01084
Similarity = 0.01221
Similarity = 0.0031
Similarity = 0.00842
Similarity = 0.01058
Similarity = 0.01973
Similarity = 0.00215
Similarity = 0.0078
Similarity = 0.02271
Similarity = 0.02165
Similarity = 0.00037
Similarity = 0.02905
Similarity = 0.0069
Similarity = 0.00974
Similarity = 0.00781
Similarity = 0.01581
Similarity = 0.01849
Similarity = 0.00895
Similarity = 0.017
Similarity = 0.01221
Similarity = 0.01037
Similarity = 0.00504
Similarity = 0.00462
Similarity = 0.02744
Similarity = 0.01956
Similarity = 0.02224
Similarity = 0.00821
Similarity = 0.00291
Similarity = 0.00685
Similarity = 0.00547
Similarity = 0.00831
Similarity = 0.00616
Similarity = 0.01145
Similarity = 0.0
Similarity = 0.01389
Similarity = 0.00324
Similarity = 0.01301
Similarity = 0.01878
Similarity = 0.03574
Similarity = 0.0126
Similarity = 0.02611
Similarity = 0.02757
Similarity = 0.01108
Similarity = 0.00751
Similarity = 0.04069
Similarity = 0.0096
Similarity = 0.00552
Similarity = 0.00519
Similarity = 0.01009
Similarity = 0.01984
Similarity = 0.01496
Similarity = 0.01187
Similarity = 0.00366
Similarity = 0.01444
Similarity = 0.00979
Similarity = 0.00905
Similarity = 0.00323
Similarity = 0.0034
Similarity = 0.01618
Similarity = 0.01915
Similarity = 0.00349
Similarity = 0.004
Similarity = 0.01092
Similarity = 0.00518
Similarity = 0.00244
Similarity = 0.06275
Similarity = 0.00434
Similarity = 0.0042
Similarity = 0.00707
Similarity = 0.00668
Similarity = 0.00783
Similarity = 0.01373
Similarity = 0.0
Similarity = 0.04108
Similarity = 0.02411
Similarity = 0.00948
Similarity = 0.01515
Similarity = 0.02155
Similarity = 0.00227
Similarity = 0.00948
Similarity = 0.01559
Similarity = 0.0188
Similarity = 0.0032
Similarity = 0.01956
Similarity = 0.04164
Similarity = 0.0172
Similarity = 0.00467
Similarity = 0.00518
Similarity = 0.00602
Similarity = 0.04504
Similarity = 0.00508
Similarity = 0.01021
Similarity = 0.03604
Similarity = 0.00565
Similarity = 0.00446
Similarity = 0.0142
Similarity = 0.03804
Similarity = 0.00039
Similarity = 0.00334
Similarity = 0.00922
Similarity = 0.00494
Similarity = 0.01261
Similarity = 0.00577
Similarity = 0.00137
Similarity = 0.01343
Similarity = 0.01039
Similarity = 0.01467
Similarity = 0.01746
Similarity = 0.00251
Similarity = 0.00755
Similarity = 0.01583
Similarity = 0.00679
Similarity = 0.02287
Similarity = 0.00692
Similarity = 0.02096
Similarity = 0.00889
Similarity = 0.00569
Similarity = 0.00685
Similarity = 0.05235
Similarity = 0.00593
Similarity = 0.00944
Similarity = 0.00411
Similarity = 0.00165
Similarity = 0.02075
Similarity = 0.00686
Similarity = 0.01736
Similarity = 0.01113
Similarity = 0.00145
Similarity = 0.00372
Similarity = 0.01316
Similarity = 0.01023
Similarity = 0.00842
Similarity = 0.00679
Similarity = 0.00153
Similarity = 0.00838
Similarity = 0.0058
Similarity = 0.00607
Similarity = 0.00925
Similarity = 0.00672
Similarity = 0.01722
Similarity = 0.01146
Similarity = 0.01441
Similarity = 0.03215
Similarity = 0.0015
Similarity = 0.00904
Similarity = 0.01438
Similarity = 0.0158
Similarity = 0.01285
Similarity = 0.00318
Similarity = 0.00661
Similarity = 0.00731
Similarity = 0.01026
Similarity = 0.02768
Similarity = 0.0147
Similarity = 0.05185
Similarity = 0.04183
Similarity = 0.01663
Similarity = 0.02114
Similarity = 0.03927
Similarity = 0.0224
Similarity = 0.0089
Similarity = 0.02365
Similarity = 0.03225
Similarity = 0.00958
Similarity = 0.0285
Similarity = 0.01986
Similarity = 0.02901
Similarity = 0.02535
Similarity = 0.03613
Similarity = 0.01819
Similarity = 0.02715
Similarity = 0.01544
Similarity = 0.00838
Similarity = 0.06174
Similarity = 0.03206
Similarity = 0.04025
Similarity = 0.01849
Similarity = 0.00417
Similarity = 0.01327
Similarity = 0.02252
Similarity = 0.03292
Similarity = 0.01449
Similarity = 0.01317
Similarity = 0.0031
Similarity = 0.01607
Similarity = 0.02106
Similarity = 0.02849
Similarity = 0.00921
Similarity = 0.03588
Similarity = 0.01544
Similarity = 0.0508
Similarity = 0.02389
Similarity = 0.01645
Similarity = 0.01785
Similarity = 0.02233
Similarity = 0.02434
Similarity = 0.02219
Similarity = 0.00983
Similarity = 0.0256
Similarity = 0.01768
Similarity = 0.01674
Similarity = 0.01489
Similarity = 0.01334
Similarity = 0.00638
Similarity = 0.01851
Similarity = 0.02341
Similarity = 0.00981
Similarity = 0.00969
Similarity = 0.00974
Similarity = 0.03032
Similarity = 0.00019
Similarity = 0.02152
Similarity = 0.01431
Similarity = 0.00435
Similarity = 0.01539
Similarity = 0.00595
Similarity = 0.00965
Similarity = 0.00785
Similarity = 0.03379
Similarity = 0.00812
Similarity = 0.00342
Similarity = 0.00531
Similarity = 0.01007
Similarity = 0.03028
Similarity = 0.01477
Similarity = 0.00922
Similarity = 0.01764
Similarity = 0.0024
Similarity = 0.00213
Similarity = 0.00993
Similarity = 0.01533
Similarity = 0.00481
Similarity = 0.00527
Similarity = 0.00704
Similarity = 0.00647
Similarity = 0.00522
Similarity = 0.01203
Similarity = 0.0077
Similarity = 0.02898
Similarity = 0.00908
Similarity = 0.04023
Similarity = 0.00462
Similarity = 0.0168
Similarity = 0.00355
Similarity = 0.04201
Similarity = 0.00801
Similarity = 0.00823
Similarity = 0.00306
Similarity = 0.00922
Similarity = 0.02905
Similarity = 0.00955
Similarity = 0.00617
Similarity = 0.02107
Similarity = 0.01584
Similarity = 0.01999
Similarity = 0.02392
Similarity = 0.01865
Similarity = 0.0075
Similarity = 0.02456
Similarity = 0.00911
Similarity = 0.05873
Similarity = 0.01779
Similarity = 0.01431
Similarity = 0.00776
Similarity = 0.01074
Similarity = 0.02634
Similarity = 0.00927
Similarity = 0.01735
Similarity = 0.03249
Similarity = 0.00698
Similarity = 0.01034
Similarity = 0.01905
Similarity = 0.00437
Similarity = 0.0356
Similarity = 0.02125
Similarity = 0.01313
Similarity = 0.02081
Similarity = 0.00336
Similarity = 0.01035
Similarity = 0.01513
Similarity = 0.01067
Similarity = 0.01014
Similarity = 0.01197
Similarity = 0.00452
Similarity = 0.01566
Similarity = 0.0209
Similarity = 0.03584
Similarity = 0.01229
Similarity = 0.00958
Similarity = 0.01974
Similarity = 0.02495
Similarity = 0.00446
Similarity = 0.0197
Similarity = 0.01535
Similarity = 0.01072
Similarity = 0.01268
Similarity = 0.02286
Similarity = 0.00815
Similarity = 0.00816
Similarity = 0.00751
Similarity = 0.01096
Similarity = 0.00077
Similarity = 0.00125
Similarity = 0.00053
Similarity = 0.00514
Similarity = 0.00562
Similarity = 0.00952
Similarity = 0.00391
Similarity = 0.00702
Similarity = 0.00718
Similarity = 0.00124
Similarity = 0.00922
Similarity = 0.00573
Similarity = 0.0016
Similarity = 0.00184
Similarity = 0.00133
Similarity = 0.00124
Similarity = 0.00611
Similarity = 0.00928
Similarity = 0.00969
Similarity = 0.00371
Similarity = 0.00755
Similarity = 0.0
Similarity = 0.01371
Similarity = 0.00684
Similarity = 0.00289
Similarity = 0.01418
Similarity = 0.0
Similarity = 0.01362
Similarity = 0.00839
Similarity = 0.01078
Similarity = 0.00283
Similarity = 0.00825
Similarity = 0.00561
Similarity = 0.00599
Similarity = 0.00378
Similarity = 0.00279
Similarity = 0.00283
Similarity = 0.00742
Similarity = 0.00372
Similarity = 0.01116
Similarity = 0.00687
Similarity = 0.0036
Similarity = 0.0044
Similarity = 0.00623
Similarity = 0.0033
Similarity = 0.00669
Similarity = 0.00233
Similarity = 0.00496
Similarity = 0.00255
Similarity = 0.00033
Similarity = 0.0091
Similarity = 0.0068
Similarity = 0.00281
Similarity = 0.00837
Similarity = 0.02428
Similarity = 0.01296
Similarity = 0.00507
Similarity = 0.02145
Similarity = 0.01502
Similarity = 0.00681
Similarity = 0.00929
Similarity = 0.00679
Similarity = 0.00855
Similarity = 0.00717
Similarity = 0.01085
Similarity = 0.00555
Similarity = 0.02211
Similarity = 0.02351
Similarity = 0.00769
Similarity = 0.00561
Similarity = 0.00715
Similarity = 0.00244
Similarity = 0.03235
Similarity = 0.02315
Similarity = 0.01777
Similarity = 0.01474
Similarity = 0.00663
Similarity = 0.00922
Similarity = 0.015
Similarity = 0.01088
Similarity = 0.00595
Similarity = 0.00588
Similarity = 0.00739
Similarity = 0.01407
Similarity = 0.00587
Similarity = 0.01343
Similarity = 0.00281
Similarity = 0.01178
Similarity = 0.01234
Similarity = 0.01916
Similarity = 0.00911
Similarity = 0.01047
Similarity = 0.01004
Similarity = 0.00803
Similarity = 0.01371
Similarity = 0.01368
Similarity = 0.00915
Similarity = 0.01335
Similarity = 0.00566
Similarity = 0.00371
Similarity = 0.0005
Similarity = 0.01047
Similarity = 0.00701
Similarity = 0.01354
Similarity = 0.01779
Similarity = 0.00728
Similarity = 0.003
Similarity = 0.00609
Similarity = 5e-05
Similarity = 0.00361
Similarity = 0.00198
Similarity = 0.00635
Similarity = 0.01115
Similarity = 0.00042
Similarity = 0.00486
Similarity = 0.00668
Similarity = 0.00577
Similarity = 0.01115
Similarity = 0.01262
Similarity = 0.00106
Similarity = 0.0209
Similarity = 0.04817
Similarity = 0.01504
Similarity = 0.01259
Similarity = 0.00311
Similarity = 0.00511
Similarity = 0.00299
Similarity = 0.00102
Similarity = 0.03113
Similarity = 0.01608
Similarity = 0.00638
Similarity = 0.00463
Similarity = 0.00797
Similarity = 0.03404
Similarity = 0.00196
Similarity = 0.0128
Similarity = 0.01274
Similarity = 0.0036
Similarity = 0.03032
Similarity = 0.02024
Similarity = 0.00074
Similarity = 0.00647
Similarity = 0.01168
Similarity = 0.00393
Similarity = 0.01878
Similarity = 0.00324
Similarity = 0.02366
Similarity = 0.00683
Similarity = 0.00635
Similarity = 0.00698
Similarity = 0.00342
Similarity = 0.00196
Similarity = 0.02661
Similarity = 0.00911
Similarity = 0.00929
Similarity = 0.00192
Similarity = 0.00248
Similarity = 0.02566
Similarity = 0.00254
Similarity = 0.00015
Similarity = 0.00341
Similarity = 0.00362
Similarity = 0.00092
Similarity = 0.0
Similarity = 0.00037
Similarity = 0.00103
Similarity = 0.00835
Similarity = 0.00406
Similarity = 0.00027
Similarity = 0.0019
Similarity = 0.00617
Similarity = 0.00059
Similarity = 0.02066
Similarity = 0.00456
Similarity = 0.00732
Similarity = 0.00779
Similarity = 0.0
Similarity = 0.0006
Similarity = 0.00859
Similarity = 0.02495
Similarity = 0.00819
Similarity = 0.00147
Similarity = 0.0
Similarity = 0.00317
Similarity = 0.02347
Similarity = 0.00856
Similarity = 0.00942
Similarity = 0.00448
Similarity = 0.00018
Similarity = 0.00625
Similarity = 0.00761
Similarity = 0.00128
Similarity = 0.0033
Similarity = 0.00465
Similarity = 0.00499
Similarity = 0.00313
Similarity = 0.01658
Similarity = 0.00634
Similarity = 0.00603
Similarity = 0.00291
Similarity = 0.0086
Similarity = 0.02616
Similarity = 0.01013
Similarity = 0.03841
Similarity = 0.02378
Similarity = 0.01145
Similarity = 0.00732
Similarity = 0.01593
Similarity = 0.00656
Similarity = 0.00012
Similarity = 0.01278
Similarity = 0.01071
Similarity = 0.00271
Similarity = 0.00821
Similarity = 0.00617
Similarity = 0.01387
Similarity = 0.01941
Similarity = 0.01466
Similarity = 0.01113
Similarity = 0.06749
Similarity = 0.00902
Similarity = 0.00301
Similarity = 0.03848
Similarity = 0.01659
Similarity = 0.00673
Similarity = 0.00473
Similarity = 0.0011
Similarity = 0.00744
Similarity = 0.01412
Similarity = 0.00735
Similarity = 0.00708
Similarity = 0.01144
Similarity = 0.00188
Similarity = 0.00963
Similarity = 0.00661
Similarity = 0.01326
Similarity = 0.00448
Similarity = 0.02312
Similarity = 0.01144
Similarity = 0.03571
Similarity = 0.00768
Similarity = 0.00554
Similarity = 0.00949
Similarity = 0.0143
Similarity = 0.0528
Similarity = 0.00584
Similarity = 0.00243
Similarity = 0.01323
Similarity = 0.01762
Similarity = 0.01036
Similarity = 0.01357
Similarity = 0.00438
Similarity = 0.0079
Similarity = 0.00834
Similarity = 0.02684
Similarity = 0.00465
Similarity = 0.02476
Similarity = 0.03556
Similarity = 0.01493
Similarity = 0.06219
Similarity = 0.00728
Similarity = 0.00471
Similarity = 0.00284
Similarity = 0.02258
Similarity = 0.01491
Similarity = 0.0037
Similarity = 0.00922
Similarity = 0.00954
Similarity = 0.00556
Similarity = 0.00255
Similarity = 0.00956
Similarity = 0.00093
Similarity = 0.01993
Similarity = 0.00827
Similarity = 0.00764
Similarity = 0.00664
Similarity = 0.00068
Similarity = 0.00183
Similarity = 0.00493
Similarity = 0.01282
Similarity = 0.00351
Similarity = 0.00634
Similarity = 0.0
Similarity = 0.01166
Similarity = 0.00459
Similarity = 0.00925
Similarity = 0.00469
Similarity = 0.00646
Similarity = 7e-05
Similarity = 0.04567
Similarity = 0.00797
Similarity = 0.011
Similarity = 0.00429
Similarity = 0.01091
Similarity = 0.00541
Similarity = 0.01127
Similarity = 0.00351
Similarity = 0.01391
Similarity = 0.00811
Similarity = 0.01169
Similarity = 0.02248
Similarity = 0.02021
Similarity = 0.02047
Similarity = 0.0361
Similarity = 0.03381
Similarity = 0.02229
Similarity = 0.01534
Similarity = 0.01363
Similarity = 0.00761
Similarity = 0.00327
Similarity = 0.01841
Similarity = 0.03246
Similarity = 0.01363
Similarity = 0.00554
Similarity = 0.00611
Similarity = 0.01399
Similarity = 0.03344
Similarity = 0.02571
Similarity = 0.00651
Similarity = 0.02903
Similarity = 0.0057
Similarity = 0.0
Similarity = 0.05323
Similarity = 0.0342
Similarity = 0.01852
Similarity = 0.02673
Similarity = 0.00327
Similarity = 0.00675
Similarity = 0.01216
Similarity = 0.01191
Similarity = 0.0103
Similarity = 0.01921
Similarity = 0.00822
Similarity = 0.01362
Similarity = 0.01453
Similarity = 0.02817
Similarity = 0.01813
Similarity = 0.02147
Similarity = 0.00886
Similarity = 0.0365
Similarity = 0.06596
Similarity = 0.00916
Similarity = 0.01451
Similarity = 0.02852
Similarity = 0.03308
Similarity = 0.0173
Similarity = 0.02133
Similarity = 0.01008
Similarity = 0.0238
Similarity = 0.03001
0.01294845200000001
