Files are 20_newsgroups/talk.politics.guns  20_newsgroups/talk.politics.mideast
Similarity = 0.0446
Similarity = 0.0251
Similarity = 0.04245
Similarity = 0.05907
Similarity = 0.0145
Similarity = 0.01555
Similarity = 0.01312
Similarity = 0.0272
Similarity = 0.06166
Similarity = 0.0311
Similarity = 0.04924
Similarity = 0.02306
Similarity = 0.01563
Similarity = 0.02005
Similarity = 0.02157
Similarity = 0.0215
Similarity = 0.06027
Similarity = 0.04689
Similarity = 0.08328
Similarity = 0.02814
Similarity = 0.02
Similarity = 0.02667
Similarity = 0.01407
Similarity = 0.02213
Similarity = 0.00965
Similarity = 0.03994
Similarity = 0.02109
Similarity = 0.0166
Similarity = 0.03643
Similarity = 0.00109
Similarity = 0.00399
Similarity = 0.03653
Similarity = 0.03427
Similarity = 0.09266
Similarity = 0.03672
Similarity = 0.01506
Similarity = 0.02115
Similarity = 0.0403
Similarity = 0.02076
Similarity = 0.02311
Similarity = 0.02459
Similarity = 0.0259
Similarity = 0.01036
Similarity = 0.00703
Similarity = 0.037
Similarity = 0.0208
Similarity = 0.02508
Similarity = 0.03046
Similarity = 0.07292
Similarity = 0.01287
Similarity = 0.01109
Similarity = 0.00766
Similarity = 0.01957
Similarity = 0.0137
Similarity = 0.00038
Similarity = 0.01104
Similarity = 0.01168
Similarity = 0.01913
Similarity = 0.03316
Similarity = 0.015
Similarity = 0.04094
Similarity = 0.01391
Similarity = 0.00495
Similarity = 0.00829
Similarity = 0.0087
Similarity = 0.05236
Similarity = 0.0236
Similarity = 0.01798
Similarity = 0.0726
Similarity = 0.01265
Similarity = 0.01478
Similarity = 0.01318
Similarity = 0.01106
Similarity = 0.00795
Similarity = 0.00439
Similarity = 0.0428
Similarity = 0.00747
Similarity = 0.00246
Similarity = 0.01863
Similarity = 0.00025
Similarity = 0.00596
Similarity = 0.01133
Similarity = 0.02229
Similarity = 0.02715
Similarity = 0.00726
Similarity = 0.01921
Similarity = 0.01029
Similarity = 0.00758
Similarity = 0.00817
Similarity = 0.01083
Similarity = 0.0069
Similarity = 0.02517
Similarity = 0.0163
Similarity = 0.00494
Similarity = 0.01298
Similarity = 0.01532
Similarity = 0.01854
Similarity = 0.00351
Similarity = 0.02035
Similarity = 0.00677
Similarity = 0.0098
Similarity = 0.00538
Similarity = 0.03185
Similarity = 0.01151
Similarity = 0.0142
Similarity = 0.02217
Similarity = 0.01808
Similarity = 0.00989
Similarity = 0.0231
Similarity = 0.01477
Similarity = 0.07382
Similarity = 0.00727
Similarity = 0.00602
Similarity = 0.01201
Similarity = 0.00237
Similarity = 0.01422
Similarity = 0.02508
Similarity = 0.01756
Similarity = 0.05236
Similarity = 0.02106
Similarity = 0.00718
Similarity = 0.00695
Similarity = 0.011
Similarity = 0.0051
Similarity = 0.00393
Similarity = 0.01472
Similarity = 0.00193
Similarity = 0.00211
Similarity = 0.0121
Similarity = 0.0
Similarity = 0.0
Similarity = 0.00445
Similarity = 0.00913
Similarity = 0.0344
Similarity = 0.01374
Similarity = 0.00543
Similarity = 0.01274
Similarity = 0.00427
Similarity = 0.03137
Similarity = 0.00703
Similarity = 0.01411
Similarity = 0.01147
Similarity = 0.00017
Similarity = 0.00914
Similarity = 0.02985
Similarity = 0.00736
Similarity = 0.00832
Similarity = 0.02427
Similarity = 0.01363
Similarity = 0.0057
Similarity = 0.04416
Similarity = 0.02089
Similarity = 0.05464
Similarity = 0.04036
Similarity = 0.02402
Similarity = 0.02239
Similarity = 0.02929
Similarity = 0.06189
Similarity = 0.06211
Similarity = 0.04711
Similarity = 0.09276
Similarity = 0.04593
Similarity = 0.01333
Similarity = 0.03145
Similarity = 0.04523
Similarity = 0.05115
Similarity = 0.09365
Similarity = 0.08576
Similarity = 0.1419
Similarity = 0.05272
Similarity = 0.03402
Similarity = 0.03178
Similarity = 0.03853
Similarity = 0.02054
Similarity = 0.01928
Similarity = 0.02867
Similarity = 0.03717
Similarity = 0.01868
Similarity = 0.06503
Similarity = 0.00766
Similarity = 0.02099
Similarity = 0.04556
Similarity = 0.07056
Similarity = 0.11119
Similarity = 0.0782
Similarity = 0.03224
Similarity = 0.03198
Similarity = 0.03949
Similarity = 0.02709
Similarity = 0.04278
Similarity = 0.03037
Similarity = 0.06288
Similarity = 0.02309
Similarity = 0.02162
Similarity = 0.09484
Similarity = 0.05343
Similarity = 0.04099
Similarity = 0.05266
Similarity = 0.07626
Similarity = 0.04848
Similarity = 0.03148
Similarity = 0.00847
Similarity = 0.03263
Similarity = 0.03097
Similarity = 0.02732
Similarity = 0.01473
Similarity = 0.01537
Similarity = 0.03275
Similarity = 0.0413
Similarity = 0.03938
Similarity = 0.07785
Similarity = 0.0168
Similarity = 0.01295
Similarity = 0.02871
Similarity = 0.02178
Similarity = 0.03962
Similarity = 0.06584
Similarity = 0.04301
Similarity = 0.14138
Similarity = 0.02616
Similarity = 0.02168
Similarity = 0.0287
Similarity = 0.03259
Similarity = 0.01369
Similarity = 0.00836
Similarity = 0.04293
Similarity = 0.0181
Similarity = 0.01963
Similarity = 0.05036
Similarity = 0.00277
Similarity = 0.01975
Similarity = 0.03232
Similarity = 0.03527
Similarity = 0.08408
Similarity = 0.04537
Similarity = 0.0344
Similarity = 0.07025
Similarity = 0.0451
Similarity = 0.0301
Similarity = 0.02262
Similarity = 0.01333
Similarity = 0.02513
Similarity = 0.03048
Similarity = 0.00771
Similarity = 0.04592
Similarity = 0.04195
Similarity = 0.04145
Similarity = 0.03544
Similarity = 0.03856
Similarity = 0.01918
Similarity = 0.01638
Similarity = 0.02931
Similarity = 0.03844
Similarity = 0.01473
Similarity = 0.02523
Similarity = 0.00705
Similarity = 0.01117
Similarity = 0.03183
Similarity = 0.03298
Similarity = 0.02435
Similarity = 0.04317
Similarity = 0.01417
Similarity = 0.00672
Similarity = 0.00366
Similarity = 0.00755
Similarity = 0.02331
Similarity = 0.0419
Similarity = 0.02594
Similarity = 0.0647
Similarity = 0.02736
Similarity = 0.01229
Similarity = 0.01642
Similarity = 0.03248
Similarity = 0.01211
Similarity = 0.01804
Similarity = 0.02236
Similarity = 0.00666
Similarity = 0.00191
Similarity = 0.03905
Similarity = 0.00172
Similarity = 0.0051
Similarity = 0.01125
Similarity = 0.03127
Similarity = 0.04021
Similarity = 0.02294
Similarity = 0.03517
Similarity = 0.02572
Similarity = 0.0137
Similarity = 0.00838
Similarity = 0.02663
Similarity = 0.01072
Similarity = 0.02836
Similarity = 0.02994
Similarity = 0.00552
Similarity = 0.03612
Similarity = 0.0183
Similarity = 0.0199
Similarity = 0.0078
Similarity = 0.02246
Similarity = 0.01102
Similarity = 0.029
Similarity = 0.00828
Similarity = 0.0245
Similarity = 0.03694
Similarity = 0.00609
Similarity = 0.07879
Similarity = 0.0263
Similarity = 0.02725
Similarity = 0.04345
Similarity = 0.04501
Similarity = 0.13434
Similarity = 0.01137
Similarity = 0.00669
Similarity = 0.02148
Similarity = 0.03653
Similarity = 0.06183
Similarity = 0.05445
Similarity = 0.06431
Similarity = 0.23061
Similarity = 0.03173
Similarity = 0.0147
Similarity = 0.01412
Similarity = 0.0125
Similarity = 0.00404
Similarity = 0.00462
Similarity = 0.01215
Similarity = 0.02979
Similarity = 0.00831
Similarity = 0.03685
Similarity = 0.0
Similarity = 0.003
Similarity = 0.01776
Similarity = 0.06581
Similarity = 0.05081
Similarity = 0.04485
Similarity = 0.07072
Similarity = 0.09324
Similarity = 0.02163
Similarity = 0.0172
Similarity = 0.01443
Similarity = 0.01607
Similarity = 0.03743
Similarity = 0.04462
Similarity = 0.01135
Similarity = 0.04682
Similarity = 0.03139
Similarity = 0.02903
Similarity = 0.02571
Similarity = 0.05922
Similarity = 0.02472
Similarity = 0.02021
Similarity = 0.00661
Similarity = 0.01885
Similarity = 0.02196
Similarity = 0.00189
Similarity = 0.02517
Similarity = 0.01657
Similarity = 0.02538
Similarity = 0.04844
Similarity = 0.02124
Similarity = 0.04269
Similarity = 0.00872
Similarity = 0.01413
Similarity = 0.00545
Similarity = 0.00536
Similarity = 0.02307
Similarity = 0.04745
Similarity = 0.0526
Similarity = 0.08954
Similarity = 0.02519
Similarity = 0.00389
Similarity = 0.02406
Similarity = 0.0588
Similarity = 0.00855
Similarity = 0.006
Similarity = 0.01886
Similarity = 0.00473
Similarity = 0.02135
Similarity = 0.05283
Similarity = 0.00041
Similarity = 0.00306
Similarity = 0.02757
Similarity = 0.03519
Similarity = 0.06742
Similarity = 0.01762
Similarity = 0.02181
Similarity = 0.00429
Similarity = 0.02404
Similarity = 0.01767
Similarity = 0.01303
Similarity = 0.00542
Similarity = 0.0484
Similarity = 0.00222
Similarity = 0.00724
Similarity = 0.05508
Similarity = 0.02785
Similarity = 0.01831
Similarity = 0.01142
Similarity = 0.03347
Similarity = 0.01704
Similarity = 0.01505
Similarity = 0.00987
Similarity = 0.02097
Similarity = 0.02532
Similarity = 0.00393
Similarity = 0.0
Similarity = 0.0071
Similarity = 0.00978
Similarity = 0.00811
Similarity = 0.01833
Similarity = 0.02149
Similarity = 0.0075
Similarity = 0.0066
Similarity = 0.01105
Similarity = 0.01232
Similarity = 0.0158
Similarity = 0.02439
Similarity = 0.00936
Similarity = 0.01361
Similarity = 0.01485
Similarity = 0.0052
Similarity = 0.00692
Similarity = 0.00339
Similarity = 0.00093
Similarity = 0.0005
Similarity = 0.00862
Similarity = 0.01471
Similarity = 0.00042
Similarity = 0.01954
Similarity = 0.00135
Similarity = 0.00636
Similarity = 0.00639
Similarity = 0.00452
Similarity = 0.03708
Similarity = 0.01266
Similarity = 0.00737
Similarity = 0.01546
Similarity = 0.0145
Similarity = 0.00085
Similarity = 0.01117
Similarity = 0.00685
Similarity = 0.0065
Similarity = 0.00539
Similarity = 0.00076
Similarity = 0.00506
Similarity = 0.00879
Similarity = 0.0103
Similarity = 0.01177
Similarity = 0.01096
Similarity = 0.00608
Similarity = 0.0463
Similarity = 0.02366
Similarity = 0.03939
Similarity = 0.0295
Similarity = 0.04753
Similarity = 0.02756
Similarity = 0.02909
Similarity = 0.04916
Similarity = 0.05901
Similarity = 0.0601
Similarity = 0.1109
Similarity = 0.04654
Similarity = 0.0156
Similarity = 0.02392
Similarity = 0.04064
Similarity = 0.06516
Similarity = 0.09184
Similarity = 0.05705
Similarity = 0.18327
Similarity = 0.05855
Similarity = 0.03373
Similarity = 0.02926
Similarity = 0.05136
Similarity = 0.02218
Similarity = 0.03058
Similarity = 0.04335
Similarity = 0.03355
Similarity = 0.01315
Similarity = 0.09887
Similarity = 0.00405
Similarity = 0.02064
Similarity = 0.06345
Similarity = 0.05231
Similarity = 0.11493
Similarity = 0.03748
Similarity = 0.05118
Similarity = 0.0313
Similarity = 0.06321
Similarity = 0.03143
Similarity = 0.01869
Similarity = 0.03246
Similarity = 0.04917
Similarity = 0.0215
Similarity = 0.01966
Similarity = 0.09234
Similarity = 0.0493
Similarity = 0.03928
Similarity = 0.03943
Similarity = 0.05559
Similarity = 0.05084
Similarity = 0.01749
Similarity = 0.01591
Similarity = 0.01437
Similarity = 0.01099
Similarity = 0.01623
Similarity = 0.01711
Similarity = 0.02066
Similarity = 0.02518
Similarity = 0.02564
Similarity = 0.02387
Similarity = 0.03819
Similarity = 0.01416
Similarity = 0.01023
Similarity = 0.01563
Similarity = 0.01911
Similarity = 0.00727
Similarity = 0.0427
Similarity = 0.02469
Similarity = 0.06643
Similarity = 0.0099
Similarity = 0.01298
Similarity = 0.01747
Similarity = 0.01923
Similarity = 0.00556
Similarity = 0.01056
Similarity = 0.00995
Similarity = 0.01948
Similarity = 0.00161
Similarity = 0.04981
Similarity = 0.00266
Similarity = 0.01152
Similarity = 0.01445
Similarity = 0.03793
Similarity = 0.03988
Similarity = 0.01417
Similarity = 0.03795
Similarity = 0.01979
Similarity = 0.01958
Similarity = 0.01919
Similarity = 0.01691
Similarity = 0.01072
Similarity = 0.016
Similarity = 0.02282
Similarity = 0.00546
Similarity = 0.04536
Similarity = 0.01111
Similarity = 0.0076
Similarity = 0.01187
Similarity = 0.02427
Similarity = 0.01347
Similarity = 0.01677
Similarity = 0.01294
Similarity = 0.04158
Similarity = 0.03057
Similarity = 0.00302
Similarity = 0.00103
Similarity = 0.01741
Similarity = 0.02523
Similarity = 0.04346
Similarity = 0.0205
Similarity = 0.06001
Similarity = 0.02681
Similarity = 0.00254
Similarity = 0.02157
Similarity = 0.00551
Similarity = 0.02375
Similarity = 0.04963
Similarity = 0.03929
Similarity = 0.08535
Similarity = 0.06813
Similarity = 0.01248
Similarity = 0.0157
Similarity = 0.01939
Similarity = 0.01663
Similarity = 0.02046
Similarity = 0.04249
Similarity = 0.00524
Similarity = 0.00816
Similarity = 0.03842
Similarity = 0.00062
Similarity = 0.00279
Similarity = 0.0318
Similarity = 0.01665
Similarity = 0.05357
Similarity = 0.02043
Similarity = 0.02017
Similarity = 0.02473
Similarity = 0.03799
Similarity = 0.00944
Similarity = 0.01653
Similarity = 0.0374
Similarity = 0.02676
Similarity = 0.0124
Similarity = 0.0067
Similarity = 0.05755
Similarity = 0.05494
Similarity = 0.02153
Similarity = 0.02585
Similarity = 0.03073
Similarity = 0.01052
Similarity = 0.01698
Similarity = 0.01112
Similarity = 0.02259
Similarity = 0.02355
Similarity = 0.02761
Similarity = 0.02041
Similarity = 0.02145
Similarity = 0.01839
Similarity = 0.05859
Similarity = 0.02316
Similarity = 0.07782
Similarity = 0.03308
Similarity = 0.01244
Similarity = 0.01168
Similarity = 0.00828
Similarity = 0.01776
Similarity = 0.04569
Similarity = 0.0351
Similarity = 0.09233
Similarity = 0.03105
Similarity = 0.01966
Similarity = 0.0217
Similarity = 0.02536
Similarity = 0.01911
Similarity = 0.01112
Similarity = 0.02856
Similarity = 0.0071
Similarity = 0.00577
Similarity = 0.03492
Similarity = 0.00029
Similarity = 0.00274
Similarity = 0.01623
Similarity = 0.03342
Similarity = 0.04999
Similarity = 0.0183
Similarity = 0.02409
Similarity = 0.00841
Similarity = 0.03212
Similarity = 0.00654
Similarity = 0.01942
Similarity = 0.02646
Similarity = 0.02777
Similarity = 0.01157
Similarity = 0.01061
Similarity = 0.03975
Similarity = 0.02445
Similarity = 0.03924
Similarity = 0.01633
Similarity = 0.04277
Similarity = 0.01864
Similarity = 0.03076
Similarity = 0.04906
Similarity = 0.03506
Similarity = 0.03881
Similarity = 0.00981
Similarity = 0.0083
Similarity = 0.01083
Similarity = 0.01868
Similarity = 0.04446
Similarity = 0.03092
Similarity = 0.07346
Similarity = 0.01455
Similarity = 0.02705
Similarity = 0.01056
Similarity = 0.01196
Similarity = 0.02169
Similarity = 0.04125
Similarity = 0.02573
Similarity = 0.11391
Similarity = 0.02458
Similarity = 0.01172
Similarity = 0.01325
Similarity = 0.02761
Similarity = 0.01801
Similarity = 0.01108
Similarity = 0.049
Similarity = 0.01034
Similarity = 0.00943
Similarity = 0.03102
Similarity = 0.0014
Similarity = 0.00843
Similarity = 0.03102
Similarity = 0.01858
Similarity = 0.04077
Similarity = 0.01995
Similarity = 0.06499
Similarity = 0.01692
Similarity = 0.02805
Similarity = 0.03402
Similarity = 0.00961
Similarity = 0.02438
Similarity = 0.01674
Similarity = 0.01781
Similarity = 0.00843
Similarity = 0.0274
Similarity = 0.0204
Similarity = 0.01796
Similarity = 0.01208
Similarity = 0.03279
Similarity = 0.01234
Similarity = 0.01644
Similarity = 0.01177
Similarity = 0.01559
Similarity = 0.0295
Similarity = 0.00107
Similarity = 0.0
Similarity = 0.00745
Similarity = 0.01473
Similarity = 0.01387
Similarity = 0.01207
Similarity = 0.02171
Similarity = 0.01345
Similarity = 0.00498
Similarity = 0.01914
Similarity = 0.00065
Similarity = 0.01811
Similarity = 0.03429
Similarity = 0.03248
Similarity = 0.04313
Similarity = 0.02366
Similarity = 0.01647
Similarity = 0.01051
Similarity = 0.02603
Similarity = 0.00615
Similarity = 0.00509
Similarity = 0.00825
Similarity = 0.00053
Similarity = 0.01816
Similarity = 0.02485
Similarity = 0.0
Similarity = 0.00413
Similarity = 0.0071
Similarity = 0.02411
Similarity = 0.07321
Similarity = 0.02313
Similarity = 0.01572
Similarity = 0.0088
Similarity = 0.02934
Similarity = 0.00225
Similarity = 0.00737
Similarity = 0.01031
Similarity = 0.02073
Similarity = 0.00298
Similarity = 0.00911
Similarity = 0.02859
Similarity = 0.02189
Similarity = 0.02947
Similarity = 0.0161
Similarity = 0.01679
Similarity = 0.00925
Similarity = 0.00679
Similarity = 0.02181
Similarity = 0.01427
Similarity = 0.00524
Similarity = 0.00047
Similarity = 0.00101
Similarity = 0.07229
Similarity = 0.05411
Similarity = 0.03289
Similarity = 0.02054
Similarity = 0.0344
Similarity = 0.03286
Similarity = 0.01828
Similarity = 0.01421
Similarity = 0.10587
Similarity = 0.03394
Similarity = 0.02742
Similarity = 0.02952
Similarity = 0.06473
Similarity = 0.0201
Similarity = 0.02321
Similarity = 0.01101
Similarity = 0.05871
Similarity = 0.00981
Similarity = 0.00113
Similarity = 0.05705
Similarity = 0.08705
Similarity = 0.03828
Similarity = 0.06139
Similarity = 0.01225
Similarity = 0.00677
Similarity = 0.02833
Similarity = 0.01307
Similarity = 0.02794
Similarity = 0.07506
Similarity = 0.02611
Similarity = 0.01921
Similarity = 0.01656
Similarity = 0.00405
Similarity = 0.01546
Similarity = 0.02095
Similarity = 0.01805
Similarity = 0.00847
Similarity = 0.01258
Similarity = 0.03228
Similarity = 0.01636
Similarity = 0.04408
Similarity = 0.01284
Similarity = 0.01625
Similarity = 0.01256
Similarity = 0.04827
Similarity = 0.00362
Similarity = 0.04794
Similarity = 0.03028
Similarity = 0.0
Similarity = 0.0
Similarity = 0.01313
Similarity = 0.00793
Similarity = 0.03193
Similarity = 0.0122
Similarity = 0.03808
Similarity = 0.06559
Similarity = 0.00676
Similarity = 0.05066
Similarity = 0.00126
Similarity = 0.02448
Similarity = 0.01936
Similarity = 0.01382
Similarity = 0.01187
Similarity = 0.01045
Similarity = 0.00171
Similarity = 0.00104
Similarity = 0.00428
Similarity = 0.01372
Similarity = 0.01133
Similarity = 0.00575
Similarity = 0.00103
Similarity = 0.0
Similarity = 0.0172
Similarity = 0.0
Similarity = 0.0
Similarity = 0.00526
Similarity = 0.01168
Similarity = 0.00956
Similarity = 0.01311
Similarity = 0.00473
Similarity = 0.00559
Similarity = 0.0122
Similarity = 0.00804
Similarity = 0.00145
Similarity = 0.02642
Similarity = 0.02827
Similarity = 0.00426
Similarity = 0.0
Similarity = 0.00603
Similarity = 0.0046
Similarity = 0.02564
Similarity = 0.00913
Similarity = 0.05754
Similarity = 0.0
Similarity = 0.03745
Similarity = 0.01263
Similarity = 0.03432
Similarity = 0.01196
Similarity = 0.01476
Similarity = 0.00925
Similarity = 0.0013
Similarity = 0.01605
Similarity = 0.04724
Similarity = 0.01551
Similarity = 0.03439
Similarity = 0.02386
Similarity = 0.00622
Similarity = 0.02569
Similarity = 0.01256
Similarity = 0.02624
Similarity = 0.03693
Similarity = 0.03171
Similarity = 0.05555
Similarity = 0.03592
Similarity = 0.00876
Similarity = 0.01344
Similarity = 0.02876
Similarity = 0.00738
Similarity = 0.03676
Similarity = 0.00935
Similarity = 0.01044
Similarity = 0.00558
Similarity = 0.05022
Similarity = 0.00023
Similarity = 0.00508
Similarity = 0.01943
Similarity = 0.01807
Similarity = 0.05058
Similarity = 0.02175
Similarity = 0.01728
Similarity = 0.01029
Similarity = 0.01937
Similarity = 0.01332
Similarity = 0.01202
Similarity = 0.0127
Similarity = 0.01617
Similarity = 0.0045
Similarity = 0.00059
Similarity = 0.04517
Similarity = 0.02295
Similarity = 0.02123
Similarity = 0.02462
Similarity = 0.02031
Similarity = 0.01961
Similarity = 0.02283
Similarity = 0.01626
Similarity = 0.02713
Similarity = 0.01033
Similarity = 0.00456
Similarity = 0.02185
Similarity = 0.00782
Similarity = 0.04161
Similarity = 0.03758
Similarity = 0.02647
Similarity = 0.04682
Similarity = 0.02388
Similarity = 0.00854
Similarity = 0.01833
Similarity = 0.00516
Similarity = 0.02301
Similarity = 0.04377
Similarity = 0.04329
Similarity = 0.08542
Similarity = 0.02615
Similarity = 0.03603
Similarity = 0.02176
Similarity = 0.03181
Similarity = 0.01239
Similarity = 0.01444
Similarity = 0.00937
Similarity = 0.00482
Similarity = 0.01426
Similarity = 0.04539
Similarity = 0.00051
Similarity = 0.00891
Similarity = 0.01835
Similarity = 0.04001
Similarity = 0.04771
Similarity = 0.02913
Similarity = 0.02093
Similarity = 0.01557
Similarity = 0.02454
Similarity = 0.01484
Similarity = 0.00838
Similarity = 0.00863
Similarity = 0.02514
Similarity = 0.01198
Similarity = 0.0059
Similarity = 0.03769
Similarity = 0.02789
Similarity = 0.01622
Similarity = 0.01453
Similarity = 0.03531
Similarity = 0.01895
Similarity = 0.00155
Similarity = 0.0104
Similarity = 0.00483
Similarity = 0.00238
Similarity = 0.0
Similarity = 0.0
Similarity = 0.0014
Similarity = 0.00087
Similarity = 0.00037
Similarity = 0.00133
Similarity = 0.0003
Similarity = 0.01002
Similarity = 0.00374
Similarity = 0.00483
Similarity = 0.00148
Similarity = 0.0
Similarity = 0.00395
Similarity = 0.0002
Similarity = 0.00036
Similarity = 0.00119
Similarity = 0.00073
Similarity = 0.00177
Similarity = 0.00389
Similarity = 0.0019
Similarity = 0.00096
Similarity = 0.00138
Similarity = 0.00241
Similarity = 0.0008
Similarity = 0.00153
Similarity = 0.00101
Similarity = 0.00124
Similarity = 0.00042
Similarity = 0.01011
Similarity = 0.00085
Similarity = 0.0019
Similarity = 0.00274
Similarity = 0.0
Similarity = 0.00056
Similarity = 0.00493
Similarity = 0.00068
Similarity = 0.00181
Similarity = 0.00072
Similarity = 0.00857
Similarity = 0.00268
Similarity = 0.00036
Similarity = 0.00164
Similarity = 0.00108
Similarity = 0.00035
Similarity = 0.0003
Similarity = 0.00106
Similarity = 0.00794
Similarity = 0.00266
Similarity = 0.01555
Similarity = 0.00503
Similarity = 0.00056
Similarity = 0.00122
Similarity = 0.00071
Similarity = 0.01376
Similarity = 0.0185
Similarity = 0.01208
Similarity = 0.04456
Similarity = 0.00901
Similarity = 0.00623
Similarity = 0.00176
Similarity = 0.00086
Similarity = 0.01491
Similarity = 0.02568
Similarity = 0.0124
Similarity = 0.07442
Similarity = 0.00853
Similarity = 0.00884
Similarity = 0.00442
Similarity = 0.02279
Similarity = 0.00321
Similarity = 0.00669
Similarity = 0.01061
Similarity = 0.00481
Similarity = 0.00154
Similarity = 0.00671
Similarity = 0.0
Similarity = 0.0
Similarity = 0.00275
Similarity = 0.0108
Similarity = 0.02893
Similarity = 0.01121
Similarity = 0.01492
Similarity = 0.02937
Similarity = 0.00234
Similarity = 0.00189
Similarity = 0.01006
Similarity = 0.00259
Similarity = 0.01507
Similarity = 0.00576
Similarity = 0.0046
Similarity = 0.01769
Similarity = 0.02037
Similarity = 0.00796
Similarity = 0.01242
Similarity = 0.01765
Similarity = 0.00749
Similarity = 0.02269
Similarity = 0.00991
Similarity = 0.0316
Similarity = 0.01572
Similarity = 0.02876
Similarity = 0.00543
Similarity = 0.01158
Similarity = 0.01556
Similarity = 0.03713
Similarity = 0.02953
Similarity = 0.04803
Similarity = 0.03177
Similarity = 0.02662
Similarity = 0.01101
Similarity = 0.01973
Similarity = 0.04591
Similarity = 0.04903
Similarity = 0.03925
Similarity = 0.11911
Similarity = 0.02967
Similarity = 0.02685
Similarity = 0.03127
Similarity = 0.03061
Similarity = 0.01582
Similarity = 0.01962
Similarity = 0.01608
Similarity = 0.01668
Similarity = 0.01933
Similarity = 0.06074
Similarity = 0.00139
Similarity = 0.02275
Similarity = 0.02236
Similarity = 0.06822
Similarity = 0.0922
Similarity = 0.03325
Similarity = 0.02906
Similarity = 0.02844
Similarity = 0.04114
Similarity = 0.03296
Similarity = 0.01445
Similarity = 0.01346
Similarity = 0.03583
Similarity = 0.00958
Similarity = 0.01014
Similarity = 0.0467
Similarity = 0.03335
Similarity = 0.04096
Similarity = 0.02064
Similarity = 0.03266
Similarity = 0.03226
Similarity = 0.04278
Similarity = 0.02797
Similarity = 0.0507
Similarity = 0.02638
Similarity = 0.01347
Similarity = 0.00667
Similarity = 0.03247
Similarity = 0.02535
Similarity = 0.06809
Similarity = 0.05303
Similarity = 0.08369
Similarity = 0.04383
Similarity = 0.03279
Similarity = 0.02985
Similarity = 0.02967
Similarity = 0.04377
Similarity = 0.08026
Similarity = 0.0382
Similarity = 0.13212
Similarity = 0.0517
Similarity = 0.02992
Similarity = 0.02506
Similarity = 0.0344
Similarity = 0.01509
Similarity = 0.01291
Similarity = 0.07439
Similarity = 0.02482
Similarity = 0.01137
Similarity = 0.05509
Similarity = 0.00148
Similarity = 0.01152
Similarity = 0.03857
Similarity = 0.05102
Similarity = 0.09531
Similarity = 0.03559
Similarity = 0.04137
Similarity = 0.02989
Similarity = 0.05319
Similarity = 0.02469
Similarity = 0.02432
Similarity = 0.02442
Similarity = 0.03737
Similarity = 0.03826
Similarity = 0.01318
Similarity = 0.05643
Similarity = 0.05004
Similarity = 0.0382
Similarity = 0.02368
Similarity = 0.04489
Similarity = 0.04109
Similarity = 0.07287
Similarity = 0.02309
Similarity = 0.05471
Similarity = 0.05022
Similarity = 0.00872
Similarity = 0.03362
Similarity = 0.03037
Similarity = 0.04229
Similarity = 0.09047
Similarity = 0.0609
Similarity = 0.10396
Similarity = 0.0449
Similarity = 0.02354
Similarity = 0.02251
Similarity = 0.02155
Similarity = 0.04455
Similarity = 0.08581
Similarity = 0.05726
Similarity = 0.11683
Similarity = 0.06747
Similarity = 0.03269
Similarity = 0.02679
Similarity = 0.0332
Similarity = 0.01207
Similarity = 0.0172
Similarity = 0.04129
Similarity = 0.01757
Similarity = 0.01593
Similarity = 0.11342
Similarity = 0.0
Similarity = 0.00416
Similarity = 0.0277
Similarity = 0.05811
Similarity = 0.08261
Similarity = 0.05305
Similarity = 0.02119
Similarity = 0.04176
Similarity = 0.0529
Similarity = 0.03269
Similarity = 0.03349
Similarity = 0.02442
Similarity = 0.0345
Similarity = 0.03331
Similarity = 0.00551
Similarity = 0.06837
Similarity = 0.04636
Similarity = 0.04692
Similarity = 0.05101
Similarity = 0.05185
Similarity = 0.04337
Similarity = 0.03359
Similarity = 0.02375
Similarity = 0.0212
Similarity = 0.02672
Similarity = 0.0201
Similarity = 0.01991
Similarity = 0.0263
Similarity = 0.05262
Similarity = 0.03967
Similarity = 0.02981
Similarity = 0.08138
Similarity = 0.02917
Similarity = 0.00914
Similarity = 0.0253
Similarity = 0.01956
Similarity = 0.04772
Similarity = 0.08357
Similarity = 0.05109
Similarity = 0.13921
Similarity = 0.07715
Similarity = 0.062
Similarity = 0.03419
Similarity = 0.06471
Similarity = 0.02142
Similarity = 0.03035
Similarity = 0.03612
Similarity = 0.01625
Similarity = 0.01001
Similarity = 0.09525
Similarity = 0.0534
Similarity = 0.05806
Similarity = 0.10648
Similarity = 0.06043
Similarity = 0.09836
Similarity = 0.03306
Similarity = 0.04079
Similarity = 0.03034
Similarity = 0.03572
Similarity = 0.02327
Similarity = 0.02424
Similarity = 0.01888
Similarity = 0.03531
Similarity = 0.01628
Similarity = 0.01037
Similarity = 0.05662
Similarity = 0.04717
Similarity = 0.03892
Similarity = 0.02115
Similarity = 0.05207
Similarity = 0.05874
Similarity = 0.03911
Similarity = 0.01123
Similarity = 0.01908
Similarity = 0.05268
Similarity = 0.02163
Similarity = 0.00668
Similarity = 0.02373
Similarity = 0.04675
Similarity = 0.04541
Similarity = 0.02505
Similarity = 0.06694
Similarity = 0.01979
Similarity = 0.02293
Similarity = 0.00959
Similarity = 0.01832
Similarity = 0.03424
Similarity = 0.05545
Similarity = 0.02812
Similarity = 0.12257
Similarity = 0.07123
Similarity = 0.01826
Similarity = 0.01558
Similarity = 0.02837
Similarity = 0.01616
Similarity = 0.00865
Similarity = 0.02337
Similarity = 0.01506
Similarity = 0.0218
Similarity = 0.03341
Similarity = 0.01233
Similarity = 0.01076
Similarity = 0.0643
Similarity = 0.04435
Similarity = 0.0686
Similarity = 0.03315
Similarity = 0.04333
Similarity = 0.01522
Similarity = 0.02732
Similarity = 0.01662
Similarity = 0.01569
Similarity = 0.01806
Similarity = 0.02643
Similarity = 0.02932
Similarity = 0.00742
Similarity = 0.06259
Similarity = 0.04606
Similarity = 0.02044
Similarity = 0.02173
Similarity = 0.05932
Similarity = 0.01532
Similarity = 0.04423
Similarity = 0.02461
Similarity = 0.04315
Similarity = 0.03303
Similarity = 0.00962
Similarity = 0.0
Similarity = 0.01809
Similarity = 0.04312
Similarity = 0.04237
Similarity = 0.01636
Similarity = 0.03452
Similarity = 0.00883
Similarity = 0.0094
Similarity = 0.00309
Similarity = 0.01403
Similarity = 0.06858
Similarity = 0.03412
Similarity = 0.0238
Similarity = 0.04707
Similarity = 0.03226
Similarity = 0.02417
Similarity = 0.02011
Similarity = 0.01169
Similarity = 0.00503
Similarity = 0.05553
Similarity = 0.02194
Similarity = 0.0212
Similarity = 0.00894
Similarity = 0.02541
Similarity = 0.00203
Similarity = 0.00762
Similarity = 0.00469
Similarity = 0.03325
Similarity = 0.03779
Similarity = 0.03041
Similarity = 0.04515
Similarity = 0.01162
Similarity = 0.02614
Similarity = 0.01442
Similarity = 0.03107
Similarity = 0.01825
Similarity = 0.02846
Similarity = 0.02779
Similarity = 0.00766
Similarity = 0.05218
Similarity = 0.02147
Similarity = 0.03308
Similarity = 0.02474
Similarity = 0.03892
Similarity = 0.02189
Similarity = 0.01026
Similarity = 0.00119
Similarity = 0.01299
Similarity = 0.00325
Similarity = 0.00837
Similarity = 0.0
Similarity = 0.00033
Similarity = 0.0057
Similarity = 0.00989
Similarity = 0.05106
Similarity = 0.00937
Similarity = 0.00692
Similarity = 0.00339
Similarity = 0.00038
Similarity = 0.00115
Similarity = 0.00467
Similarity = 0.01357
Similarity = 0.00556
Similarity = 0.01794
Similarity = 0.02838
Similarity = 0.00313
Similarity = 0.00266
Similarity = 0.00476
Similarity = 0.00088
Similarity = 0.00158
Similarity = 0.00107
Similarity = 0.00094
Similarity = 0.00154
Similarity = 0.05328
Similarity = 0.00147
Similarity = 0.00453
Similarity = 0.00162
Similarity = 0.00546
Similarity = 0.02532
Similarity = 0.01252
Similarity = 0.00596
Similarity = 0.0
Similarity = 0.01213
Similarity = 0.00135
Similarity = 0.00419
Similarity = 0.00086
Similarity = 0.01143
Similarity = 0.00136
Similarity = 0.00523
Similarity = 0.02512
Similarity = 0.00599
Similarity = 0.04507
Similarity = 0.00128
Similarity = 0.01061
Similarity = 0.06231
Similarity = 0.01385
Similarity = 0.00764
Similarity = 0.03035
Similarity = 0.01478
Similarity = 0.00185
Similarity = 0.00392
Similarity = 0.01105
Similarity = 0.00936
Similarity = 0.0356
Similarity = 0.02867
Similarity = 0.03106
Similarity = 0.00381
Similarity = 0.00149
Similarity = 0.00527
Similarity = 0.0
Similarity = 0.0209
Similarity = 0.03083
Similarity = 0.00804
Similarity = 0.07172
Similarity = 0.0055
Similarity = 0.00271
Similarity = 0.00444
Similarity = 0.09649
Similarity = 0.0112
Similarity = 0.0335
Similarity = 0.02194
Similarity = 0.0
Similarity = 0.00352
Similarity = 0.01792
Similarity = 0.00815
Similarity = 0.00354
Similarity = 0.00167
Similarity = 0.00858
Similarity = 0.0217
Similarity = 0.00902
Similarity = 0.0204
Similarity = 0.01721
Similarity = 0.02737
Similarity = 0.00519
Similarity = 0.01113
Similarity = 0.01318
Similarity = 0.00798
Similarity = 0.01038
Similarity = 0.00322
Similarity = 0.0173
Similarity = 0.01056
Similarity = 0.03172
Similarity = 0.00344
Similarity = 0.0086
Similarity = 0.01402
Similarity = 0.0257
Similarity = 0.01195
Similarity = 0.02063
Similarity = 0.04043
Similarity = 0.0011
Similarity = 0.0
Similarity = 0.01803
Similarity = 0.01105
Similarity = 0.02827
Similarity = 0.02413
Similarity = 0.01764
Similarity = 0.00931
Similarity = 0.00329
Similarity = 0.01019
Similarity = 0.01846
Similarity = 0.02965
Similarity = 0.0249
Similarity = 0.02186
Similarity = 0.04264
Similarity = 0.01165
Similarity = 0.00811
Similarity = 0.00888
Similarity = 0.01817
Similarity = 0.00916
Similarity = 0.00383
Similarity = 0.01534
Similarity = 0.01725
Similarity = 0.00134
Similarity = 0.02605
Similarity = 0.00336
Similarity = 0.00353
Similarity = 0.02006
Similarity = 0.01122
Similarity = 0.02682
Similarity = 0.01721
Similarity = 0.00919
Similarity = 0.02756
Similarity = 0.01382
Similarity = 0.01047
Similarity = 0.01766
Similarity = 0.00922
Similarity = 0.02313
Similarity = 0.02055
Similarity = 0.00288
Similarity = 0.01855
Similarity = 0.01306
Similarity = 0.02253
Similarity = 0.01861
Similarity = 0.01182
Similarity = 0.0168
Similarity = 0.00816
Similarity = 0.01154
Similarity = 0.01593
Similarity = 0.00474
Similarity = 0.00691
Similarity = 0.0
Similarity = 0.0093
Similarity = 0.00942
Similarity = 0.00621
Similarity = 0.01016
Similarity = 0.02127
Similarity = 0.01253
Similarity = 0.01088
Similarity = 0.00437
Similarity = 0.00908
Similarity = 0.0141
Similarity = 0.01741
Similarity = 0.0072
Similarity = 0.02102
Similarity = 0.00874
Similarity = 0.01069
Similarity = 0.00601
Similarity = 0.00758
Similarity = 0.00748
Similarity = 0.0034
Similarity = 0.01067
Similarity = 0.00835
Similarity = 0.00314
Similarity = 0.00788
Similarity = 0.00223
Similarity = 0.00552
Similarity = 0.00731
Similarity = 0.0089
Similarity = 0.02785
Similarity = 0.01045
Similarity = 0.01324
Similarity = 0.01212
Similarity = 0.00699
Similarity = 0.00428
Similarity = 0.00428
Similarity = 0.00461
Similarity = 0.00932
Similarity = 0.00877
Similarity = 0.00691
Similarity = 0.01329
Similarity = 0.01709
Similarity = 0.00362
Similarity = 0.00216
Similarity = 0.00753
Similarity = 0.00662
Similarity = 0.02738
Similarity = 0.02019
Similarity = 0.02514
Similarity = 0.01087
Similarity = 0.0
Similarity = 0.0
Similarity = 0.01777
Similarity = 0.05822
Similarity = 0.02956
Similarity = 0.02902
Similarity = 0.02408
Similarity = 0.00919
Similarity = 0.00363
Similarity = 0.00335
Similarity = 0.0189
Similarity = 0.02134
Similarity = 0.02318
Similarity = 0.04059
Similarity = 0.06249
Similarity = 0.01661
Similarity = 0.01014
Similarity = 0.01426
Similarity = 0.01967
Similarity = 0.0068
Similarity = 0.00958
Similarity = 0.01025
Similarity = 0.01541
Similarity = 0.01645
Similarity = 0.03232
Similarity = 0.0
Similarity = 0.00272
Similarity = 0.0416
Similarity = 0.02691
Similarity = 0.0369
Similarity = 0.0326
Similarity = 0.03568
Similarity = 0.01376
Similarity = 0.01236
Similarity = 0.0121
Similarity = 0.01757
Similarity = 0.0093
Similarity = 0.03469
Similarity = 0.04584
Similarity = 0.00097
Similarity = 0.05372
Similarity = 0.02613
Similarity = 0.02722
Similarity = 0.01076
Similarity = 0.03335
Similarity = 0.00842
Similarity = 0.02017
Similarity = 0.013
Similarity = 0.02434
Similarity = 0.01573
Similarity = 0.01771
Similarity = 0.01361
Similarity = 0.02154
Similarity = 0.02366
Similarity = 0.03364
Similarity = 0.03153
Similarity = 0.05807
Similarity = 0.02457
Similarity = 0.0155
Similarity = 0.01409
Similarity = 0.02281
Similarity = 0.02658
Similarity = 0.04899
Similarity = 0.03553
Similarity = 0.10849
Similarity = 0.04277
Similarity = 0.02963
Similarity = 0.02839
Similarity = 0.04985
Similarity = 0.01441
Similarity = 0.0191
Similarity = 0.03191
Similarity = 0.01905
Similarity = 0.00573
Similarity = 0.07663
Similarity = 0.00196
Similarity = 0.00882
Similarity = 0.04599
Similarity = 0.04071
Similarity = 0.0762
Similarity = 0.0157
Similarity = 0.02593
Similarity = 0.01909
Similarity = 0.02771
Similarity = 0.02223
Similarity = 0.01461
Similarity = 0.01821
Similarity = 0.01947
Similarity = 0.00921
Similarity = 0.01124
Similarity = 0.06066
Similarity = 0.03255
Similarity = 0.01789
Similarity = 0.01282
Similarity = 0.0322
Similarity = 0.05035
Similarity = 0.00831
Similarity = 0.00578
Similarity = 0.01067
Similarity = 0.01041
Similarity = 0.00846
Similarity = 0.0
Similarity = 0.00312
Similarity = 0.00826
Similarity = 0.02588
Similarity = 0.00541
Similarity = 0.02041
Similarity = 0.01103
Similarity = 0.00865
Similarity = 0.00732
Similarity = 0.00251
Similarity = 0.01013
Similarity = 0.02163
Similarity = 0.02279
Similarity = 0.02485
Similarity = 0.03493
Similarity = 0.00372
Similarity = 0.01448
Similarity = 0.01433
Similarity = 0.00344
Similarity = 0.00689
Similarity = 0.01478
Similarity = 0.01007
Similarity = 0.0011
Similarity = 0.02421
Similarity = 0.00401
Similarity = 0.00205
Similarity = 0.02882
Similarity = 0.00935
Similarity = 0.05111
Similarity = 0.01033
Similarity = 0.00756
Similarity = 0.00214
Similarity = 0.00729
Similarity = 0.01616
Similarity = 0.00334
Similarity = 0.00843
Similarity = 0.0086
Similarity = 0.00176
Similarity = 0.00368
Similarity = 0.02963
Similarity = 0.00972
Similarity = 0.00993
Similarity = 0.02646
Similarity = 0.01871
Similarity = 0.00912
Similarity = 0.01815
Similarity = 0.01572
Similarity = 0.02133
Similarity = 0.01043
Similarity = 0.00605
Similarity = 0.0051
Similarity = 0.01479
Similarity = 0.04915
Similarity = 0.03716
Similarity = 0.01923
Similarity = 0.05105
Similarity = 0.01898
Similarity = 0.01173
Similarity = 0.00747
Similarity = 0.01456
Similarity = 0.00888
Similarity = 0.03878
Similarity = 0.04057
Similarity = 0.05903
Similarity = 0.01129
Similarity = 0.01113
Similarity = 0.02587
Similarity = 0.0155
Similarity = 0.00742
Similarity = 0.00274
Similarity = 0.0191
Similarity = 0.01291
Similarity = 0.00502
Similarity = 0.03967
Similarity = 0.00087
Similarity = 0.00866
Similarity = 0.01145
Similarity = 0.02803
Similarity = 0.04312
Similarity = 0.04601
Similarity = 0.02591
Similarity = 0.0125
Similarity = 0.01681
Similarity = 0.00749
Similarity = 0.01259
Similarity = 0.01228
Similarity = 0.02423
Similarity = 0.01062
Similarity = 0.00549
Similarity = 0.03091
Similarity = 0.03172
Similarity = 0.02534
Similarity = 0.00614
Similarity = 0.03457
Similarity = 0.00638
Similarity = 0.0329
Similarity = 0.01254
Similarity = 0.03765
Similarity = 0.02225
Similarity = 0.01001
Similarity = 0.01765
Similarity = 0.01349
Similarity = 0.02702
Similarity = 0.07716
Similarity = 0.0589
Similarity = 0.14639
Similarity = 0.01436
Similarity = 0.0182
Similarity = 0.00926
Similarity = 0.04109
Similarity = 0.049
Similarity = 0.06649
Similarity = 0.04375
Similarity = 0.14714
Similarity = 0.02455
Similarity = 0.02607
Similarity = 0.02044
Similarity = 0.02799
Similarity = 0.01791
Similarity = 0.00895
Similarity = 0.06108
Similarity = 0.03747
Similarity = 0.00688
Similarity = 0.03926
Similarity = 0.00073
Similarity = 0.00492
Similarity = 0.03759
Similarity = 0.03543
Similarity = 0.06889
Similarity = 0.02781
Similarity = 0.03916
Similarity = 0.03064
Similarity = 0.04516
Similarity = 0.01194
Similarity = 0.01018
Similarity = 0.01938
Similarity = 0.02694
Similarity = 0.05251
Similarity = 0.01434
Similarity = 0.04053
Similarity = 0.05536
Similarity = 0.03683
Similarity = 0.01637
Similarity = 0.03799
Similarity = 0.03952
Similarity = 0.01932
Similarity = 0.01577
Similarity = 0.02075
Similarity = 0.01608
Similarity = 0.01786
Similarity = 0.0107
Similarity = 0.02209
Similarity = 0.01915
Similarity = 0.03348
Similarity = 0.02978
Similarity = 0.06434
Similarity = 0.02112
Similarity = 0.01513
Similarity = 0.01738
Similarity = 0.02373
Similarity = 0.02612
Similarity = 0.05211
Similarity = 0.03834
Similarity = 0.10093
Similarity = 0.04941
Similarity = 0.02875
Similarity = 0.0263
Similarity = 0.04314
Similarity = 0.01083
Similarity = 0.01148
Similarity = 0.02964
Similarity = 0.01986
Similarity = 0.00681
Similarity = 0.0754
Similarity = 0.0028
Similarity = 0.00781
Similarity = 0.04377
Similarity = 0.03363
Similarity = 0.08594
Similarity = 0.01929
Similarity = 0.01987
Similarity = 0.01706
Similarity = 0.04221
Similarity = 0.0148
Similarity = 0.0133
Similarity = 0.01918
Similarity = 0.02001
Similarity = 0.00575
Similarity = 0.0109
Similarity = 0.05944
Similarity = 0.028
Similarity = 0.01865
Similarity = 0.01486
Similarity = 0.0375
Similarity = 0.04071
Similarity = 0.01751
Similarity = 0.00747
Similarity = 0.00922
Similarity = 0.02565
Similarity = 0.00053
Similarity = 0.00211
Similarity = 0.00991
Similarity = 0.00818
Similarity = 0.0349
Similarity = 0.02582
Similarity = 0.01368
Similarity = 0.02775
Similarity = 0.00201
Similarity = 0.01809
Similarity = 0.00079
Similarity = 0.00598
Similarity = 0.02229
Similarity = 0.01258
Similarity = 0.02019
Similarity = 0.06942
Similarity = 0.01085
Similarity = 0.00617
Similarity = 0.01593
Similarity = 0.00291
Similarity = 0.0042
Similarity = 0.00585
Similarity = 0.00267
Similarity = 0.00392
Similarity = 0.02162
Similarity = 0.0003
Similarity = 0.00146
Similarity = 0.0021
Similarity = 0.01057
Similarity = 0.05283
Similarity = 0.02203
Similarity = 0.00537
Similarity = 0.00648
Similarity = 0.00431
Similarity = 0.00177
Similarity = 0.00706
Similarity = 0.00344
Similarity = 0.01472
Similarity = 0.0
Similarity = 0.00479
Similarity = 0.01045
Similarity = 0.00631
Similarity = 0.03312
Similarity = 0.03939
Similarity = 0.01354
Similarity = 0.00569
Similarity = 0.01526
Similarity = 0.00686
Similarity = 0.02135
Similarity = 0.01194
Similarity = 0.00262
Similarity = 0.0
Similarity = 0.01404
Similarity = 0.01333
Similarity = 0.01506
Similarity = 0.00584
Similarity = 0.01702
Similarity = 0.00321
Similarity = 0.02451
Similarity = 0.00416
Similarity = 0.0015
Similarity = 0.01675
Similarity = 0.03242
Similarity = 0.0135
Similarity = 0.02489
Similarity = 0.02135
Similarity = 0.00596
Similarity = 0.00361
Similarity = 0.0185
Similarity = 0.00093
Similarity = 0.0
Similarity = 0.00246
Similarity = 0.00122
Similarity = 0.02641
Similarity = 0.02401
Similarity = 0.0009
Similarity = 0.00315
Similarity = 0.00085
Similarity = 0.01684
Similarity = 0.04475
Similarity = 0.00987
Similarity = 0.00061
Similarity = 0.00064
Similarity = 0.02082
Similarity = 0.0
Similarity = 0.01129
Similarity = 0.00095
Similarity = 0.01139
Similarity = 0.01643
Similarity = 0.00227
Similarity = 0.01444
Similarity = 0.00729
Similarity = 0.00817
Similarity = 0.00722
Similarity = 0.01536
Similarity = 0.0593
Similarity = 0.07279
Similarity = 0.02865
Similarity = 0.05457
Similarity = 0.05271
Similarity = 0.01388
Similarity = 0.02242
Similarity = 0.02717
Similarity = 0.0427
Similarity = 0.08744
Similarity = 0.05876
Similarity = 0.10911
Similarity = 0.04209
Similarity = 0.0171
Similarity = 0.03101
Similarity = 0.05358
Similarity = 0.05416
Similarity = 0.0849
Similarity = 0.04899
Similarity = 0.14391
Similarity = 0.07597
Similarity = 0.0346
Similarity = 0.03175
Similarity = 0.05252
Similarity = 0.01631
Similarity = 0.01096
Similarity = 0.02886
Similarity = 0.04375
Similarity = 0.01943
Similarity = 0.07957
Similarity = 0.0048
Similarity = 0.00483
Similarity = 0.02926
Similarity = 0.04722
Similarity = 0.12367
Similarity = 0.06715
Similarity = 0.02923
Similarity = 0.04928
Similarity = 0.05662
Similarity = 0.02034
Similarity = 0.04299
Similarity = 0.02192
Similarity = 0.04262
Similarity = 0.03316
Similarity = 0.00926
Similarity = 0.096
Similarity = 0.06881
Similarity = 0.04344
Similarity = 0.05773
Similarity = 0.0689
Similarity = 0.03222
Similarity = 0.02393
Similarity = 0.00489
Similarity = 0.02384
Similarity = 0.01786
Similarity = 0.01035
Similarity = 0.0
Similarity = 0.00325
Similarity = 0.02456
Similarity = 0.02763
Similarity = 0.0108
Similarity = 0.12334
Similarity = 0.008
Similarity = 0.00301
Similarity = 0.0089
Similarity = 0.00607
Similarity = 0.01837
Similarity = 0.02465
Similarity = 0.01107
Similarity = 0.06068
Similarity = 0.0163
Similarity = 0.00806
Similarity = 0.01495
Similarity = 0.02373
Similarity = 0.00409
Similarity = 0.00264
Similarity = 0.01374
Similarity = 0.00495
Similarity = 0.00524
Similarity = 0.00825
Similarity = 0.00069
Similarity = 0.00641
Similarity = 0.07376
Similarity = 0.02177
Similarity = 0.03235
Similarity = 0.01142
Similarity = 0.00847
Similarity = 0.01474
Similarity = 0.03016
Similarity = 0.00789
Similarity = 0.00808
Similarity = 0.00728
Similarity = 0.00676
Similarity = 0.06157
Similarity = 0.00351
Similarity = 0.0222
Similarity = 0.0559
Similarity = 0.01544
Similarity = 0.00852
Similarity = 0.00751
Similarity = 0.00844
Similarity = 0.01792
Similarity = 0.01293
Similarity = 0.01424
Similarity = 0.00738
Similarity = 0.00664
Similarity = 0.01323
Similarity = 0.02838
Similarity = 0.01088
Similarity = 0.04618
Similarity = 0.03021
Similarity = 0.04842
Similarity = 0.02484
Similarity = 0.01517
Similarity = 0.00985
Similarity = 0.02196
Similarity = 0.02538
Similarity = 0.0397
Similarity = 0.02116
Similarity = 0.07167
Similarity = 0.0284
Similarity = 0.0073
Similarity = 0.01436
Similarity = 0.0264
Similarity = 0.00869
Similarity = 0.00218
Similarity = 0.06005
Similarity = 0.01876
Similarity = 0.01642
Similarity = 0.02692
Similarity = 0.002
Similarity = 0.0135
Similarity = 0.02211
Similarity = 0.01528
Similarity = 0.05934
Similarity = 0.02421
Similarity = 0.02686
Similarity = 0.01803
Similarity = 0.0054
Similarity = 0.0103
Similarity = 0.01069
Similarity = 0.01099
Similarity = 0.01965
Similarity = 0.01745
Similarity = 0.0036
Similarity = 0.03049
Similarity = 0.03316
Similarity = 0.01212
Similarity = 0.0126
Similarity = 0.02603
Similarity = 0.01836
Similarity = 0.01988
Similarity = 0.02709
Similarity = 0.01378
Similarity = 0.01066
Similarity = 0.00278
Similarity = 0.00843
Similarity = 0.00627
Similarity = 0.01668
Similarity = 0.01875
Similarity = 0.01339
Similarity = 0.02537
Similarity = 0.01109
Similarity = 0.00853
Similarity = 0.00685
Similarity = 0.00939
Similarity = 0.01113
Similarity = 0.02674
Similarity = 0.02564
Similarity = 0.05235
Similarity = 0.02099
Similarity = 0.01485
Similarity = 0.0113
Similarity = 0.01823
Similarity = 0.0083
Similarity = 0.00847
Similarity = 0.01349
Similarity = 0.00848
Similarity = 0.00724
Similarity = 0.02893
Similarity = 0.01851
Similarity = 0.03934
Similarity = 0.01108
Similarity = 0.02098
Similarity = 0.03855
Similarity = 0.01822
Similarity = 0.01757
Similarity = 0.01251
Similarity = 0.02687
Similarity = 0.01283
Similarity = 0.00938
Similarity = 0.01217
Similarity = 0.01133
Similarity = 0.00176
Similarity = 0.01
Similarity = 0.03183
Similarity = 0.0128
Similarity = 0.02998
Similarity = 0.0139
Similarity = 0.03085
Similarity = 0.01773
Similarity = 0.00048
Similarity = 0.0
Similarity = 0.00041
Similarity = 0.00075
Similarity = 0.0
Similarity = 0.0
Similarity = 0.00744
Similarity = 0.00084
Similarity = 0.00508
Similarity = 0.00396
Similarity = 0.00031
Similarity = 0.00543
Similarity = 0.0
Similarity = 0.0
Similarity = 0.0
Similarity = 0.0
Similarity = 0.00803
Similarity = 0.01957
Similarity = 0.01331
Similarity = 0.0
Similarity = 0.01056
Similarity = 0.00031
Similarity = 0.0
Similarity = 0.0
Similarity = 0.00253
Similarity = 0.00266
Similarity = 0.0
Similarity = 0.0
Similarity = 0.00049
Similarity = 0.0
Similarity = 0.0
Similarity = 0.00834
Similarity = 0.00124
Similarity = 0.00312
Similarity = 0.00063
Similarity = 0.0009
Similarity = 0.0
Similarity = 0.02115
Similarity = 0.00108
Similarity = 0.0
Similarity = 0.00962
Similarity = 0.01863
Similarity = 0.0
Similarity = 0.00081
Similarity = 0.0
Similarity = 0.00295
Similarity = 0.00047
Similarity = 0.00046
Similarity = 0.00275
Similarity = 0.0
Similarity = 0.03415
Similarity = 0.01164
Similarity = 0.03162
Similarity = 0.02725
Similarity = 0.03052
Similarity = 0.04553
Similarity = 0.02301
Similarity = 0.02279
Similarity = 0.03082
Similarity = 0.03765
Similarity = 0.03862
Similarity = 0.02551
Similarity = 0.02097
Similarity = 0.01856
Similarity = 0.01375
Similarity = 0.02674
Similarity = 0.06071
Similarity = 0.06305
Similarity = 0.06024
Similarity = 0.04038
Similarity = 0.01899
Similarity = 0.01562
Similarity = 0.02164
Similarity = 0.00756
Similarity = 0.01754
Similarity = 0.01499
Similarity = 0.01173
Similarity = 0.00972
Similarity = 0.03966
Similarity = 0.00123
Similarity = 0.01775
Similarity = 0.01297
Similarity = 0.04064
Similarity = 0.09328
Similarity = 0.03712
Similarity = 0.03009
Similarity = 0.01682
Similarity = 0.02658
Similarity = 0.01697
Similarity = 0.03385
Similarity = 0.01065
Similarity = 0.02977
Similarity = 0.02975
Similarity = 0.01352
Similarity = 0.04398
Similarity = 0.05405
Similarity = 0.04067
Similarity = 0.02725
Similarity = 0.07085
Similarity = 0.0176
Similarity = 0.03182
Similarity = 0.01321
Similarity = 0.02772
Similarity = 0.01803
Similarity = 0.00564
Similarity = 0.01551
Similarity = 0.02019
Similarity = 0.03406
Similarity = 0.05377
Similarity = 0.02456
Similarity = 0.06779
Similarity = 0.01983
Similarity = 0.00847
Similarity = 0.01143
Similarity = 0.02708
Similarity = 0.03911
Similarity = 0.05474
Similarity = 0.03408
Similarity = 0.11384
Similarity = 0.0272
Similarity = 0.01669
Similarity = 0.01822
Similarity = 0.02142
Similarity = 0.01199
Similarity = 0.01704
Similarity = 0.02562
Similarity = 0.02292
Similarity = 0.01003
Similarity = 0.03193
Similarity = 0.00039
Similarity = 0.00523
Similarity = 0.03202
Similarity = 0.02796
Similarity = 0.05437
Similarity = 0.02376
Similarity = 0.03937
Similarity = 0.03679
Similarity = 0.02117
Similarity = 0.01612
Similarity = 0.0169
Similarity = 0.02062
Similarity = 0.02339
Similarity = 0.09253
Similarity = 0.00357
Similarity = 0.05105
Similarity = 0.03829
Similarity = 0.0211
Similarity = 0.01275
Similarity = 0.03312
Similarity = 0.0149
Similarity = 0.01588
Similarity = 0.00839
Similarity = 0.01244
Similarity = 0.00755
Similarity = 0.03092
Similarity = 0.00226
Similarity = 0.0109
Similarity = 0.01018
Similarity = 0.02637
Similarity = 0.01469
Similarity = 0.04892
Similarity = 0.0128
Similarity = 0.01273
Similarity = 0.00593
Similarity = 0.02141
Similarity = 0.02314
Similarity = 0.03738
Similarity = 0.02503
Similarity = 0.09452
Similarity = 0.01002
Similarity = 0.01824
Similarity = 0.00984
Similarity = 0.00855
Similarity = 0.0226
Similarity = 0.00751
Similarity = 0.03681
Similarity = 0.01809
Similarity = 0.00281
Similarity = 0.02177
Similarity = 0.00149
Similarity = 0.00472
Similarity = 0.06188
Similarity = 0.01822
Similarity = 0.03633
Similarity = 0.02078
Similarity = 0.01677
Similarity = 0.02604
Similarity = 0.01871
Similarity = 0.0152
Similarity = 0.00848
Similarity = 0.01107
Similarity = 0.01878
Similarity = 0.0364
Similarity = 0.00493
Similarity = 0.0473
Similarity = 0.05188
Similarity = 0.01343
Similarity = 0.00299
Similarity = 0.02189
Similarity = 0.01348
Similarity = 0.01583
Similarity = 0.01359
Similarity = 0.01617
Similarity = 0.02191
Similarity = 0.01137
Similarity = 0.00998
Similarity = 0.01625
Similarity = 0.01599
Similarity = 0.02545
Similarity = 0.02541
Similarity = 0.03732
Similarity = 0.02692
Similarity = 0.00664
Similarity = 0.01682
Similarity = 0.0057
Similarity = 0.02299
Similarity = 0.03634
Similarity = 0.02326
Similarity = 0.04951
Similarity = 0.01902
Similarity = 0.01424
Similarity = 0.01361
Similarity = 0.01957
Similarity = 0.02453
Similarity = 0.01195
Similarity = 0.058
Similarity = 0.00498
Similarity = 0.0111
Similarity = 0.02761
Similarity = 0.00096
Similarity = 0.00991
Similarity = 0.0141
Similarity = 0.01942
Similarity = 0.04243
Similarity = 0.01251
Similarity = 0.0161
Similarity = 0.01868
Similarity = 0.01987
Similarity = 0.01144
Similarity = 0.00943
Similarity = 0.0058
Similarity = 0.01408
Similarity = 0.00843
Similarity = 0.00515
Similarity = 0.02802
Similarity = 0.02151
Similarity = 0.04067
Similarity = 0.02562
Similarity = 0.02252
Similarity = 0.01642
Similarity = 0.02826
Similarity = 0.02003
Similarity = 0.02573
Similarity = 0.03412
Similarity = 0.03579
Similarity = 0.02546
Similarity = 0.02129
Similarity = 0.04006
Similarity = 0.04215
Similarity = 0.02823
Similarity = 0.07277
Similarity = 0.0311
Similarity = 0.01091
Similarity = 0.00747
Similarity = 0.02747
Similarity = 0.05106
Similarity = 0.08192
Similarity = 0.04032
Similarity = 0.15421
Similarity = 0.03486
Similarity = 0.03645
Similarity = 0.02675
Similarity = 0.05504
Similarity = 0.01291
Similarity = 0.02305
Similarity = 0.0749
Similarity = 0.02319
Similarity = 0.01138
Similarity = 0.06337
Similarity = 0.00076
Similarity = 0.01797
Similarity = 0.04979
Similarity = 0.05442
Similarity = 0.11438
Similarity = 0.03948
Similarity = 0.06241
Similarity = 0.01749
Similarity = 0.04642
Similarity = 0.04273
Similarity = 0.03088
Similarity = 0.0197
Similarity = 0.03185
Similarity = 0.02985
Similarity = 0.01372
Similarity = 0.07099
Similarity = 0.03598
Similarity = 0.03098
Similarity = 0.02694
Similarity = 0.04167
Similarity = 0.04034
Similarity = 0.02537
Similarity = 0.00655
Similarity = 0.01833
Similarity = 0.01382
Similarity = 0.00317
Similarity = 0.0014
Similarity = 0.01054
Similarity = 0.04682
Similarity = 0.02117
Similarity = 0.02556
Similarity = 0.0289
Similarity = 0.03969
Similarity = 0.00263
Similarity = 0.00812
Similarity = 0.00132
Similarity = 0.0193
Similarity = 0.03178
Similarity = 0.01961
Similarity = 0.04053
Similarity = 0.01672
Similarity = 0.00838
Similarity = 0.00757
Similarity = 0.014
Similarity = 0.00193
Similarity = 0.00032
Similarity = 0.00896
Similarity = 0.00135
Similarity = 0.01945
Similarity = 0.02773
Similarity = 0.00109
Similarity = 0.00586
Similarity = 0.00135
Similarity = 0.02678
Similarity = 0.02396
Similarity = 0.01341
Similarity = 0.01206
Similarity = 0.00175
Similarity = 0.00517
Similarity = 0.00116
Similarity = 0.00904
Similarity = 0.00587
Similarity = 0.01504
Similarity = 0.0139
Similarity = 0.00755
Similarity = 0.00906
Similarity = 0.01585
Similarity = 0.01205
Similarity = 0.01007
Similarity = 0.00914
Similarity = 0.01115
0.023749735999999994
