Files are arxiv_abs/hep-th.updates.on.arXiv.org  arxiv_abs/quant-ph.updates.on.arXiv.org
Similarity = 0.12422
Similarity = 0.06791
Similarity = 0.04905
Similarity = 0.14799
Similarity = 0.11202
Similarity = 0.08809
Similarity = 0.05705
Similarity = 0.04896
Similarity = 0.03807
Similarity = 0.01097
Similarity = 0.01887
Similarity = 0.07228
Similarity = 0.01449
Similarity = 0.06381
Similarity = 0.13373
Similarity = 0.02873
Similarity = 0.0102
Similarity = 0.05325
Similarity = 0.01459
Similarity = 0.07652
Similarity = 0.03986
Similarity = 0.02346
Similarity = 0.03627
Similarity = 0.10835
Similarity = 0.09147
Similarity = 0.11805
Similarity = 0.03149
Similarity = 0.10523
Similarity = 0.01856
Similarity = 0.06655
Similarity = 0.05601
Similarity = 0.07873
Similarity = 0.04622
Similarity = 0.0436
Similarity = 0.03102
Similarity = 0.04429
Similarity = 0.04914
Similarity = 0.02712
Similarity = 0.11895
Similarity = 0.10255
Similarity = 0.1096
Similarity = 0.12866
Similarity = 0.12933
Similarity = 0.01417
Similarity = 0.0122
Similarity = 0.08635
Similarity = 0.16462
Similarity = 0.04655
Similarity = 0.02223
Similarity = 0.0553
Similarity = 0.12025
Similarity = 0.07207
Similarity = 0.0573
Similarity = 0.11924
Similarity = 0.11371
Similarity = 0.08605
Similarity = 0.14737
Similarity = 0.05606
Similarity = 0.03721
Similarity = 0.01828
Similarity = 0.05334
Similarity = 0.06103
Similarity = 0.01966
Similarity = 0.03862
Similarity = 0.0863
Similarity = 0.02125
Similarity = 0.01415
Similarity = 0.08994
Similarity = 0.034
Similarity = 0.08167
Similarity = 0.01818
Similarity = 0.02095
Similarity = 0.02283
Similarity = 0.0231
Similarity = 0.09007
Similarity = 0.09912
Similarity = 0.04141
Similarity = 0.10299
Similarity = 0.01421
Similarity = 0.04
Similarity = 0.05022
Similarity = 0.13252
Similarity = 0.02538
Similarity = 0.0151
Similarity = 0.04273
Similarity = 0.04938
Similarity = 0.05614
Similarity = 0.01713
Similarity = 0.09524
Similarity = 0.09047
Similarity = 0.1052
Similarity = 0.13573
Similarity = 0.06182
Similarity = 0.04403
Similarity = 0.01417
Similarity = 0.11491
Similarity = 0.17291
Similarity = 0.04083
Similarity = 0.0438
Similarity = 0.01808
Similarity = 0.01358
Similarity = 0.01812
Similarity = 0.04434
Similarity = 0.01131
Similarity = 0.01119
Similarity = 0.10838
Similarity = 0.03473
Similarity = 0.01873
Similarity = 0.03795
Similarity = 0.02399
Similarity = 0.01748
Similarity = 0.02216
Similarity = 0.01011
Similarity = 0.01325
Similarity = 0.01434
Similarity = 0.01899
Similarity = 0.00641
Similarity = 0.02649
Similarity = 0.01776
Similarity = 0.13223
Similarity = 0.01644
Similarity = 0.00986
Similarity = 0.01745
Similarity = 0.01683
Similarity = 0.01361
Similarity = 0.02845
Similarity = 0.01525
Similarity = 0.05972
Similarity = 0.02209
Similarity = 0.00666
Similarity = 0.02384
Similarity = 0.04284
Similarity = 0.04368
Similarity = 0.00497
Similarity = 0.03384
Similarity = 0.0378
Similarity = 0.01832
Similarity = 0.02063
Similarity = 0.01655
Similarity = 0.01598
Similarity = 0.03216
Similarity = 0.01537
Similarity = 0.01517
Similarity = 0.16736
Similarity = 0.02562
Similarity = 0.03928
Similarity = 0.01507
Similarity = 0.01521
Similarity = 0.02916
Similarity = 0.03667
Similarity = 0.06148
Similarity = 0.03754
Similarity = 0.05387
Similarity = 0.03947
Similarity = 0.0219
Similarity = 0.05184
Similarity = 0.04145
Similarity = 0.04331
Similarity = 0.02789
Similarity = 0.02914
Similarity = 0.00493
Similarity = 0.01272
Similarity = 0.01598
Similarity = 0.03531
Similarity = 0.03572
Similarity = 0.01966
Similarity = 0.04578
Similarity = 0.01284
Similarity = 0.04277
Similarity = 0.04238
Similarity = 0.03477
Similarity = 0.04031
Similarity = 0.06873
Similarity = 0.01785
Similarity = 0.03585
Similarity = 0.03323
Similarity = 0.02551
Similarity = 0.05389
Similarity = 0.02263
Similarity = 0.06556
Similarity = 0.03399
Similarity = 0.05467
Similarity = 0.04219
Similarity = 0.02251
Similarity = 0.0373
Similarity = 0.0266
Similarity = 0.04297
Similarity = 0.01496
Similarity = 0.05078
Similarity = 0.05815
Similarity = 0.0385
Similarity = 0.02423
Similarity = 0.03242
Similarity = 0.06753
Similarity = 0.00909
Similarity = 0.05963
Similarity = 0.04764
Similarity = 0.02168
Similarity = 0.01772
Similarity = 0.03532
Similarity = 0.04208
Similarity = 0.01706
Similarity = 0.03781
Similarity = 0.02801
Similarity = 0.03958
Similarity = 0.04351
Similarity = 0.01108
Similarity = 0.02272
Similarity = 0.03324
Similarity = 0.02551
Similarity = 0.00607
Similarity = 0.01682
Similarity = 0.01198
Similarity = 0.04209
Similarity = 0.01791
Similarity = 0.00916
Similarity = 0.03255
Similarity = 0.02194
Similarity = 0.02438
Similarity = 0.04048
Similarity = 0.02579
Similarity = 0.01903
Similarity = 0.03433
Similarity = 0.03884
Similarity = 0.03118
Similarity = 0.03873
Similarity = 0.01868
Similarity = 0.05035
Similarity = 0.01503
Similarity = 0.01948
Similarity = 0.0524
Similarity = 0.0513
Similarity = 0.02834
Similarity = 0.00766
Similarity = 0.02249
Similarity = 0.01827
Similarity = 0.02181
Similarity = 0.02158
Similarity = 0.03043
Similarity = 0.02868
Similarity = 0.03726
Similarity = 0.02522
Similarity = 0.02537
Similarity = 0.0445
Similarity = 0.00944
Similarity = 0.05502
Similarity = 0.04722
Similarity = 0.01973
Similarity = 0.01025
Similarity = 0.03365
Similarity = 0.02591
Similarity = 0.02216
Similarity = 0.02308
Similarity = 0.00926
Similarity = 0.02949
Similarity = 0.12109
Similarity = 0.04699
Similarity = 0.0168
Similarity = 0.03098
Similarity = 0.03127
Similarity = 0.0109
Similarity = 0.02133
Similarity = 0.03715
Similarity = 0.02005
Similarity = 0.02782
Similarity = 0.00768
Similarity = 0.03321
Similarity = 0.0134
Similarity = 0.01333
Similarity = 0.03121
Similarity = 0.01569
Similarity = 0.01352
Similarity = 0.01144
Similarity = 0.04022
Similarity = 0.02217
Similarity = 0.01997
Similarity = 0.0519
Similarity = 0.03177
Similarity = 0.17703
Similarity = 0.01147
Similarity = 0.04029
Similarity = 0.03142
Similarity = 0.02593
Similarity = 0.00857
Similarity = 0.02806
Similarity = 0.01773
Similarity = 0.01545
Similarity = 0.0356
Similarity = 0.02601
Similarity = 0.00881
Similarity = 0.03891
Similarity = 0.02062
Similarity = 0.01646
Similarity = 0.10894
Similarity = 0.01008
Similarity = 0.0437
Similarity = 0.02264
Similarity = 0.0187
Similarity = 0.01376
Similarity = 0.04874
Similarity = 0.03157
Similarity = 0.02986
Similarity = 0.07249
Similarity = 0.03125
Similarity = 0.04156
Similarity = 0.11798
Similarity = 0.05816
Similarity = 0.02625
Similarity = 0.0361
Similarity = 0.06014
Similarity = 0.01778
Similarity = 0.02474
Similarity = 0.04147
Similarity = 0.02968
Similarity = 0.05953
Similarity = 0.02126
Similarity = 0.06326
Similarity = 0.02479
Similarity = 0.02815
Similarity = 0.06192
Similarity = 0.03374
Similarity = 0.02149
Similarity = 0.04807
Similarity = 0.05869
Similarity = 0.03546
Similarity = 0.0271
Similarity = 0.07613
Similarity = 0.12944
Similarity = 0.03206
Similarity = 0.0094
Similarity = 0.08791
Similarity = 0.05209
Similarity = 0.02951
Similarity = 0.01622
Similarity = 0.0532
Similarity = 0.03754
Similarity = 0.03528
Similarity = 0.0439
Similarity = 0.02085
Similarity = 0.01472
Similarity = 0.03867
Similarity = 0.01413
Similarity = 0.0718
Similarity = 0.23991
Similarity = 0.00988
Similarity = 0.0986
Similarity = 0.05686
Similarity = 0.02748
Similarity = 0.037
Similarity = 0.02777
Similarity = 0.02321
Similarity = 0.00564
Similarity = 0.02568
Similarity = 0.01567
Similarity = 0.03322
Similarity = 0.03075
Similarity = 0.00927
Similarity = 0.01812
Similarity = 0.04959
Similarity = 0.00872
Similarity = 0.00936
Similarity = 0.00884
Similarity = 0.06577
Similarity = 0.02445
Similarity = 0.0102
Similarity = 0.01113
Similarity = 0.01534
Similarity = 0.01063
Similarity = 0.0063
Similarity = 0.06594
Similarity = 0.01646
Similarity = 0.00697
Similarity = 0.00992
Similarity = 0.05701
Similarity = 0.01769
Similarity = 0.01392
Similarity = 0.08632
Similarity = 0.01223
Similarity = 0.02584
Similarity = 0.00251
Similarity = 0.01487
Similarity = 0.01779
Similarity = 0.01934
Similarity = 0.00647
Similarity = 0.02936
Similarity = 0.03048
Similarity = 0.01734
Similarity = 0.02622
Similarity = 0.01685
Similarity = 0.01062
Similarity = 0.03142
Similarity = 0.0061
Similarity = 0.01258
Similarity = 0.0699
Similarity = 0.01257
Similarity = 0.01731
Similarity = 0.00977
Similarity = 0.01055
Similarity = 0.00739
Similarity = 0.04083
Similarity = 0.01993
Similarity = 0.03703
Similarity = 0.02674
Similarity = 0.01318
Similarity = 0.01204
Similarity = 0.02618
Similarity = 0.02041
Similarity = 0.04996
Similarity = 0.0548
Similarity = 0.03108
Similarity = 0.00654
Similarity = 0.02211
Similarity = 0.02037
Similarity = 0.03183
Similarity = 0.0078
Similarity = 0.01403
Similarity = 0.02227
Similarity = 0.01132
Similarity = 0.01504
Similarity = 0.0171
Similarity = 0.03181
Similarity = 0.02354
Similarity = 0.04572
Similarity = 0.07406
Similarity = 0.02846
Similarity = 0.02072
Similarity = 0.02033
Similarity = 0.02895
Similarity = 0.0152
Similarity = 0.01028
Similarity = 0.04568
Similarity = 0.0358
Similarity = 0.02738
Similarity = 0.01652
Similarity = 0.03241
Similarity = 0.06633
Similarity = 0.04938
Similarity = 0.02264
Similarity = 0.02503
Similarity = 0.02955
Similarity = 0.03126
Similarity = 0.00894
Similarity = 0.07895
Similarity = 0.03512
Similarity = 0.02697
Similarity = 0.05679
Similarity = 0.09397
Similarity = 0.03992
Similarity = 0.03287
Similarity = 0.06506
Similarity = 0.02817
Similarity = 0.01227
Similarity = 0.02477
Similarity = 0.02371
Similarity = 0.0248
Similarity = 0.03861
Similarity = 0.0077
Similarity = 0.01581
Similarity = 0.00821
Similarity = 0.02061
Similarity = 0.02318
Similarity = 0.05047
Similarity = 0.05643
Similarity = 0.00805
Similarity = 0.0114
Similarity = 0.00642
Similarity = 0.06665
Similarity = 0.01386
Similarity = 0.00419
Similarity = 0.0262
Similarity = 0.00874
Similarity = 0.01704
Similarity = 0.04429
Similarity = 0.01664
Similarity = 0.01839
Similarity = 0.0211
Similarity = 0.16053
Similarity = 0.02507
Similarity = 0.03147
Similarity = 0.00934
Similarity = 0.03856
Similarity = 0.02059
Similarity = 0.00463
Similarity = 0.02761
Similarity = 0.05961
Similarity = 0.10201
Similarity = 0.01651
Similarity = 0.00716
Similarity = 0.01947
Similarity = 0.01393
Similarity = 0.02261
Similarity = 0.02697
Similarity = 0.01379
Similarity = 0.01009
Similarity = 0.02369
Similarity = 0.02921
Similarity = 0.02804
Similarity = 0.01628
Similarity = 0.00651
Similarity = 0.03981
Similarity = 0.05005
Similarity = 0.03152
Similarity = 0.04697
Similarity = 0.02061
Similarity = 0.03464
Similarity = 0.04205
Similarity = 0.04093
Similarity = 0.0251
Similarity = 0.04507
Similarity = 0.01269
Similarity = 0.0157
Similarity = 0.02468
Similarity = 0.01394
Similarity = 0.04029
Similarity = 0.02052
Similarity = 0.01471
Similarity = 0.04292
Similarity = 0.01587
Similarity = 0.04506
Similarity = 0.05933
Similarity = 0.05614
Similarity = 0.01444
Similarity = 0.06173
Similarity = 0.08065
Similarity = 0.04884
Similarity = 0.04972
Similarity = 0.02759
Similarity = 0.04154
Similarity = 0.02113
Similarity = 0.01376
Similarity = 0.0562
Similarity = 0.04574
Similarity = 0.0192
Similarity = 0.02362
Similarity = 0.05904
Similarity = 0.04782
Similarity = 0.02509
Similarity = 0.01452
Similarity = 0.03139
Similarity = 0.0398
Similarity = 0.039
Similarity = 0.01981
Similarity = 0.08717
Similarity = 0.02228
Similarity = 0.02443
Similarity = 0.06664
Similarity = 0.03291
Similarity = 0.02196
Similarity = 0.01681
Similarity = 0.03698
Similarity = 0.01183
Similarity = 0.00205
Similarity = 0.0092
Similarity = 0.00462
Similarity = 0.0153
Similarity = 0.0603
Similarity = 0.02074
Similarity = 0.01019
Similarity = 0.01002
Similarity = 0.08713
Similarity = 0.0396
Similarity = 0.08162
Similarity = 0.02009
Similarity = 0.01807
Similarity = 0.04565
Similarity = 0.02629
Similarity = 0.06565
Similarity = 0.02562
Similarity = 0.00657
Similarity = 0.00623
Similarity = 0.04011
Similarity = 0.0457
Similarity = 0.00401
Similarity = 0.01581
Similarity = 0.01084
Similarity = 0.01435
Similarity = 0.02553
Similarity = 0.008
Similarity = 0.02064
Similarity = 0.0125
Similarity = 0.00278
Similarity = 0.01422
Similarity = 0.01467
Similarity = 0.0272
Similarity = 0.01552
Similarity = 0.11775
Similarity = 0.01009
Similarity = 0.11831
Similarity = 0.00315
Similarity = 0.01983
Similarity = 0.01941
Similarity = 0.01486
Similarity = 0.00609
Similarity = 0.01279
Similarity = 0.00451
Similarity = 0.01555
Similarity = 0.01701
Similarity = 0.00813
Similarity = 0.00959
Similarity = 0.0051
Similarity = 0.02387
Similarity = 0.00479
Similarity = 0.03926
Similarity = 0.02091
Similarity = 0.03093
Similarity = 0.05092
Similarity = 0.01746
Similarity = 0.01139
Similarity = 0.01339
Similarity = 0.01449
Similarity = 0.00618
Similarity = 0.00973
Similarity = 0.00576
Similarity = 0.01891
Similarity = 0.01927
Similarity = 0.0079
Similarity = 0.0144
Similarity = 0.01316
Similarity = 0.03849
Similarity = 0.00722
Similarity = 0.04013
Similarity = 0.01705
Similarity = 0.02489
Similarity = 0.04535
Similarity = 0.01448
Similarity = 0.00575
Similarity = 0.03032
Similarity = 0.04702
Similarity = 0.01355
Similarity = 0.00517
Similarity = 0.0113
Similarity = 0.01774
Similarity = 0.01193
Similarity = 0.0082
Similarity = 0.02892
Similarity = 0.01122
Similarity = 0.01202
Similarity = 0.00642
Similarity = 0.03261
Similarity = 0.01918
Similarity = 0.02159
Similarity = 0.03807
Similarity = 0.0299
Similarity = 0.09872
Similarity = 0.01158
Similarity = 0.02599
Similarity = 0.04435
Similarity = 0.01719
Similarity = 0.01707
Similarity = 0.04214
Similarity = 0.01778
Similarity = 0.00825
Similarity = 0.05161
Similarity = 0.05912
Similarity = 0.00491
Similarity = 0.0143
Similarity = 0.00567
Similarity = 0.00952
Similarity = 0.04626
Similarity = 0.04604
Similarity = 0.01158
Similarity = 0.00735
Similarity = 0.01527
Similarity = 0.03144
Similarity = 0.03939
Similarity = 0.02381
Similarity = 0.00459
Similarity = 0.01424
Similarity = 0.02258
Similarity = 0.00873
Similarity = 0.03305
Similarity = 0.02833
Similarity = 0.02996
Similarity = 0.02566
Similarity = 0.04987
Similarity = 0.00799
Similarity = 0.02456
Similarity = 0.08005
Similarity = 0.00838
Similarity = 0.01012
Similarity = 0.01257
Similarity = 0.02651
Similarity = 0.01444
Similarity = 0.05314
Similarity = 0.04099
Similarity = 0.00499
Similarity = 0.01472
Similarity = 0.00264
Similarity = 0.0129
Similarity = 0.0218
Similarity = 0.01367
Similarity = 0.03294
Similarity = 0.06049
Similarity = 0.01803
Similarity = 0.00734
Similarity = 0.04904
Similarity = 0.02793
Similarity = 0.01197
Similarity = 0.01555
Similarity = 0.02499
Similarity = 0.05132
Similarity = 0.01279
Similarity = 0.06086
Similarity = 0.00456
Similarity = 0.02001
Similarity = 0.013
Similarity = 0.00748
Similarity = 0.01122
Similarity = 0.01227
Similarity = 0.00953
Similarity = 0.00548
Similarity = 0.02142
Similarity = 0.0157
Similarity = 0.01078
Similarity = 0.01211
Similarity = 0.0054
Similarity = 0.00969
Similarity = 0.01359
Similarity = 0.00562
Similarity = 0.01208
Similarity = 0.02337
Similarity = 0.00546
Similarity = 0.00528
Similarity = 0.01676
Similarity = 0.0117
Similarity = 0.00724
Similarity = 0.01044
Similarity = 0.01443
Similarity = 0.01536
Similarity = 0.01382
Similarity = 0.01199
Similarity = 0.02122
Similarity = 0.00855
Similarity = 0.02879
Similarity = 0.00798
Similarity = 0.02009
Similarity = 0.01082
Similarity = 0.01311
Similarity = 0.01678
Similarity = 0.01711
Similarity = 0.01278
Similarity = 0.00509
Similarity = 0.00498
Similarity = 0.01424
Similarity = 0.00803
Similarity = 0.01092
Similarity = 0.01507
Similarity = 0.00383
Similarity = 0.01207
Similarity = 0.00762
Similarity = 0.0134
Similarity = 0.01215
Similarity = 0.01069
Similarity = 0.01771
Similarity = 0.02184
Similarity = 0.07068
Similarity = 0.01363
Similarity = 0.00407
Similarity = 0.01083
Similarity = 0.0141
Similarity = 0.03013
Similarity = 0.01221
Similarity = 0.02608
Similarity = 0.03948
Similarity = 0.0503
Similarity = 0.05068
Similarity = 0.00943
Similarity = 0.0278
Similarity = 0.00607
Similarity = 0.04057
Similarity = 0.01212
Similarity = 0.01344
Similarity = 0.01889
Similarity = 0.01271
Similarity = 0.0076
Similarity = 0.03023
Similarity = 0.02757
Similarity = 0.01865
Similarity = 0.02544
Similarity = 0.00864
Similarity = 0.01196
Similarity = 0.0106
Similarity = 0.02404
Similarity = 0.08729
Similarity = 0.02488
Similarity = 0.01434
Similarity = 0.00523
Similarity = 0.0151
Similarity = 0.00344
Similarity = 0.00644
Similarity = 0.04529
Similarity = 0.01954
Similarity = 0.02915
Similarity = 0.02725
Similarity = 0.00783
Similarity = 0.04215
Similarity = 0.01871
Similarity = 0.01819
Similarity = 0.01968
Similarity = 0.00999
Similarity = 0.03174
Similarity = 0.01504
Similarity = 0.05954
Similarity = 0.01511
Similarity = 0.02962
Similarity = 0.03487
Similarity = 0.03135
Similarity = 0.01666
Similarity = 0.00594
Similarity = 0.03733
Similarity = 0.0054
Similarity = 0.02066
Similarity = 0.03955
Similarity = 0.02521
Similarity = 0.00934
Similarity = 0.01349
Similarity = 0.08988
Similarity = 0.01334
Similarity = 0.01223
Similarity = 0.01692
Similarity = 0.07082
Similarity = 0.01345
Similarity = 0.14977
Similarity = 0.04242
Similarity = 0.02575
Similarity = 0.03165
Similarity = 0.01837
Similarity = 0.06392
Similarity = 0.04111
Similarity = 0.01256
Similarity = 0.0349
Similarity = 0.05422
Similarity = 0.01013
Similarity = 0.00318
Similarity = 0.04923
Similarity = 0.01763
Similarity = 0.01642
Similarity = 0.01259
Similarity = 0.03464
Similarity = 0.02188
Similarity = 0.01284
Similarity = 0.0152
Similarity = 0.01349
Similarity = 0.03029
Similarity = 0.02329
Similarity = 0.0228
Similarity = 0.04657
Similarity = 0.02076
Similarity = 0.01338
Similarity = 0.03663
Similarity = 0.026
Similarity = 0.01688
Similarity = 0.01714
Similarity = 0.03997
Similarity = 0.02365
Similarity = 0.02598
Similarity = 0.01585
Similarity = 0.01076
Similarity = 0.02013
Similarity = 0.02565
Similarity = 0.00193
Similarity = 0.00872
Similarity = 0.01086
Similarity = 0.02402
Similarity = 0.01232
Similarity = 0.01077
Similarity = 0.00815
Similarity = 0.00664
Similarity = 0.01213
Similarity = 0.03065
Similarity = 0.03035
Similarity = 0.00528
Similarity = 0.01132
Similarity = 0.04035
Similarity = 0.0181
Similarity = 0.01006
Similarity = 0.01091
Similarity = 0.02056
Similarity = 0.01256
Similarity = 0.00657
Similarity = 0.059
Similarity = 0.01865
Similarity = 0.01703
Similarity = 0.00952
Similarity = 0.02
Similarity = 0.01059
Similarity = 0.01217
Similarity = 0.0131
Similarity = 0.01272
Similarity = 0.0041
Similarity = 0.02416
Similarity = 0.0145
Similarity = 0.03234
Similarity = 0.01538
Similarity = 0.00293
Similarity = 0.02244
Similarity = 0.02753
Similarity = 0.01677
Similarity = 0.01283
Similarity = 0.02668
Similarity = 0.02704
Similarity = 0.00988
Similarity = 0.03251
Similarity = 0.00908
Similarity = 0.0283
Similarity = 0.0791
Similarity = 0.02278
Similarity = 0.03308
Similarity = 0.02848
Similarity = 0.02632
Similarity = 0.01056
Similarity = 0.01678
Similarity = 0.00965
Similarity = 0.02282
Similarity = 0.01388
Similarity = 0.01899
Similarity = 0.04467
Similarity = 0.01102
Similarity = 0.01902
Similarity = 0.03434
Similarity = 0.03608
Similarity = 0.02661
Similarity = 0.06469
Similarity = 0.05111
Similarity = 0.01776
Similarity = 0.02099
Similarity = 0.02664
Similarity = 0.07375
Similarity = 0.02415
Similarity = 0.018
Similarity = 0.0157
Similarity = 0.03474
Similarity = 0.02268
Similarity = 0.0094
Similarity = 0.04891
Similarity = 0.03391
Similarity = 0.02866
Similarity = 0.01667
Similarity = 0.02074
Similarity = 0.01079
Similarity = 0.04421
Similarity = 0.02438
Similarity = 0.0338
Similarity = 0.07041
Similarity = 0.02818
Similarity = 0.06934
Similarity = 0.03395
Similarity = 0.01172
Similarity = 0.00924
Similarity = 0.10621
Similarity = 0.01448
Similarity = 0.01995
Similarity = 0.02621
Similarity = 0.00728
Similarity = 0.02762
Similarity = 0.05038
Similarity = 0.01984
Similarity = 0.01107
Similarity = 0.02597
Similarity = 0.06702
Similarity = 0.00801
Similarity = 0.01124
Similarity = 0.05647
Similarity = 0.02005
Similarity = 0.03959
Similarity = 0.00578
Similarity = 0.05475
Similarity = 0.03187
Similarity = 0.02639
Similarity = 0.02408
Similarity = 0.02597
Similarity = 0.03824
Similarity = 0.04073
Similarity = 0.07302
Similarity = 0.05945
Similarity = 0.00214
Similarity = 0.11119
Similarity = 0.03455
Similarity = 0.06
Similarity = 0.0098
Similarity = 0.03327
Similarity = 0.01883
Similarity = 0.00384
Similarity = 0.01931
Similarity = 0.01521
Similarity = 0.03063
Similarity = 0.01258
Similarity = 0.02867
Similarity = 0.01017
Similarity = 0.01105
Similarity = 0.01455
Similarity = 0.01088
Similarity = 0.03505
Similarity = 0.01694
Similarity = 0.01196
Similarity = 0.01548
Similarity = 0.02409
Similarity = 0.01738
Similarity = 0.00319
Similarity = 0.05279
Similarity = 0.01733
Similarity = 0.01862
Similarity = 0.05905
Similarity = 0.02008
Similarity = 0.02638
Similarity = 0.02815
Similarity = 0.20492
Similarity = 0.05554
Similarity = 0.02356
Similarity = 0.01738
Similarity = 0.11391
Similarity = 0.04274
Similarity = 0.02631
Similarity = 0.02571
Similarity = 0.05215
Similarity = 0.01941
Similarity = 0.01197
Similarity = 0.06735
Similarity = 0.01362
Similarity = 0.08301
Similarity = 0.0232
Similarity = 0.03041
Similarity = 0.00902
Similarity = 0.028
Similarity = 0.0738
Similarity = 0.0135
Similarity = 0.02722
Similarity = 0.0551
Similarity = 0.03919
Similarity = 0.03008
Similarity = 0.09643
Similarity = 0.03192
Similarity = 0.01581
Similarity = 0.02923
Similarity = 0.0344
Similarity = 0.04147
Similarity = 0.05953
Similarity = 0.02927
Similarity = 0.01134
Similarity = 0.01251
Similarity = 0.01875
Similarity = 0.05372
Similarity = 0.01964
Similarity = 0.06763
Similarity = 0.02932
Similarity = 0.01659
Similarity = 0.09559
Similarity = 0.0122
Similarity = 0.04959
Similarity = 0.01631
Similarity = 0.01375
Similarity = 0.00997
Similarity = 0.03623
Similarity = 0.02511
Similarity = 0.03222
Similarity = 0.06711
Similarity = 0.03529
Similarity = 0.01343
Similarity = 0.02579
Similarity = 0.06904
Similarity = 0.00233
Similarity = 0.02561
Similarity = 0.03386
Similarity = 0.01536
Similarity = 0.04393
Similarity = 0.05513
Similarity = 0.0175
Similarity = 0.02479
Similarity = 0.02394
Similarity = 0.03471
Similarity = 0.0141
Similarity = 0.02375
Similarity = 0.03123
Similarity = 0.02664
Similarity = 0.01424
Similarity = 0.03569
Similarity = 0.0687
Similarity = 0.03306
Similarity = 0.01803
Similarity = 0.01241
Similarity = 0.02544
Similarity = 0.04037
Similarity = 0.02096
Similarity = 0.00626
Similarity = 0.05329
Similarity = 0.05069
Similarity = 0.01408
Similarity = 0.04267
Similarity = 0.00593
Similarity = 0.02092
Similarity = 0.0458
Similarity = 0.01909
Similarity = 0.06568
Similarity = 0.07122
Similarity = 0.01012
Similarity = 0.05443
Similarity = 0.03502
Similarity = 0.01924
Similarity = 0.02655
Similarity = 0.03124
Similarity = 0.06021
Similarity = 0.031
Similarity = 0.0547
Similarity = 0.04316
Similarity = 0.05976
Similarity = 0.04749
Similarity = 0.0233
Similarity = 0.03753
Similarity = 0.04105
Similarity = 0.06056
Similarity = 0.07959
Similarity = 0.03202
Similarity = 0.07874
Similarity = 0.02447
Similarity = 0.07139
Similarity = 0.02161
Similarity = 0.01335
Similarity = 0.02807
Similarity = 0.01796
Similarity = 0.05665
Similarity = 0.01958
Similarity = 0.05325
Similarity = 0.0287
Similarity = 0.0441
Similarity = 0.03474
Similarity = 0.03774
Similarity = 0.10425
Similarity = 0.07261
Similarity = 0.03733
Similarity = 0.04213
Similarity = 0.08181
Similarity = 0.05829
Similarity = 0.01443
Similarity = 0.02969
Similarity = 0.11057
Similarity = 0.06736
Similarity = 0.03687
Similarity = 0.02579
Similarity = 0.04793
Similarity = 0.0533
Similarity = 0.0651
Similarity = 0.05187
Similarity = 0.07063
Similarity = 0.01375
Similarity = 0.03091
Similarity = 0.09894
Similarity = 0.05181
Similarity = 0.02292
Similarity = 0.02944
Similarity = 0.05379
Similarity = 0.02181
Similarity = 0.00615
Similarity = 0.03153
Similarity = 0.01429
Similarity = 0.03013
Similarity = 0.04542
Similarity = 0.05212
Similarity = 0.02153
Similarity = 0.02317
Similarity = 0.20942
Similarity = 0.02006
Similarity = 0.01748
Similarity = 0.10741
Similarity = 0.02258
Similarity = 0.07953
Similarity = 0.00788
Similarity = 0.06891
Similarity = 0.01988
Similarity = 0.01047
Similarity = 0.05085
Similarity = 0.07148
Similarity = 0.01961
Similarity = 0.0788
Similarity = 0.05123
Similarity = 0.02958
Similarity = 0.02224
Similarity = 0.08715
Similarity = 0.06249
Similarity = 0.05705
Similarity = 0.02557
Similarity = 0.02872
Similarity = 0.01686
Similarity = 0.03202
Similarity = 0.06325
Similarity = 0.04777
Similarity = 0.03388
Similarity = 0.02427
Similarity = 0.05081
Similarity = 0.12752
Similarity = 0.00968
Similarity = 0.04218
Similarity = 0.00928
Similarity = 0.04418
Similarity = 0.02969
Similarity = 0.00575
Similarity = 0.0684
Similarity = 0.02076
Similarity = 0.01426
Similarity = 0.01367
Similarity = 0.01176
Similarity = 0.02453
Similarity = 0.00954
Similarity = 0.02798
Similarity = 0.01133
Similarity = 0.04088
Similarity = 0.06717
Similarity = 0.03158
Similarity = 0.01277
Similarity = 0.01868
Similarity = 0.0482
Similarity = 0.1224
Similarity = 0.02757
Similarity = 0.08922
Similarity = 0.01829
Similarity = 0.04463
Similarity = 0.00673
Similarity = 0.03679
Similarity = 0.01201
Similarity = 0.01141
Similarity = 0.02696
Similarity = 0.00927
Similarity = 0.01953
Similarity = 0.00526
Similarity = 0.06189
Similarity = 0.01219
Similarity = 0.02651
Similarity = 0.08261
Similarity = 0.06528
Similarity = 0.07176
Similarity = 0.01105
Similarity = 0.03156
Similarity = 0.02363
Similarity = 0.01903
Similarity = 0.00687
Similarity = 0.03134
Similarity = 0.07408
Similarity = 0.01612
Similarity = 0.04212
Similarity = 0.00573
Similarity = 0.00693
Similarity = 0.02553
Similarity = 0.00785
Similarity = 0.06035
Similarity = 0.0304
Similarity = 0.00937
Similarity = 0.06106
Similarity = 0.00798
Similarity = 0.01889
Similarity = 0.01306
Similarity = 0.04047
Similarity = 0.0256
Similarity = 0.01518
Similarity = 0.03577
Similarity = 0.02194
Similarity = 0.02331
Similarity = 0.06048
Similarity = 0.0135
Similarity = 0.04916
Similarity = 0.02115
Similarity = 0.02434
Similarity = 0.00346
Similarity = 0.01559
Similarity = 0.01538
Similarity = 0.03003
Similarity = 0.0392
Similarity = 0.00907
Similarity = 0.01077
Similarity = 0.03191
Similarity = 0.04292
Similarity = 0.03509
Similarity = 0.03448
Similarity = 0.0075
Similarity = 0.01615
Similarity = 0.02104
Similarity = 0.04214
Similarity = 0.01492
Similarity = 0.02201
Similarity = 0.04193
Similarity = 0.0082
Similarity = 0.01901
Similarity = 0.01962
Similarity = 0.14814
Similarity = 0.035
Similarity = 0.0281
Similarity = 0.01823
Similarity = 0.01829
Similarity = 0.04585
Similarity = 0.02009
Similarity = 0.04654
Similarity = 0.03657
Similarity = 0.02903
Similarity = 0.01298
Similarity = 0.02869
Similarity = 0.07429
Similarity = 0.01644
Similarity = 0.0174
Similarity = 0.04795
Similarity = 0.0134
Similarity = 0.00595
Similarity = 0.02986
Similarity = 0.0196
Similarity = 0.01036
Similarity = 0.03144
Similarity = 0.01639
Similarity = 0.0188
Similarity = 0.01634
Similarity = 0.04884
Similarity = 0.02258
Similarity = 0.02891
Similarity = 0.02299
Similarity = 0.01964
Similarity = 0.0115
Similarity = 0.00262
Similarity = 0.01786
Similarity = 0.01786
Similarity = 0.0094
Similarity = 0.00534
Similarity = 0.02984
Similarity = 0.02206
Similarity = 0.02229
Similarity = 0.00817
Similarity = 0.00912
Similarity = 0.01242
Similarity = 0.01361
Similarity = 0.02099
Similarity = 0.01355
Similarity = 0.00795
Similarity = 0.02359
Similarity = 0.01201
Similarity = 0.0203
Similarity = 0.01777
Similarity = 0.04727
Similarity = 0.01359
Similarity = 0.00891
Similarity = 0.02509
Similarity = 0.015
Similarity = 0.02484
Similarity = 0.0036
Similarity = 0.05951
Similarity = 0.01687
Similarity = 0.01435
Similarity = 0.02193
Similarity = 0.00785
Similarity = 0.05345
Similarity = 0.00678
Similarity = 0.03784
Similarity = 0.07222
Similarity = 0.00591
Similarity = 0.01816
Similarity = 0.01327
Similarity = 0.03664
Similarity = 0.01293
Similarity = 0.0155
Similarity = 0.01786
Similarity = 0.02029
Similarity = 0.01878
Similarity = 0.00478
Similarity = 0.01815
Similarity = 0.02221
Similarity = 0.01802
Similarity = 0.00328
Similarity = 0.01455
Similarity = 0.01594
Similarity = 0.01874
Similarity = 0.01579
Similarity = 0.00506
Similarity = 0.01331
Similarity = 0.01999
Similarity = 0.01718
Similarity = 0.0406
Similarity = 0.01968
Similarity = 0.03214
Similarity = 0.00164
Similarity = 0.04728
Similarity = 0.02756
Similarity = 0.01341
Similarity = 0.03775
Similarity = 0.02096
Similarity = 0.00808
Similarity = 0.01294
Similarity = 0.04768
Similarity = 0.01867
Similarity = 0.01733
Similarity = 0.01268
Similarity = 0.01374
Similarity = 0.02135
Similarity = 0.01545
Similarity = 0.01276
Similarity = 0.02037
Similarity = 0.0558
Similarity = 0.00827
Similarity = 0.0079
Similarity = 0.01198
Similarity = 0.01017
Similarity = 0.01796
Similarity = 0.02279
Similarity = 0.01021
Similarity = 0.00939
Similarity = 0.01803
Similarity = 0.0115
Similarity = 0.01308
Similarity = 0.02422
Similarity = 0.00929
Similarity = 0.01895
Similarity = 0.02141
Similarity = 0.04457
Similarity = 0.01002
Similarity = 0.009
Similarity = 0.031
Similarity = 0.01286
Similarity = 0.0126
Similarity = 0.0181
Similarity = 0.02379
Similarity = 0.01012
Similarity = 0.01647
Similarity = 0.00938
Similarity = 0.01705
Similarity = 0.01179
Similarity = 0.00482
Similarity = 0.02263
Similarity = 0.00625
Similarity = 0.02239
Similarity = 0.02984
Similarity = 0.01898
Similarity = 0.01502
Similarity = 0.02305
Similarity = 0.01655
Similarity = 0.04286
Similarity = 0.02011
Similarity = 0.00495
Similarity = 0.01091
Similarity = 0.01579
Similarity = 0.01763
Similarity = 0.00679
Similarity = 0.03615
Similarity = 0.01034
Similarity = 0.00855
Similarity = 0.04361
Similarity = 0.01369
Similarity = 0.01528
Similarity = 0.03265
Similarity = 0.01518
Similarity = 0.02053
Similarity = 0.01563
Similarity = 0.00729
Similarity = 0.02962
Similarity = 0.01729
Similarity = 0.00501
Similarity = 0.00699
Similarity = 0.05013
Similarity = 0.00672
Similarity = 0.00242
Similarity = 0.01498
Similarity = 0.00737
Similarity = 0.00849
Similarity = 0.03511
Similarity = 0.00548
Similarity = 0.02371
Similarity = 0.01252
Similarity = 0.01835
Similarity = 0.0072
Similarity = 0.01599
Similarity = 0.02349
Similarity = 0.03942
Similarity = 0.0073
Similarity = 0.00593
Similarity = 0.02667
Similarity = 0.00949
Similarity = 0.01715
Similarity = 0.02209
Similarity = 0.0074
Similarity = 0.00545
Similarity = 0.00434
Similarity = 0.0092
Similarity = 0.01601
Similarity = 0.00618
Similarity = 0.02979
Similarity = 0.02498
Similarity = 0.03878
Similarity = 0.04265
Similarity = 0.02234
Similarity = 0.00609
Similarity = 0.00993
Similarity = 0.0293
Similarity = 0.00628
Similarity = 0.01491
Similarity = 0.02358
Similarity = 0.01318
Similarity = 0.00423
Similarity = 0.00651
Similarity = 0.02061
Similarity = 0.00338
Similarity = 0.00768
Similarity = 0.04312
Similarity = 0.00685
Similarity = 0.00826
Similarity = 0.01233
Similarity = 0.01343
Similarity = 0.00372
Similarity = 0.02634
Similarity = 0.0427
Similarity = 0.01309
Similarity = 0.02785
Similarity = 0.01282
Similarity = 0.04542
Similarity = 0.06712
Similarity = 0.01129
Similarity = 0.0143
Similarity = 0.01494
Similarity = 0.02526
Similarity = 0.00928
Similarity = 0.01767
Similarity = 0.02804
Similarity = 0.01651
Similarity = 0.03321
Similarity = 0.01817
Similarity = 0.05752
Similarity = 0.0208
Similarity = 0.01196
Similarity = 0.1582
Similarity = 0.01663
Similarity = 0.03033
Similarity = 0.0096
Similarity = 0.05538
Similarity = 0.03428
Similarity = 0.03377
Similarity = 0.0379
Similarity = 0.03964
Similarity = 0.01692
Similarity = 0.01416
Similarity = 0.05355
Similarity = 0.03043
Similarity = 0.03127
Similarity = 0.00954
Similarity = 0.03803
Similarity = 0.08425
Similarity = 0.01683
Similarity = 0.03052
Similarity = 0.02904
Similarity = 0.00757
Similarity = 0.03783
Similarity = 0.00684
Similarity = 0.04327
Similarity = 0.03573
Similarity = 0.01842
Similarity = 0.08475
Similarity = 0.02728
Similarity = 0.03163
Similarity = 0.01169
Similarity = 0.02742
Similarity = 0.02701
Similarity = 0.02495
Similarity = 0.05667
Similarity = 0.02257
Similarity = 0.00934
Similarity = 0.09391
Similarity = 0.02795
Similarity = 0.02277
Similarity = 0.05313
Similarity = 0.02917
Similarity = 0.00408
Similarity = 0.02203
Similarity = 0.02898
Similarity = 0.02675
Similarity = 0.01298
Similarity = 0.02867
Similarity = 0.01517
Similarity = 0.01642
Similarity = 0.02219
Similarity = 0.0163
Similarity = 0.05634
Similarity = 0.01814
Similarity = 0.0058
Similarity = 0.07929
Similarity = 0.01878
Similarity = 0.01772
Similarity = 0.02317
Similarity = 0.04245
Similarity = 0.02551
Similarity = 0.02344
Similarity = 0.01692
Similarity = 0.05914
Similarity = 0.01535
Similarity = 0.02257
Similarity = 0.03338
Similarity = 0.01344
Similarity = 0.02496
Similarity = 0.01204
Similarity = 0.03823
Similarity = 0.01924
Similarity = 0.048
Similarity = 0.01616
Similarity = 0.02698
Similarity = 0.17811
Similarity = 0.01533
Similarity = 0.04038
Similarity = 0.02618
Similarity = 0.01896
Similarity = 0.01621
Similarity = 0.05065
Similarity = 0.02211
Similarity = 0.019
Similarity = 0.01168
Similarity = 0.01019
Similarity = 0.00992
Similarity = 0.0156
Similarity = 0.01896
Similarity = 0.0055
Similarity = 0.00985
Similarity = 0.00612
Similarity = 0.00285
Similarity = 0.01389
Similarity = 0.01351
Similarity = 0.01579
Similarity = 0.00981
Similarity = 0.00328
Similarity = 0.02134
Similarity = 0.00629
Similarity = 0.00624
Similarity = 0.01205
Similarity = 0.00847
Similarity = 0.02487
Similarity = 0.02778
Similarity = 0.02378
Similarity = 0.02379
Similarity = 0.02886
Similarity = 0.02791
Similarity = 0.02576
Similarity = 0.0122
Similarity = 0.01905
Similarity = 0.01056
Similarity = 0.03091
Similarity = 0.05683
Similarity = 0.00526
Similarity = 0.02532
Similarity = 0.00383
Similarity = 0.0049
Similarity = 0.01434
Similarity = 0.01354
Similarity = 0.00797
Similarity = 0.02153
Similarity = 0.00715
Similarity = 0.00549
Similarity = 0.01757
Similarity = 0.00384
Similarity = 0.01407
Similarity = 0.01507
Similarity = 0.00945
Similarity = 0.00376
Similarity = 0.01999
Similarity = 0.02586
Similarity = 0.0191
Similarity = 0.04188
Similarity = 0.01434
Similarity = 0.02225
Similarity = 0.04572
Similarity = 0.02659
Similarity = 0.00893
Similarity = 0.0411
Similarity = 0.06337
Similarity = 0.00824
Similarity = 0.02315
Similarity = 0.04301
Similarity = 0.02481
Similarity = 0.02384
Similarity = 0.01164
Similarity = 0.0326
Similarity = 0.02406
Similarity = 0.04245
Similarity = 0.03633
Similarity = 0.05923
Similarity = 0.02674
Similarity = 0.03298
Similarity = 0.08281
Similarity = 0.01593
Similarity = 0.01437
Similarity = 0.01432
Similarity = 0.08122
Similarity = 0.03031
Similarity = 0.01018
Similarity = 0.06485
Similarity = 0.01565
Similarity = 0.02478
Similarity = 0.02442
Similarity = 0.07136
Similarity = 0.06807
Similarity = 0.02238
Similarity = 0.01086
Similarity = 0.01336
Similarity = 0.0442
Similarity = 0.01204
Similarity = 0.01892
Similarity = 0.1122
Similarity = 0.01361
Similarity = 0.01635
Similarity = 0.1938
Similarity = 0.03476
Similarity = 0.02472
Similarity = 0.01986
Similarity = 0.07193
Similarity = 0.1032
Similarity = 0.04015
Similarity = 0.18864
Similarity = 0.05188
Similarity = 0.04795
Similarity = 0.06958
Similarity = 0.028
Similarity = 0.05052
Similarity = 0.06749
Similarity = 0.0823
Similarity = 0.00853
Similarity = 0.04514
Similarity = 0.0161
Similarity = 0.0252
Similarity = 0.03759
Similarity = 0.01725
Similarity = 0.01781
Similarity = 0.02341
Similarity = 0.03081
Similarity = 0.05474
Similarity = 0.02797
Similarity = 0.01803
Similarity = 0.0229
Similarity = 0.01684
Similarity = 0.03358
Similarity = 0.05119
Similarity = 0.04689
Similarity = 0.05083
Similarity = 0.01587
Similarity = 0.02962
Similarity = 0.16788
Similarity = 0.05983
Similarity = 0.02442
Similarity = 0.03956
Similarity = 0.03788
Similarity = 0.02061
Similarity = 0.05472
Similarity = 0.01094
Similarity = 0.03757
Similarity = 0.03717
Similarity = 0.04862
Similarity = 0.04046
Similarity = 0.03939
Similarity = 0.07888
Similarity = 0.0215
Similarity = 0.02996
Similarity = 0.0539
Similarity = 0.01777
Similarity = 0.02158
Similarity = 0.02346
Similarity = 0.01138
Similarity = 0.02351
Similarity = 0.02946
Similarity = 0.00389
Similarity = 0.01353
Similarity = 0.03009
Similarity = 0.02036
Similarity = 0.00809
Similarity = 0.01897
Similarity = 0.05475
Similarity = 0.02719
Similarity = 0.01466
Similarity = 0.02399
Similarity = 0.01308
Similarity = 0.00736
Similarity = 0.01186
Similarity = 0.07843
Similarity = 0.00988
Similarity = 0.00993
Similarity = 0.01528
Similarity = 0.01346
Similarity = 0.02986
Similarity = 0.11798
Similarity = 0.01597
Similarity = 0.00518
Similarity = 0.01412
Similarity = 0.01376
Similarity = 0.04088
Similarity = 0.03755
Similarity = 0.00772
Similarity = 0.01379
Similarity = 0.03734
Similarity = 0.00751
Similarity = 0.00265
Similarity = 0.05657
Similarity = 0.02404
Similarity = 0.00925
Similarity = 0.00722
Similarity = 0.04799
Similarity = 0.00934
Similarity = 0.04966
Similarity = 0.00366
Similarity = 0.03165
Similarity = 0.04098
Similarity = 0.00404
Similarity = 0.04295
Similarity = 0.01523
Similarity = 0.00715
Similarity = 0.00837
Similarity = 0.05067
Similarity = 0.03913
Similarity = 0.02686
Similarity = 0.14624
Similarity = 0.0234
Similarity = 0.036
Similarity = 0.06233
Similarity = 0.0407
Similarity = 0.05906
Similarity = 0.05741
Similarity = 0.02765
Similarity = 0.00744
Similarity = 0.04118
Similarity = 0.0278
Similarity = 0.03953
Similarity = 0.02993
Similarity = 0.00648
Similarity = 0.06372
Similarity = 0.05145
Similarity = 0.02114
Similarity = 0.04487
Similarity = 0.01102
Similarity = 0.0061
Similarity = 0.03511
Similarity = 0.01465
Similarity = 0.07001
Similarity = 0.0299
Similarity = 0.03808
Similarity = 0.07021
Similarity = 0.10648
Similarity = 0.00599
Similarity = 0.28801
Similarity = 0.02159
Similarity = 0.01976
Similarity = 0.00577
Similarity = 0.01201
Similarity = 0.02238
Similarity = 0.06295
Similarity = 0.01305
Similarity = 0.02067
Similarity = 0.01998
Similarity = 0.03374
Similarity = 0.03386
Similarity = 0.0599
Similarity = 0.05468
Similarity = 0.01597
Similarity = 0.06761
Similarity = 0.02187
Similarity = 0.0368
Similarity = 0.00993
Similarity = 0.01776
Similarity = 0.01951
Similarity = 0.02075
Similarity = 0.07128
Similarity = 0.01036
Similarity = 0.01191
Similarity = 0.04639
Similarity = 0.03509
Similarity = 0.03071
Similarity = 0.02994
Similarity = 0.04138
Similarity = 0.00617
Similarity = 0.06157
Similarity = 0.0216
Similarity = 0.02872
Similarity = 0.01424
Similarity = 0.00877
Similarity = 0.0371
Similarity = 0.00926
Similarity = 0.01775
Similarity = 0.02038
Similarity = 0.07002
Similarity = 0.01765
Similarity = 0.05195
Similarity = 0.03811
Similarity = 0.02661
Similarity = 0.01314
Similarity = 0.01648
Similarity = 0.06292
Similarity = 0.04381
Similarity = 0.01764
Similarity = 0.02925
Similarity = 0.02478
Similarity = 0.02613
Similarity = 0.01632
Similarity = 0.06905
Similarity = 0.05173
Similarity = 0.03359
Similarity = 0.01279
Similarity = 0.02791
Similarity = 0.03411
Similarity = 0.05367
Similarity = 0.00835
Similarity = 0.02164
Similarity = 0.02783
Similarity = 0.02349
Similarity = 0.02833
Similarity = 0.02505
Similarity = 0.01569
Similarity = 0.00876
Similarity = 0.04278
Similarity = 0.01588
Similarity = 0.01222
Similarity = 0.01932
Similarity = 0.00655
Similarity = 0.02743
Similarity = 0.01891
Similarity = 0.01413
Similarity = 0.01177
Similarity = 0.0083
Similarity = 0.00752
Similarity = 0.00084
Similarity = 0.00816
Similarity = 0.02919
Similarity = 0.01396
Similarity = 0.01569
Similarity = 0.00946
Similarity = 0.016
Similarity = 0.02012
Similarity = 0.00426
Similarity = 0.02018
Similarity = 0.00975
Similarity = 0.02663
Similarity = 0.00702
Similarity = 0.01169
Similarity = 0.01847
Similarity = 0.00767
Similarity = 0.01731
Similarity = 0.02136
Similarity = 0.05762
Similarity = 0.00672
Similarity = 0.00983
Similarity = 0.00818
Similarity = 0.01701
Similarity = 0.01033
Similarity = 0.11141
Similarity = 0.01817
Similarity = 0.01232
Similarity = 0.00914
Similarity = 0.00884
Similarity = 0.01015
Similarity = 0.03053
Similarity = 0.0068
Similarity = 0.0067
Similarity = 0.02113
Similarity = 0.00481
Similarity = 0.02889
Similarity = 0.00974
Similarity = 0.00524
Similarity = 0.00737
Similarity = 0.0098
Similarity = 0.04114
Similarity = 0.02959
Similarity = 0.02183
Similarity = 0.00805
Similarity = 0.01056
Similarity = 0.02555
Similarity = 0.00933
Similarity = 0.01012
Similarity = 0.02004
Similarity = 0.01375
Similarity = 0.00417
Similarity = 0.01344
Similarity = 0.0155
Similarity = 0.03082
Similarity = 0.0066
Similarity = 0.01508
Similarity = 0.01475
Similarity = 0.00776
Similarity = 0.01619
Similarity = 0.01437
Similarity = 0.01376
Similarity = 0.01539
Similarity = 0.01652
Similarity = 0.00866
Similarity = 0.00747
Similarity = 0.01691
Similarity = 0.01322
Similarity = 0.0314
Similarity = 0.03967
Similarity = 0.00918
Similarity = 0.02002
Similarity = 0.01445
Similarity = 0.01211
Similarity = 0.00841
Similarity = 0.02883
Similarity = 0.04479
Similarity = 0.01083
Similarity = 0.01248
Similarity = 0.04373
Similarity = 0.03537
Similarity = 0.01631
Similarity = 0.00522
Similarity = 0.04648
Similarity = 0.02922
Similarity = 0.01435
Similarity = 0.0177
Similarity = 0.02715
Similarity = 0.00891
Similarity = 0.01564
Similarity = 0.02127
Similarity = 0.03831
Similarity = 0.02696
Similarity = 0.02778
Similarity = 0.03268
Similarity = 0.03929
Similarity = 0.02041
Similarity = 0.02685
Similarity = 0.02163
Similarity = 0.05678
Similarity = 0.014
Similarity = 0.00578
Similarity = 0.02337
Similarity = 0.02438
Similarity = 0.02937
Similarity = 0.04092
Similarity = 0.01095
Similarity = 0.02845
Similarity = 0.02261
Similarity = 0.01914
Similarity = 0.0738
Similarity = 0.01628
Similarity = 0.02434
Similarity = 0.02547
Similarity = 0.0189
Similarity = 0.02062
Similarity = 0.05637
Similarity = 0.01735
Similarity = 0.04374
Similarity = 0.03453
Similarity = 0.02792
Similarity = 0.03513
Similarity = 0.05866
Similarity = 0.0757
Similarity = 0.02686
Similarity = 0.03196
Similarity = 0.05885
Similarity = 0.0295
Similarity = 0.01117
Similarity = 0.03518
Similarity = 0.0434
Similarity = 0.03422
Similarity = 0.02718
Similarity = 0.08522
Similarity = 0.05179
Similarity = 0.00764
Similarity = 0.11859
Similarity = 0.04261
Similarity = 0.01375
Similarity = 0.00978
Similarity = 0.02561
Similarity = 0.09797
Similarity = 0.03754
Similarity = 0.05455
Similarity = 0.06544
Similarity = 0.05908
Similarity = 0.04404
Similarity = 0.01594
Similarity = 0.0265
Similarity = 0.04362
Similarity = 0.02635
Similarity = 0.00377
Similarity = 0.03803
Similarity = 0.01512
Similarity = 0.03913
Similarity = 0.03149
Similarity = 0.02078
Similarity = 0.02156
Similarity = 0.02583
Similarity = 0.02519
Similarity = 0.05541
Similarity = 0.01517
Similarity = 0.01338
Similarity = 0.02337
Similarity = 0.03657
Similarity = 0.06867
Similarity = 0.07317
Similarity = 0.02651
Similarity = 0.07183
Similarity = 0.00861
Similarity = 0.02587
Similarity = 0.07216
Similarity = 0.06101
Similarity = 0.02174
Similarity = 0.01129
Similarity = 0.11784
Similarity = 0.02372
Similarity = 0.03553
Similarity = 0.01051
Similarity = 0.03893
Similarity = 0.04651
Similarity = 0.07259
Similarity = 0.0607
Similarity = 0.05145
Similarity = 0.02227
Similarity = 0.01845
Similarity = 0.0429
Similarity = 0.07139
Similarity = 0.02813
Similarity = 0.00991
Similarity = 0.02693
Similarity = 0.02035
Similarity = 0.014
Similarity = 0.03732
Similarity = 0.00531
Similarity = 0.01504
Similarity = 0.07986
Similarity = 0.01862
Similarity = 0.01794
Similarity = 0.02586
Similarity = 0.01711
Similarity = 0.01519
Similarity = 0.05983
Similarity = 0.04198
Similarity = 0.01032
Similarity = 0.01287
Similarity = 0.01153
Similarity = 0.05805
Similarity = 0.02629
Similarity = 0.00952
Similarity = 0.00914
Similarity = 0.00941
Similarity = 0.01089
Similarity = 0.09542
Similarity = 0.00808
Similarity = 0.00517
Similarity = 0.01681
Similarity = 0.03002
Similarity = 0.04884
Similarity = 0.04113
Similarity = 0.01658
Similarity = 0.02571
Similarity = 0.01599
Similarity = 0.03093
Similarity = 0.03751
Similarity = 0.03186
Similarity = 0.01234
Similarity = 0.01585
Similarity = 0.01412
Similarity = 0.01524
Similarity = 0.00596
Similarity = 0.04074
Similarity = 0.04018
Similarity = 0.01174
Similarity = 0.04551
Similarity = 0.00204
Similarity = 0.02788
Similarity = 0.0174
Similarity = 0.0345
Similarity = 0.02452
Similarity = 0.02265
Similarity = 0.04004
Similarity = 0.02079
Similarity = 0.05585
Similarity = 0.02845
Similarity = 0.02657
Similarity = 0.13131
Similarity = 0.01791
Similarity = 0.04115
Similarity = 0.03113
Similarity = 0.06496
Similarity = 0.03339
Similarity = 0.04112
Similarity = 0.05319
Similarity = 0.01559
Similarity = 0.01901
Similarity = 0.01384
Similarity = 0.01997
Similarity = 0.01505
Similarity = 0.00975
Similarity = 0.02561
Similarity = 0.00376
Similarity = 0.01198
Similarity = 0.00994
Similarity = 0.00544
Similarity = 0.02224
Similarity = 0.02517
Similarity = 0.05056
Similarity = 0.02689
Similarity = 0.06083
Similarity = 0.01798
Similarity = 0.18033
Similarity = 0.02708
Similarity = 0.01384
Similarity = 0.02284
Similarity = 0.02753
Similarity = 0.07383
Similarity = 0.04552
Similarity = 0.00953
Similarity = 0.01472
Similarity = 0.02104
Similarity = 0.13315
Similarity = 0.03224
Similarity = 0.0434
Similarity = 0.12595
Similarity = 0.03188
Similarity = 0.03062
Similarity = 0.03072
Similarity = 0.01054
Similarity = 0.02247
Similarity = 0.01772
Similarity = 0.04981
Similarity = 0.03617
Similarity = 0.02415
Similarity = 0.05156
Similarity = 0.06659
Similarity = 0.07697
Similarity = 0.01456
Similarity = 0.01922
Similarity = 0.03241
Similarity = 0.00889
Similarity = 0.00577
Similarity = 0.02822
Similarity = 0.02658
Similarity = 0.01727
Similarity = 0.01964
Similarity = 0.02164
Similarity = 0.00883
Similarity = 0.0204
Similarity = 0.00702
Similarity = 0.03643
Similarity = 0.00425
Similarity = 0.03977
Similarity = 0.01564
Similarity = 0.0102
Similarity = 0.04844
Similarity = 0.0436
Similarity = 0.0523
Similarity = 0.03085
Similarity = 0.03902
Similarity = 0.01948
Similarity = 0.02717
Similarity = 0.03011
Similarity = 0.01706
Similarity = 0.00929
Similarity = 0.03505
Similarity = 0.0097
Similarity = 0.01899
Similarity = 0.0276
Similarity = 0.02387
Similarity = 0.02759
Similarity = 0.09456
Similarity = 0.05329
Similarity = 0.03321
Similarity = 0.04655
Similarity = 0.00492
Similarity = 0.0527
Similarity = 0.05021
Similarity = 0.01635
Similarity = 0.00686
Similarity = 0.01148
Similarity = 0.04499
Similarity = 0.0377
Similarity = 0.07665
Similarity = 0.07592
Similarity = 0.03783
Similarity = 0.10476
Similarity = 0.02957
Similarity = 0.03444
Similarity = 0.04308
Similarity = 0.0231
Similarity = 0.00918
Similarity = 0.02439
Similarity = 0.01565
Similarity = 0.02899
Similarity = 0.0356
Similarity = 0.02463
Similarity = 0.03335
Similarity = 0.03204
Similarity = 0.03308
Similarity = 0.07542
Similarity = 0.0651
Similarity = 0.01247
Similarity = 0.04228
Similarity = 0.08373
Similarity = 0.04799
Similarity = 0.04902
Similarity = 0.04133
Similarity = 0.07774
Similarity = 0.0161
Similarity = 0.02279
Similarity = 0.02153
Similarity = 0.06496
Similarity = 0.04465
Similarity = 0.02071
Similarity = 0.05251
Similarity = 0.03879
Similarity = 0.03581
Similarity = 0.01567
Similarity = 0.03506
Similarity = 0.04049
Similarity = 0.0556
Similarity = 0.04018
Similarity = 0.06113
Similarity = 0.05097
Similarity = 0.01715
Similarity = 0.06465
Similarity = 0.09869
Similarity = 0.01844
Similarity = 0.01511
Similarity = 0.03312
Similarity = 0.04078
Similarity = 0.02348
Similarity = 0.02023
Similarity = 0.03995
Similarity = 0.021
Similarity = 0.0234
Similarity = 0.02179
Similarity = 0.01912
Similarity = 0.02811
Similarity = 0.01366
Similarity = 0.00427
Similarity = 0.02157
Similarity = 0.01225
Similarity = 0.03252
Similarity = 0.01687
Similarity = 0.01326
Similarity = 0.0185
Similarity = 0.01643
Similarity = 0.03358
Similarity = 0.02789
Similarity = 0.01436
Similarity = 0.00874
Similarity = 0.04055
Similarity = 0.01725
Similarity = 0.03889
Similarity = 0.02068
Similarity = 0.00739
Similarity = 0.02605
Similarity = 0.03012
Similarity = 0.02151
Similarity = 0.04251
Similarity = 0.03022
Similarity = 0.02267
Similarity = 0.0179
Similarity = 0.0281
Similarity = 0.01558
Similarity = 0.01898
Similarity = 0.00471
Similarity = 0.02244
Similarity = 0.04581
Similarity = 0.04222
Similarity = 0.02511
Similarity = 0.06005
Similarity = 0.01961
Similarity = 0.01726
Similarity = 0.04365
Similarity = 0.05149
Similarity = 0.01113
Similarity = 0.00876
Similarity = 0.02937
Similarity = 0.01149
Similarity = 0.02333
Similarity = 0.02198
Similarity = 0.02166
Similarity = 0.04748
Similarity = 0.03357
Similarity = 0.04819
Similarity = 0.01429
Similarity = 0.01635
Similarity = 0.00576
Similarity = 0.01016
Similarity = 0.06125
Similarity = 0.09606
Similarity = 0.01657
Similarity = 0.02228
Similarity = 0.01504
Similarity = 0.03303
Similarity = 0.01396
Similarity = 0.00897
Similarity = 0.02486
Similarity = 0.00555
Similarity = 0.01682
Similarity = 0.02871
Similarity = 0.03185
Similarity = 0.00505
Similarity = 0.02242
Similarity = 0.07047
Similarity = 0.03695
Similarity = 0.16411
Similarity = 0.00647
Similarity = 0.036
Similarity = 0.02062
Similarity = 0.02833
Similarity = 0.05749
Similarity = 0.03966
Similarity = 0.06105
Similarity = 0.01293
Similarity = 0.06341
Similarity = 0.01935
Similarity = 0.00951
Similarity = 0.03481
Similarity = 0.02058
Similarity = 0.0049
Similarity = 0.01691
Similarity = 0.00813
Similarity = 0.03676
Similarity = 0.02088
Similarity = 0.00538
Similarity = 0.02472
Similarity = 0.02185
Similarity = 0.01662
Similarity = 0.01095
Similarity = 0.06571
Similarity = 0.01885
Similarity = 0.0564
Similarity = 0.06593
Similarity = 0.02188
Similarity = 0.0186
Similarity = 0.03584
Similarity = 0.01033
Similarity = 0.00597
Similarity = 0.02036
Similarity = 0.01627
Similarity = 0.01645
Similarity = 0.00993
Similarity = 0.01607
Similarity = 0.00891
Similarity = 0.00822
Similarity = 0.02083
Similarity = 0.02149
Similarity = 0.01446
Similarity = 0.02493
Similarity = 0.01686
Similarity = 0.01537
Similarity = 0.02204
Similarity = 0.01646
Similarity = 0.00731
Similarity = 0.03862
Similarity = 0.01527
Similarity = 0.00792
Similarity = 0.01185
Similarity = 0.01336
Similarity = 0.02089
Similarity = 0.00184
Similarity = 0.04569
Similarity = 0.02561
Similarity = 0.01835
Similarity = 0.009
Similarity = 0.01531
Similarity = 0.01225
Similarity = 0.02714
Similarity = 0.0195
Similarity = 0.06844
Similarity = 0.0996
Similarity = 0.01006
Similarity = 0.01384
Similarity = 0.02611
Similarity = 0.01432
Similarity = 0.00985
Similarity = 0.0353
Similarity = 0.01762
Similarity = 0.01112
Similarity = 0.01988
Similarity = 0.01577
Similarity = 0.0257
Similarity = 0.04614
Similarity = 0.02517
Similarity = 0.03964
Similarity = 0.03227
Similarity = 0.03769
Similarity = 0.01209
Similarity = 0.01469
Similarity = 0.01471
Similarity = 0.01584
Similarity = 0.02467
Similarity = 0.00805
Similarity = 0.04098
Similarity = 0.01242
Similarity = 0.04339
Similarity = 0.10741
Similarity = 0.02345
Similarity = 0.01642
Similarity = 0.03024
Similarity = 0.01093
Similarity = 0.01368
Similarity = 0.01918
Similarity = 0.02892
Similarity = 0.03592
Similarity = 0.03347
Similarity = 0.0167
Similarity = 0.04343
Similarity = 0.05279
Similarity = 0.04332
Similarity = 0.00893
Similarity = 0.05896
Similarity = 0.03735
Similarity = 0.03863
Similarity = 0.01955
Similarity = 0.0123
Similarity = 0.01796
Similarity = 0.02776
Similarity = 0.00864
Similarity = 0.08586
Similarity = 0.05237
Similarity = 0.00948
Similarity = 0.06997
Similarity = 0.02706
Similarity = 0.01233
Similarity = 0.01446
Similarity = 0.0293
0.030448375999999944
