CLASS6:all+0.21635883905013192 also+0.4393139841688654 base+0.3482849604221636 between+0.41688654353562005 both+0.3337730870712401 data+0.3812664907651715 differ+0.32717678100263853 effect+0.26649076517150394 find+0.3100263852242744 first+0.3733509234828496 has+0.32717678100263853 have+0.36015831134564646 high+0.3759894459102902 it+0.28891820580474936 larg+0.28232189973614774 method+0.2836411609498681 more+0.27440633245382584 observ+1.0 one+0.35092348284960423 paper+0.20976253298153033 perform+0.21372031662269128 present+0.35092348284960423 propos+0.20844327176781002 provid+1.0 studi+0.38786279683377306 system+0.37467018469656993 than+0.3007915567282322 time+1.0 two+1.0 where+0.22031662269129287 
CLASS7:all+0.2910144927536232 also+0.423768115942029 base+0.4295652173913043 between+0.35594202898550725 both+0.3466666666666667 data+0.31478260869565217 differ+0.3391304347826087 effect+0.24985507246376812 find+0.23246376811594202 first+0.4057971014492754 has+0.32811594202898553 have+0.3553623188405797 high+0.2782608695652174 it+0.26956521739130435 larg+0.24405797101449275 method+0.34956521739130436 more+0.28057971014492755 one+0.41043478260869565 paper+0.29739130434782607 perform+0.30144927536231886 present+0.3060869565217391 propos+0.3443478260869565 provid+1.0 studi+0.3988405797101449 system+0.3571014492753623 than+0.26492753623188403 time+1.0 two+1.0 where+0.2753623188405797 
CLASS1:all+0.27891406709829314 also+0.42296939376103593 base+0.38066509711595053 between+0.31827545615067687 both+0.25750441436138904 data+0.33821365509123014 differ+0.30503237198351973 effect+0.2794290759270159 find+0.2786933490288405 first+0.3035609181871689 has+0.34476162448499115 have+0.39309888169511475 high+0.3459387875220718 it+0.29031783402001177 larg+0.293481459682166 method+0.2900235432607416 more+0.2900235432607416 observ+0.3238669805768099 one+0.29399646851088873 paper+0.2600058858151854 perform+0.28354914655679814 present+0.3065038257798705 propos+0.2753090052972337 provid+0.31827545615067687 studi+0.3836815773984697 system+0.32438198940553264 than+0.3107710417892878 time+1.0 where+0.27655974102413183 
CLASS2:all+0.28230650420456493 also+0.3830444482581088 base+0.3633087351982152 between+0.39643041015960184 both+0.32864252617127165 data+0.28951432984383046 differ+0.37480693324180536 effect+0.27235284022653167 find+0.29208855328642525 first+0.37600823751501633 has+0.33722327097992105 have+0.3926548824437961 high+0.3010125278874206 it+0.28951432984383046 larg+0.2648017847949202 method+0.2943195469366741 more+0.27115153595332075 observ+0.3061609747726103 one+0.4014072421486185 paper+0.2618843315599794 perform+0.2704650763686288 present+0.30581774498026426 propos+0.29792345975630685 studi+0.38681997597391454 system+0.32932898575596364 than+0.2929466277672902 time+1.0 two+1.0 where+0.31096619186545393 
CLASS0:all+0.27105177658977464 also+0.4193815163777062 base+0.39176536609859114 between+0.3692884780104557 both+0.28703074696517705 data+0.3247482056886316 differ+0.35345718758307 effect+0.2971320554095165 find+0.2748323832590011 first+0.28880290634137695 has+0.341170215908084 have+0.41146587116401334 high+0.32253300646838173 it+0.2767226865936143 larg+0.2806509732108574 method+0.31198865817999233 more+0.29217000915615676 observ+0.2960096878045899 one+0.3381870809581475 paper+0.2700475529432614 perform+0.2876805387364504 present+0.2996426145257997 propos+0.29559618395014325 provid+0.32312372626044833 studi+0.3991198275098207 system+0.29857931890007977 than+0.27264672002835455 two+0.3920902619842278 where+0.26154118793750186 
