Files are 20_newsgroups/comp.sys.ibm.pc.hardware  20_newsgroups/comp.sys.mac.hardware
Similarity = 0.00903
Similarity = 0.02443
Similarity = 0.03286
Similarity = 0.04713
Similarity = 0.02839
Similarity = 0.01084
Similarity = 0.05297
Similarity = 0.01754
Similarity = 0.01511
Similarity = 0.01707
Similarity = 0.00678
Similarity = 0.01262
Similarity = 0.02994
Similarity = 0.02443
Similarity = 0.01116
Similarity = 0.06525
Similarity = 0.02366
Similarity = 0.04344
Similarity = 0.08993
Similarity = 0.04556
Similarity = 0.01235
Similarity = 0.03698
Similarity = 0.03449
Similarity = 0.03308
Similarity = 0.02726
Similarity = 0.07285
Similarity = 0.02909
Similarity = 0.02414
Similarity = 0.02536
Similarity = 0.02354
Similarity = 0.02082
Similarity = 0.16052
Similarity = 0.02581
Similarity = 0.035
Similarity = 0.12219
Similarity = 0.00185
Similarity = 0.04772
Similarity = 0.01557
Similarity = 0.0196
Similarity = 0.01814
Similarity = 0.04632
Similarity = 0.03649
Similarity = 0.06213
Similarity = 0.02946
Similarity = 0.0146
Similarity = 0.01549
Similarity = 0.02232
Similarity = 0.01755
Similarity = 0.03063
Similarity = 0.01973
Similarity = 0.01611
Similarity = 0.01531
Similarity = 0.00406
Similarity = 0.00575
Similarity = 0.00699
Similarity = 0.00524
Similarity = 0.00839
Similarity = 0.0013
Similarity = 0.0001
Similarity = 0.00674
Similarity = 0.00563
Similarity = 0.00175
Similarity = 0.01383
Similarity = 0.00338
Similarity = 0.02777
Similarity = 0.00547
Similarity = 0.00559
Similarity = 0.02194
Similarity = 0.00117
Similarity = 0.03152
Similarity = 0.00348
Similarity = 0.01403
Similarity = 0.01159
Similarity = 0.01748
Similarity = 0.00167
Similarity = 0.03997
Similarity = 0.03295
Similarity = 0.00314
Similarity = 0.00089
Similarity = 0.0019
Similarity = 0.08032
Similarity = 0.0006
Similarity = 0.01166
Similarity = 0.02601
Similarity = 0.01044
Similarity = 0.01091
Similarity = 0.0096
Similarity = 0.01544
Similarity = 0.00138
Similarity = 0.00622
Similarity = 0.00033
Similarity = 0.0376
Similarity = 0.02409
Similarity = 0.01328
Similarity = 0.01761
Similarity = 0.0328
Similarity = 0.03246
Similarity = 0.00572
Similarity = 0.00049
Similarity = 0.00269
Similarity = 0.01118
Similarity = 0.01466
Similarity = 0.00426
Similarity = 0.04565
Similarity = 0.17196
Similarity = 0.01071
Similarity = 0.06295
Similarity = 0.06749
Similarity = 0.02293
Similarity = 0.02149
Similarity = 0.00096
Similarity = 0.01684
Similarity = 0.13924
Similarity = 0.08119
Similarity = 0.00398
Similarity = 0.01222
Similarity = 0.01807
Similarity = 0.01699
Similarity = 0.00485
Similarity = 0.02987
Similarity = 0.01262
Similarity = 0.008
Similarity = 0.02262
Similarity = 0.03869
Similarity = 0.0069
Similarity = 0.05955
Similarity = 0.04737
Similarity = 0.01048
Similarity = 0.10828
Similarity = 0.00987
Similarity = 0.04545
Similarity = 0.00204
Similarity = 0.00724
Similarity = 0.02487
Similarity = 0.08245
Similarity = 0.00357
Similarity = 0.00441
Similarity = 0.00426
Similarity = 0.04142
Similarity = 0.00867
Similarity = 0.0009
Similarity = 0.01712
Similarity = 0.02554
Similarity = 0.0071
Similarity = 0.00516
Similarity = 0.00852
Similarity = 0.02805
Similarity = 0.00588
Similarity = 0.00987
Similarity = 0.02952
Similarity = 0.0085
Similarity = 0.04974
Similarity = 0.00997
Similarity = 0.0152
Similarity = 0.05107
Similarity = 0.01386
Similarity = 0.04901
Similarity = 0.04638
Similarity = 0.01722
Similarity = 0.0193
Similarity = 0.01017
Similarity = 0.01404
Similarity = 0.03086
Similarity = 0.02717
Similarity = 0.00269
Similarity = 0.04997
Similarity = 0.02819
Similarity = 0.01829
Similarity = 0.00394
Similarity = 0.01442
Similarity = 0.02677
Similarity = 0.01764
Similarity = 0.04511
Similarity = 0.04198
Similarity = 0.02391
Similarity = 0.14623
Similarity = 0.04042
Similarity = 0.03531
Similarity = 0.02858
Similarity = 0.02062
Similarity = 0.05096
Similarity = 0.02614
Similarity = 0.02948
Similarity = 0.06164
Similarity = 0.09033
Similarity = 0.00245
Similarity = 0.05014
Similarity = 0.0165
Similarity = 0.07036
Similarity = 0.03237
Similarity = 0.00951
Similarity = 0.07619
Similarity = 0.0398
Similarity = 0.01904
Similarity = 0.048
Similarity = 0.01805
Similarity = 0.03258
Similarity = 0.02908
Similarity = 0.03047
Similarity = 0.02689
Similarity = 0.0104
Similarity = 0.04295
Similarity = 0.01669
Similarity = 0.08493
Similarity = 0.03628
Similarity = 0.06647
Similarity = 0.06722
Similarity = 0.07355
Similarity = 0.03104
Similarity = 0.02001
Similarity = 0.0032
Similarity = 0.00287
Similarity = 0.03474
Similarity = 0.03253
Similarity = 0.01162
Similarity = 0.06585
Similarity = 0.01558
Similarity = 0.00606
Similarity = 0.00994
Similarity = 0.01578
Similarity = 0.00633
Similarity = 0.00789
Similarity = 0.04315
Similarity = 0.01892
Similarity = 0.00137
Similarity = 0.055
Similarity = 0.03142
Similarity = 0.01509
Similarity = 0.07413
Similarity = 0.00873
Similarity = 0.07426
Similarity = 0.07227
Similarity = 0.01798
Similarity = 0.01631
Similarity = 0.1821
Similarity = 0.00666
Similarity = 0.02967
Similarity = 0.01916
Similarity = 0.01713
Similarity = 0.02098
Similarity = 0.0032
Similarity = 0.04654
Similarity = 0.07812
Similarity = 0.01694
Similarity = 0.03071
Similarity = 0.01638
Similarity = 0.00681
Similarity = 0.01267
Similarity = 0.01671
Similarity = 0.00569
Similarity = 0.0095
Similarity = 0.04872
Similarity = 0.0158
Similarity = 0.0079
Similarity = 0.02309
Similarity = 0.01466
Similarity = 0.01381
Similarity = 0.00727
Similarity = 0.01308
Similarity = 0.01277
Similarity = 0.02997
Similarity = 0.02304
Similarity = 0.00187
Similarity = 0.00836
Similarity = 0.00766
Similarity = 0.03338
Similarity = 0.01126
Similarity = 0.03838
Similarity = 0.00158
Similarity = 0.03075
Similarity = 0.01654
Similarity = 0.01011
Similarity = 0.06453
Similarity = 0.0164
Similarity = 0.00449
Similarity = 0.08239
Similarity = 0.01532
Similarity = 0.0141
Similarity = 0.02363
Similarity = 0.00576
Similarity = 0.01056
Similarity = 0.03124
Similarity = 0.01997
Similarity = 0.03814
Similarity = 0.07045
Similarity = 0.00059
Similarity = 0.00877
Similarity = 0.00945
Similarity = 0.00883
Similarity = 0.01201
Similarity = 0.005
Similarity = 0.0502
Similarity = 0.04288
Similarity = 0.00947
Similarity = 0.0238
Similarity = 0.0037
Similarity = 0.03336
Similarity = 0.02424
Similarity = 0.02965
Similarity = 0.02491
Similarity = 0.01937
Similarity = 0.06121
Similarity = 0.04047
Similarity = 0.11149
Similarity = 0.04935
Similarity = 0.04259
Similarity = 0.07501
Similarity = 0.04924
Similarity = 0.06258
Similarity = 0.06192
Similarity = 0.01005
Similarity = 0.0283
Similarity = 0.0392
Similarity = 0.04917
Similarity = 0.0201
Similarity = 0.09242
Similarity = 0.00899
Similarity = 0.04308
Similarity = 0.01008
Similarity = 0.04609
Similarity = 0.01743
Similarity = 0.06689
Similarity = 0.05642
Similarity = 0.05526
Similarity = 0.01078
Similarity = 0.14874
Similarity = 0.19781
Similarity = 0.02666
Similarity = 0.05401
Similarity = 0.04368
Similarity = 0.04157
Similarity = 0.08373
Similarity = 0.13167
Similarity = 0.06453
Similarity = 0.21405
Similarity = 0.00436
Similarity = 0.04908
Similarity = 0.0308
Similarity = 0.05942
Similarity = 0.01459
Similarity = 0.01734
Similarity = 0.0944
Similarity = 0.08096
Similarity = 0.04273
Similarity = 0.03399
Similarity = 0.02071
Similarity = 0.10768
Similarity = 0.05519
Similarity = 0.03425
Similarity = 0.0389
Similarity = 0.00548
Similarity = 0.01588
Similarity = 0.00666
Similarity = 0.00795
Similarity = 0.02709
Similarity = 0.00875
Similarity = 0.00572
Similarity = 0.04825
Similarity = 0.00567
Similarity = 0.00413
Similarity = 0.00191
Similarity = 0.00308
Similarity = 0.01958
Similarity = 0.02443
Similarity = 0.00149
Similarity = 0.03411
Similarity = 0.00336
Similarity = 0.01316
Similarity = 0.08208
Similarity = 0.02442
Similarity = 0.00884
Similarity = 0.00583
Similarity = 0.00969
Similarity = 0.01506
Similarity = 0.00129
Similarity = 0.02447
Similarity = 0.00773
Similarity = 0.00228
Similarity = 0.00558
Similarity = 0.01571
Similarity = 0.00236
Similarity = 0.12771
Similarity = 0.01658
Similarity = 0.00952
Similarity = 0.08615
Similarity = 1e-05
Similarity = 0.00219
Similarity = 0.01832
Similarity = 0.00543
Similarity = 0.00152
Similarity = 0.04644
Similarity = 0.01923
Similarity = 0.04751
Similarity = 0.00229
Similarity = 0.00085
Similarity = 0.00048
Similarity = 0.00839
Similarity = 0.00764
Similarity = 0.00515
Similarity = 0.00363
Similarity = 0.00839
Similarity = 0.02425
Similarity = 0.01474
Similarity = 0.06007
Similarity = 0.02584
Similarity = 0.00826
Similarity = 0.0604
Similarity = 0.00675
Similarity = 0.03216
Similarity = 0.08556
Similarity = 0.00777
Similarity = 0.0134
Similarity = 0.00858
Similarity = 0.00643
Similarity = 0.02589
Similarity = 0.02232
Similarity = 0.00955
Similarity = 0.00709
Similarity = 0.00724
Similarity = 0.01665
Similarity = 0.01993
Similarity = 0.00503
Similarity = 0.05336
Similarity = 0.05593
Similarity = 0.00222
Similarity = 0.04065
Similarity = 0.02811
Similarity = 0.01428
Similarity = 0.00714
Similarity = 0.00923
Similarity = 0.03848
Similarity = 0.01029
Similarity = 0.09319
Similarity = 0.01806
Similarity = 0.06577
Similarity = 0.00028
Similarity = 0.02762
Similarity = 0.01437
Similarity = 0.0183
Similarity = 0.01066
Similarity = 0.00587
Similarity = 0.05197
Similarity = 0.03691
Similarity = 0.02064
Similarity = 0.00989
Similarity = 0.00749
Similarity = 0.01516
Similarity = 0.01566
Similarity = 0.0151
Similarity = 0.02654
Similarity = 0.00315
Similarity = 0.02929
Similarity = 0.01157
Similarity = 0.01733
Similarity = 0.06926
Similarity = 0.007
Similarity = 0.03388
Similarity = 0.03778
Similarity = 0.0473
Similarity = 0.04049
Similarity = 0.00266
Similarity = 0.00896
Similarity = 0.05719
Similarity = 0.08001
Similarity = 0.00754
Similarity = 0.02939
Similarity = 0.02394
Similarity = 0.04619
Similarity = 0.00785
Similarity = 0.02061
Similarity = 0.00865
Similarity = 0.02911
Similarity = 0.04618
Similarity = 0.03237
Similarity = 0.02251
Similarity = 0.09555
Similarity = 0.02147
Similarity = 0.00532
Similarity = 0.04824
Similarity = 0.01139
Similarity = 0.04605
Similarity = 0.00568
Similarity = 0.02082
Similarity = 0.02727
Similarity = 0.05798
Similarity = 0.00143
Similarity = 0.0068
Similarity = 0.01842
Similarity = 0.01473
Similarity = 0.0199
Similarity = 0.00566
Similarity = 0.0418
Similarity = 0.05321
Similarity = 0.01155
Similarity = 0.01312
Similarity = 0.00805
Similarity = 0.00568
Similarity = 0.02295
Similarity = 0.02503
Similarity = 0.02038
Similarity = 0.00847
Similarity = 0.0161
Similarity = 0.00967
Similarity = 0.06757
Similarity = 0.02427
Similarity = 0.02371
Similarity = 0.00896
Similarity = 0.06774
Similarity = 0.00894
Similarity = 0.00564
Similarity = 0.01625
Similarity = 0.00037
Similarity = 0.01873
Similarity = 0.018
Similarity = 0.0
Similarity = 0.02169
Similarity = 0.00851
Similarity = 0.01741
Similarity = 0.00025
Similarity = 0.02937
Similarity = 0.00125
Similarity = 0.01504
Similarity = 0.00672
Similarity = 0.00687
Similarity = 0.01665
Similarity = 0.04939
Similarity = 0.08049
Similarity = 0.00281
Similarity = 0.0217
Similarity = 0.00188
Similarity = 0.00827
Similarity = 0.03301
Similarity = 0.01211
Similarity = 0.02082
Similarity = 0.04686
Similarity = 2e-05
Similarity = 0.00149
Similarity = 0.01557
Similarity = 0.0003
Similarity = 0.02243
Similarity = 0.00182
Similarity = 0.0166
Similarity = 0.07494
Similarity = 0.00575
Similarity = 0.00119
Similarity = 0.00846
Similarity = 0.0066
Similarity = 0.00474
Similarity = 0.00288
Similarity = 0.00058
Similarity = 0.00306
Similarity = 0.00192
Similarity = 0.0
Similarity = 0.01819
Similarity = 0.06737
Similarity = 0.00029
Similarity = 0.08486
Similarity = 0.04176
Similarity = 0.01692
Similarity = 0.00824
Similarity = 0.01556
Similarity = 0.01009
Similarity = 0.05748
Similarity = 0.04568
Similarity = 0.0
Similarity = 0.01972
Similarity = 0.00965
Similarity = 0.00515
Similarity = 0.0
Similarity = 0.00055
Similarity = 0.00019
Similarity = 0.00157
Similarity = 0.03383
Similarity = 0.03522
Similarity = 0.00471
Similarity = 0.02793
Similarity = 0.02067
Similarity = 0.01356
Similarity = 0.03742
Similarity = 0.00099
Similarity = 0.02026
Similarity = 0.0
Similarity = 0.0291
Similarity = 0.00979
Similarity = 0.03405
Similarity = 0.0
Similarity = 0.00048
Similarity = 0.01832
Similarity = 0.06095
Similarity = 0.00066
Similarity = 0.00106
Similarity = 0.03969
Similarity = 0.01246
Similarity = 0.00238
Similarity = 0.01415
Similarity = 0.00832
Similarity = 0.0
Similarity = 0.01326
Similarity = 0.00112
Similarity = 0.01111
Similarity = 0.00241
Similarity = 0.0416
Similarity = 0.02997
Similarity = 0.02301
Similarity = 0.01081
Similarity = 0.01483
Similarity = 0.0617
Similarity = 0.00533
Similarity = 0.00705
Similarity = 0.01577
Similarity = 0.02113
Similarity = 0.00547
Similarity = 0.01446
Similarity = 0.01077
Similarity = 0.01011
Similarity = 0.02517
Similarity = 0.00753
Similarity = 0.06546
Similarity = 0.00413
Similarity = 0.03542
Similarity = 0.01234
Similarity = 0.01196
Similarity = 0.02196
Similarity = 0.02511
Similarity = 0.00118
Similarity = 0.08529
Similarity = 0.01588
Similarity = 0.00241
Similarity = 0.01798
Similarity = 0.03072
Similarity = 0.00899
Similarity = 0.01702
Similarity = 0.0269
Similarity = 0.03558
Similarity = 0.08611
Similarity = 0.00328
Similarity = 0.04648
Similarity = 0.01452
Similarity = 0.00861
Similarity = 0.05626
Similarity = 0.00329
Similarity = 0.02748
Similarity = 0.052
Similarity = 0.00671
Similarity = 0.00841
Similarity = 0.0157
Similarity = 0.01462
Similarity = 0.01282
Similarity = 0.02204
Similarity = 0.01473
Similarity = 0.0415
Similarity = 0.00636
Similarity = 0.00235
Similarity = 0.00084
Similarity = 0.0043
Similarity = 0.0033
Similarity = 0.00657
Similarity = 0.00026
Similarity = 0.03087
Similarity = 0.01347
Similarity = 0.00402
Similarity = 0.00279
Similarity = 0.00632
Similarity = 0.00056
Similarity = 0.00289
Similarity = 0.00936
Similarity = 0.00114
Similarity = 0.0075
Similarity = 0.00263
Similarity = 0.01054
Similarity = 0.00145
Similarity = 0.00161
Similarity = 0.00395
Similarity = 0.00859
Similarity = 0.00154
Similarity = 0.02793
Similarity = 0.01936
Similarity = 8e-05
Similarity = 0.00184
Similarity = 0.00671
Similarity = 0.002
Similarity = 0.01058
Similarity = 0.01748
Similarity = 0.00398
Similarity = 0.03001
Similarity = 1e-05
Similarity = 0.00484
Similarity = 0.00419
Similarity = 0.00029
Similarity = 0.00757
Similarity = 0.00119
Similarity = 0.00307
Similarity = 0.01366
Similarity = 0.01064
Similarity = 0.0197
Similarity = 0.00416
Similarity = 0.00472
Similarity = 0.00654
Similarity = 0.00083
Similarity = 0.00534
Similarity = 0.03436
Similarity = 0.01026
Similarity = 0.00762
Similarity = 0.0056
Similarity = 0.08454
Similarity = 0.0098
Similarity = 0.03466
Similarity = 0.01613
Similarity = 0.01904
Similarity = 0.00973
Similarity = 0.00011
Similarity = 0.00369
Similarity = 0.06004
Similarity = 0.02106
Similarity = 0.00503
Similarity = 0.00872
Similarity = 0.00103
Similarity = 0.01211
Similarity = 0.0058
Similarity = 0.04654
Similarity = 0.00712
Similarity = 0.00903
Similarity = 0.04831
Similarity = 0.02466
Similarity = 0.00383
Similarity = 0.0376
Similarity = 0.0181
Similarity = 0.0042
Similarity = 0.024
Similarity = 0.00524
Similarity = 0.01598
Similarity = 0.00691
Similarity = 0.02574
Similarity = 0.00968
Similarity = 0.0178
Similarity = 7e-05
Similarity = 0.00959
Similarity = 0.01388
Similarity = 0.01369
Similarity = 0.00617
Similarity = 0.00027
Similarity = 0.01539
Similarity = 0.04202
Similarity = 0.01152
Similarity = 0.0361
Similarity = 0.00623
Similarity = 0.01617
Similarity = 0.01577
Similarity = 0.00539
Similarity = 0.01518
Similarity = 0.00275
Similarity = 0.01517
Similarity = 0.0222
Similarity = 0.07801
Similarity = 0.0511
Similarity = 0.02989
Similarity = 0.03141
Similarity = 0.03073
Similarity = 0.0201
Similarity = 0.0163
Similarity = 0.0076
Similarity = 0.00878
Similarity = 0.0675
Similarity = 0.039
Similarity = 0.00631
Similarity = 0.05477
Similarity = 0.00773
Similarity = 0.01077
Similarity = 0.025
Similarity = 0.06358
Similarity = 0.01339
Similarity = 0.06171
Similarity = 0.02405
Similarity = 0.01356
Similarity = 0.00335
Similarity = 0.05852
Similarity = 0.02597
Similarity = 0.01294
Similarity = 0.06722
Similarity = 0.014
Similarity = 0.03172
Similarity = 0.05513
Similarity = 0.01613
Similarity = 0.01238
Similarity = 0.17094
Similarity = 2e-05
Similarity = 0.01
Similarity = 0.00461
Similarity = 0.01096
Similarity = 0.00391
Similarity = 0.02023
Similarity = 0.04584
Similarity = 0.05385
Similarity = 0.03204
Similarity = 0.0088
Similarity = 0.00237
Similarity = 0.01304
Similarity = 0.01261
Similarity = 0.02
Similarity = 0.01133
Similarity = 0.00778
Similarity = 0.02898
Similarity = 0.02105
Similarity = 0.02567
Similarity = 0.03432
Similarity = 0.00969
Similarity = 0.02127
Similarity = 0.01712
Similarity = 0.00899
Similarity = 0.0085
Similarity = 0.00559
Similarity = 0.01472
Similarity = 0.01298
Similarity = 0.00988
Similarity = 0.00516
Similarity = 0.05051
Similarity = 0.00449
Similarity = 0.0042
Similarity = 0.0552
Similarity = 0.031
Similarity = 0.01145
Similarity = 0.0157
Similarity = 0.03661
Similarity = 0.04772
Similarity = 0.00038
Similarity = 0.09426
Similarity = 0.02455
Similarity = 0.01858
Similarity = 0.0083
Similarity = 0.02176
Similarity = 0.02836
Similarity = 0.15933
Similarity = 0.02143
Similarity = 0.03122
Similarity = 0.11835
Similarity = 9e-05
Similarity = 0.03054
Similarity = 0.00884
Similarity = 0.02226
Similarity = 0.00415
Similarity = 0.03337
Similarity = 0.05323
Similarity = 0.04976
Similarity = 0.0192
Similarity = 0.01013
Similarity = 0.01019
Similarity = 0.02022
Similarity = 0.00839
Similarity = 0.01474
Similarity = 0.01415
Similarity = 0.00705
Similarity = 0.0631
Similarity = 0.01732
Similarity = 0.03909
Similarity = 0.05661
Similarity = 0.00679
Similarity = 0.0611
Similarity = 0.00058
Similarity = 0.009
Similarity = 0.00682
Similarity = 0.01292
Similarity = 0.01011
Similarity = 0.0255
Similarity = 0.02425
Similarity = 0.00597
Similarity = 0.05086
Similarity = 0.04525
Similarity = 0.02226
Similarity = 0.00183
Similarity = 0.0351
Similarity = 0.025
Similarity = 0.01365
Similarity = 0.06275
Similarity = 0.0345
Similarity = 0.00142
Similarity = 0.10449
Similarity = 0.03286
Similarity = 0.02819
Similarity = 0.03656
Similarity = 0.00628
Similarity = 0.02341
Similarity = 0.04354
Similarity = 0.04707
Similarity = 0.02454
Similarity = 0.10575
Similarity = 0.0008
Similarity = 0.03091
Similarity = 0.01548
Similarity = 0.05408
Similarity = 0.00699
Similarity = 0.01023
Similarity = 0.08927
Similarity = 0.06206
Similarity = 0.00871
Similarity = 0.06314
Similarity = 0.0213
Similarity = 0.00409
Similarity = 0.04292
Similarity = 0.01332
Similarity = 0.01455
Similarity = 0.00846
Similarity = 0.01633
Similarity = 0.01293
Similarity = 0.00041
Similarity = 0.00897
Similarity = 0.01507
Similarity = 0.02024
Similarity = 0.00284
Similarity = 0.00408
Similarity = 0.00465
Similarity = 0.0351
Similarity = 0.00313
Similarity = 0.04667
Similarity = 0.00377
Similarity = 0.0014
Similarity = 0.01764
Similarity = 0.0123
Similarity = 0.02965
Similarity = 0.00429
Similarity = 0.02017
Similarity = 0.0157
Similarity = 0.06164
Similarity = 0.01573
Similarity = 0.00548
Similarity = 0.00174
Similarity = 0.0388
Similarity = 0.01464
Similarity = 0.00381
Similarity = 0.00984
Similarity = 0.00359
Similarity = 0.03422
Similarity = 0.01093
Similarity = 0.03002
Similarity = 0.01769
Similarity = 0.03345
Similarity = 0.00082
Similarity = 0.00346
Similarity = 0.01451
Similarity = 0.00307
Similarity = 0.00167
Similarity = 0.00618
Similarity = 0.01311
Similarity = 0.01014
Similarity = 0.00754
Similarity = 0.00179
Similarity = 0.01106
Similarity = 0.00401
Similarity = 0.01809
Similarity = 0.0049
Similarity = 0.00262
Similarity = 0.00696
Similarity = 0.01651
Similarity = 0.01192
Similarity = 0.02653
Similarity = 0.09554
Similarity = 0.0
Similarity = 0.04786
Similarity = 0.04215
Similarity = 0.02172
Similarity = 0.0
Similarity = 0.00677
Similarity = 0.01592
Similarity = 0.06382
Similarity = 0.06637
Similarity = 0.0
Similarity = 0.01773
Similarity = 0.00361
Similarity = 0.05896
Similarity = 0.00088
Similarity = 0.01657
Similarity = 0.00225
Similarity = 0.03871
Similarity = 0.04057
Similarity = 0.02029
Similarity = 0.00137
Similarity = 0.03922
Similarity = 0.03059
Similarity = 0.0
Similarity = 0.04312
Similarity = 0.00174
Similarity = 0.04102
Similarity = 0.0
Similarity = 0.00381
Similarity = 0.03063
Similarity = 0.03138
Similarity = 0.01013
Similarity = 0.00066
Similarity = 0.00128
Similarity = 0.00113
Similarity = 0.00091
Similarity = 0.00185
Similarity = 0.00613
Similarity = 0.02898
Similarity = 0.0143
Similarity = 0.0
Similarity = 0.00457
Similarity = 0.0
Similarity = 0.0
Similarity = 0.00657
Similarity = 0.01492
Similarity = 0.00232
Similarity = 0.00808
Similarity = 0.0069
Similarity = 0.01854
Similarity = 0.02608
Similarity = 0.00544
Similarity = 0.0226
Similarity = 0.0019
Similarity = 0.00264
Similarity = 0.03643
Similarity = 0.0007
Similarity = 0.01075
Similarity = 0.0207
Similarity = 0.00865
Similarity = 0.01979
Similarity = 0.01855
Similarity = 0.00443
Similarity = 0.00767
Similarity = 0.00624
Similarity = 0.01925
Similarity = 0.00189
Similarity = 0.01232
Similarity = 0.02292
Similarity = 0.03128
Similarity = 0.00021
Similarity = 0.03528
Similarity = 0.04855
Similarity = 0.00236
Similarity = 0.01049
Similarity = 0.0066
Similarity = 0.00403
Similarity = 0.04293
Similarity = 0.02614
Similarity = 0.01591
Similarity = 0.08898
Similarity = 2e-05
Similarity = 0.00786
Similarity = 0.01757
Similarity = 0.01449
Similarity = 0.00327
Similarity = 0.00621
Similarity = 0.03955
Similarity = 0.03935
Similarity = 0.01894
Similarity = 0.00308
Similarity = 0.00319
Similarity = 0.05977
Similarity = 0.00875
Similarity = 0.01801
Similarity = 0.01612
Similarity = 0.03867
Similarity = 0.01616
Similarity = 0.02645
Similarity = 0.01814
Similarity = 0.02066
Similarity = 0.0121
Similarity = 0.01324
Similarity = 0.00918
Similarity = 0.04085
Similarity = 0.03539
Similarity = 0.00816
Similarity = 0.01934
Similarity = 0.02401
Similarity = 0.01054
Similarity = 0.00504
Similarity = 0.03289
Similarity = 0.01651
Similarity = 0.01287
Similarity = 0.00753
Similarity = 0.01462
Similarity = 0.00784
Similarity = 0.02913
Similarity = 0.0219
Similarity = 0.0346
Similarity = 0.00924
Similarity = 0.05605
Similarity = 0.0188
Similarity = 0.0186
Similarity = 0.01454
Similarity = 0.02465
Similarity = 0.01497
Similarity = 0.00742
Similarity = 0.07452
Similarity = 0.0308
Similarity = 0.04246
Similarity = 0.01627
Similarity = 0.03374
Similarity = 0.02255
Similarity = 0.01841
Similarity = 0.00834
Similarity = 0.003
Similarity = 0.02842
Similarity = 0.05107
Similarity = 0.03203
Similarity = 0.01169
Similarity = 0.02247
Similarity = 0.01106
Similarity = 0.02657
Similarity = 0.02182
Similarity = 0.0365
Similarity = 0.05782
Similarity = 0.04216
Similarity = 0.04501
Similarity = 0.13407
Similarity = 0.08642
Similarity = 0.03012
Similarity = 0.08028
Similarity = 0.02862
Similarity = 0.02888
Similarity = 0.03775
Similarity = 0.01454
Similarity = 0.02914
Similarity = 0.08382
Similarity = 0.03764
Similarity = 0.02949
Similarity = 0.084
Similarity = 0.02826
Similarity = 0.03511
Similarity = 0.01168
Similarity = 0.02778
Similarity = 0.0112
Similarity = 0.03784
Similarity = 0.02892
Similarity = 0.03378
Similarity = 0.00186
Similarity = 0.11645
Similarity = 0.08077
Similarity = 0.01028
Similarity = 0.08772
Similarity = 0.01984
Similarity = 0.10257
Similarity = 0.07809
Similarity = 0.06231
Similarity = 0.03655
Similarity = 0.25408
Similarity = 0.00138
Similarity = 0.02869
Similarity = 0.01193
Similarity = 0.02329
Similarity = 0.01006
Similarity = 0.02177
Similarity = 0.05437
Similarity = 0.05048
Similarity = 0.05016
Similarity = 0.03122
Similarity = 0.03414
Similarity = 0.02474
Similarity = 0.03455
Similarity = 0.03314
Similarity = 0.01421
Similarity = 0.00936
Similarity = 0.02828
Similarity = 0.00859
Similarity = 0.05761
Similarity = 0.08694
Similarity = 0.03937
Similarity = 0.12318
Similarity = 0.02138
Similarity = 0.12802
Similarity = 0.0084
Similarity = 0.00443
Similarity = 0.07411
Similarity = 0.03229
Similarity = 0.05017
Similarity = 0.00723
Similarity = 0.01574
Similarity = 0.01105
Similarity = 0.03117
Similarity = 0.00161
Similarity = 0.03884
Similarity = 0.02368
Similarity = 0.00797
Similarity = 0.02476
Similarity = 0.01875
Similarity = 0.00674
Similarity = 0.03819
Similarity = 0.01752
Similarity = 0.00433
Similarity = 0.03761
Similarity = 0.01206
Similarity = 0.02296
Similarity = 0.0287
Similarity = 0.01235
Similarity = 0.01519
Similarity = 0.09924
Similarity = 0.00391
Similarity = 0.00899
Similarity = 0.01818
Similarity = 0.00853
Similarity = 0.00757
Similarity = 0.00345
Similarity = 0.02052
Similarity = 0.02267
Similarity = 0.018
Similarity = 0.03497
Similarity = 0.01747
Similarity = 0.01767
Similarity = 0.00472
Similarity = 0.02368
Similarity = 0.05443
Similarity = 0.00701
Similarity = 0.03897
Similarity = 0.01368
Similarity = 0.03864
Similarity = 0.00995
Similarity = 0.01054
Similarity = 0.02471
Similarity = 0.00513
Similarity = 0.01363
Similarity = 0.0396
Similarity = 0.00733
Similarity = 0.00228
Similarity = 0.00081
Similarity = 0.00675
Similarity = 0.01992
Similarity = 0.02115
Similarity = 0.00774
Similarity = 0.04489
Similarity = 0.00682
Similarity = 0.05496
Similarity = 0.01063
Similarity = 0.04829
Similarity = 0.03473
Similarity = 0.01485
Similarity = 0.00036
Similarity = 0.07251
Similarity = 0.07751
Similarity = 0.00246
Similarity = 0.00573
Similarity = 0.01417
Similarity = 0.04349
Similarity = 0.03024
Similarity = 0.05163
Similarity = 0.0325
Similarity = 0.14744
Similarity = 0.00502
Similarity = 0.00807
Similarity = 0.01279
Similarity = 0.01889
Similarity = 0.01676
Similarity = 0.00443
Similarity = 0.06513
Similarity = 0.01335
Similarity = 0.00471
Similarity = 0.00382
Similarity = 0.01408
Similarity = 0.06295
Similarity = 0.00935
Similarity = 0.00986
Similarity = 0.00299
Similarity = 0.02749
Similarity = 0.06362
Similarity = 0.00832
Similarity = 0.11988
Similarity = 0.15726
Similarity = 0.07772
Similarity = 0.08332
Similarity = 0.03367
Similarity = 0.03675
Similarity = 0.04567
Similarity = 0.01047
Similarity = 0.01707
Similarity = 0.0886
Similarity = 0.08026
Similarity = 0.01008
Similarity = 0.05896
Similarity = 0.0168
Similarity = 0.03136
Similarity = 0.00151
Similarity = 0.08607
Similarity = 0.02631
Similarity = 0.05741
Similarity = 0.03048
Similarity = 0.03254
Similarity = 0.01178
Similarity = 0.08228
Similarity = 0.05068
Similarity = 0.02757
Similarity = 0.18282
Similarity = 0.00158
Similarity = 0.17107
Similarity = 0.02841
Similarity = 0.05647
Similarity = 0.02811
Similarity = 0.24666
Similarity = 0.00213
Similarity = 0.01099
Similarity = 0.00439
Similarity = 0.02193
Similarity = 0.004
Similarity = 0.00828
Similarity = 0.04191
Similarity = 0.04402
Similarity = 0.01999
Similarity = 0.03284
Similarity = 0.01739
Similarity = 0.02756
Similarity = 0.02366
Similarity = 0.01624
Similarity = 0.01466
Similarity = 0.00565
Similarity = 0.04251
Similarity = 0.00583
Similarity = 0.02682
Similarity = 0.1365
Similarity = 0.01474
Similarity = 0.05249
Similarity = 0.04416
Similarity = 0.02637
Similarity = 0.01962
Similarity = 0.0164
Similarity = 0.01711
Similarity = 0.06099
Similarity = 0.06983
Similarity = 0.00728
Similarity = 0.06953
Similarity = 0.00671
Similarity = 0.0571
Similarity = 0.00582
Similarity = 0.02154
Similarity = 0.0096
Similarity = 0.05771
Similarity = 0.09072
Similarity = 0.02043
Similarity = 0.02839
Similarity = 0.13299
Similarity = 0.04703
Similarity = 0.0058
Similarity = 0.06669
Similarity = 0.00672
Similarity = 0.07278
Similarity = 0.02823
Similarity = 0.04062
Similarity = 0.03323
Similarity = 0.12328
Similarity = 0.02229
Similarity = 0.01348
Similarity = 0.00979
Similarity = 0.01831
Similarity = 0.05117
Similarity = 0.00542
Similarity = 0.06262
Similarity = 0.03021
Similarity = 0.01027
Similarity = 0.03005
Similarity = 0.0154
Similarity = 0.0248
Similarity = 0.03411
Similarity = 0.0066
Similarity = 0.02093
Similarity = 0.01641
Similarity = 0.00616
Similarity = 0.0818
Similarity = 0.00379
Similarity = 0.02825
Similarity = 0.0122
Similarity = 0.02383
Similarity = 0.00589
Similarity = 0.00869
Similarity = 0.01081
Similarity = 0.01234
Similarity = 0.01848
Similarity = 0.00902
Similarity = 0.00956
Similarity = 0.01639
Similarity = 0.01841
Similarity = 0.01347
Similarity = 0.02554
Similarity = 0.00087
Similarity = 0.01625
Similarity = 0.02032
Similarity = 0.03694
Similarity = 0.02005
Similarity = 0.01009
Similarity = 0.00377
Similarity = 0.04807
Similarity = 0.05089
Similarity = 0.00596
Similarity = 0.0145
Similarity = 0.00262
Similarity = 0.0323
Similarity = 0.03346
Similarity = 0.03595
Similarity = 0.02082
Similarity = 0.04462
Similarity = 0.00526
Similarity = 0.05569
Similarity = 0.02417
Similarity = 0.00626
Similarity = 0.00922
Similarity = 0.00637
Similarity = 0.02524
Similarity = 0.00793
Similarity = 0.06218
Similarity = 0.00768
Similarity = 0.08264
Similarity = 0.06143
Similarity = 0.01201
Similarity = 0.01985
Similarity = 0.02824
Similarity = 0.01149
Similarity = 0.03805
Similarity = 0.01128
Similarity = 0.02529
Similarity = 0.02804
Similarity = 0.01083
Similarity = 0.02231
Similarity = 0.01617
Similarity = 0.00743
Similarity = 0.04581
Similarity = 0.01405
Similarity = 0.03088
Similarity = 0.05281
Similarity = 0.01541
Similarity = 0.01101
Similarity = 0.07001
Similarity = 0.00442
Similarity = 0.05428
Similarity = 0.05966
Similarity = 0.05281
Similarity = 0.01343
Similarity = 0.0977
Similarity = 0.04568
Similarity = 0.02486
Similarity = 0.00469
Similarity = 0.08161
Similarity = 0.02491
Similarity = 0.01203
Similarity = 0.02145
Similarity = 0.03266
Similarity = 0.01452
Similarity = 0.11515
Similarity = 0.03308
Similarity = 0.02527
Similarity = 0.19654
Similarity = 0.00165
Similarity = 0.01394
Similarity = 0.06676
Similarity = 0.03247
Similarity = 0.01307
Similarity = 0.03839
Similarity = 0.03609
Similarity = 0.04133
Similarity = 0.01824
Similarity = 0.01208
Similarity = 0.00744
Similarity = 0.02593
Similarity = 0.03153
Similarity = 0.02348
Similarity = 0.01573
Similarity = 0.02017
Similarity = 0.06021
Similarity = 0.07235
Similarity = 0.0943
Similarity = 0.04427
Similarity = 0.03699
Similarity = 0.05479
Similarity = 0.04097
Similarity = 0.03716
Similarity = 0.06349
Similarity = 0.00921
Similarity = 0.02182
Similarity = 0.03348
Similarity = 0.04195
Similarity = 0.01069
Similarity = 0.08296
Similarity = 0.02251
Similarity = 0.04479
Similarity = 0.00875
Similarity = 0.04531
Similarity = 0.01734
Similarity = 0.03732
Similarity = 0.0625
Similarity = 0.03943
Similarity = 0.01489
Similarity = 0.08885
Similarity = 0.18622
Similarity = 0.03553
Similarity = 0.04684
Similarity = 0.04526
Similarity = 0.05422
Similarity = 0.07883
Similarity = 0.21194
Similarity = 0.04542
Similarity = 0.18297
Similarity = 0.00389
Similarity = 0.03422
Similarity = 0.04599
Similarity = 0.01254
Similarity = 0.00914
Similarity = 0.01399
Similarity = 0.08443
Similarity = 0.06552
Similarity = 0.03493
Similarity = 0.01369
Similarity = 0.02479
Similarity = 0.01479
Similarity = 0.01936
Similarity = 0.0381
Similarity = 0.02213
Similarity = 0.01788
Similarity = 0.02022
Similarity = 0.01708
Similarity = 0.0326
Similarity = 0.02781
Similarity = 0.0042
Similarity = 0.02594
Similarity = 0.01302
Similarity = 0.01394
Similarity = 0.02712
Similarity = 0.0349
Similarity = 0.00712
Similarity = 0.02832
Similarity = 0.00723
Similarity = 0.02376
Similarity = 0.03422
Similarity = 0.01335
Similarity = 0.01045
Similarity = 0.02147
Similarity = 0.01942
Similarity = 0.00946
Similarity = 0.01704
Similarity = 0.01148
Similarity = 0.00626
Similarity = 0.00044
Similarity = 0.0457
Similarity = 0.04565
Similarity = 0.00517
Similarity = 0.03036
Similarity = 0.00359
Similarity = 0.02274
Similarity = 0.04947
Similarity = 0.01806
Similarity = 0.05597
Similarity = 0.0942
Similarity = 0.00058
Similarity = 0.02542
Similarity = 0.02255
Similarity = 0.01291
Similarity = 0.00445
Similarity = 0.01904
Similarity = 0.02029
Similarity = 0.04906
Similarity = 0.01834
Similarity = 0.00286
Similarity = 0.02478
Similarity = 0.00333
Similarity = 0.01959
Similarity = 0.01715
Similarity = 0.0095
Similarity = 0.00622
Similarity = 0.02033
Similarity = 0.04307
Similarity = 0.01748
Similarity = 0.06541
Similarity = 0.01188
Similarity = 0.0316
Similarity = 0.07872
Similarity = 0.02805
Similarity = 0.00419
Similarity = 0.00234
Similarity = 0.00108
Similarity = 0.05088
Similarity = 0.03203
Similarity = 0.01204
Similarity = 0.02401
Similarity = 0.00401
Similarity = 0.01563
Similarity = 0.00147
Similarity = 0.03254
Similarity = 0.01382
Similarity = 0.02415
Similarity = 0.02453
Similarity = 0.01803
Similarity = 0.00147
Similarity = 0.07419
Similarity = 0.01293
Similarity = 0.00891
Similarity = 0.0527
Similarity = 0.00357
Similarity = 0.04492
Similarity = 0.00813
Similarity = 0.0223
Similarity = 0.04825
Similarity = 0.0729
Similarity = 0.01024
Similarity = 0.01481
Similarity = 0.01943
Similarity = 0.00135
Similarity = 0.01387
Similarity = 0.00069
Similarity = 0.04504
Similarity = 0.01791
Similarity = 0.0101
Similarity = 0.03809
Similarity = 0.04444
Similarity = 0.00918
Similarity = 0.01155
Similarity = 0.00705
Similarity = 0.00719
Similarity = 0.00296
Similarity = 0.06127
Similarity = 0.01311
Similarity = 0.11054
Similarity = 0.10326
Similarity = 0.03433
Similarity = 0.06614
Similarity = 0.07969
Similarity = 0.03912
Similarity = 0.01204
Similarity = 0.0028
Similarity = 0.0077
Similarity = 0.09406
Similarity = 0.07992
Similarity = 0.0
Similarity = 0.02792
Similarity = 0.00571
Similarity = 0.0182
Similarity = 0.00723
Similarity = 0.07305
Similarity = 0.01604
Similarity = 0.01059
Similarity = 0.04751
Similarity = 0.06016
Similarity = 0.00068
Similarity = 0.06837
Similarity = 0.0612
Similarity = 0.00901
Similarity = 0.0852
Similarity = 0.01186
Similarity = 0.03866
Similarity = 0.00528
Similarity = 0.04325
Similarity = 0.01886
Similarity = 0.16804
Similarity = 0.00261
Similarity = 0.04776
Similarity = 0.01238
Similarity = 0.01522
Similarity = 0.00231
Similarity = 0.00363
Similarity = 0.03677
Similarity = 0.02154
Similarity = 0.02077
Similarity = 0.02509
Similarity = 0.00624
Similarity = 0.0137
Similarity = 0.01282
Similarity = 0.02094
Similarity = 0.01699
Similarity = 0.01078
Similarity = 0.0373
Similarity = 0.01271
Similarity = 0.00538
Similarity = 0.02922
Similarity = 0.01511
Similarity = 0.01915
Similarity = 0.0282
Similarity = 0.01502
Similarity = 0.00802
Similarity = 0.00908
Similarity = 0.01258
Similarity = 0.01625
Similarity = 0.01996
Similarity = 0.00848
Similarity = 0.03496
Similarity = 0.01215
Similarity = 0.02358
Similarity = 0.006
Similarity = 0.01583
Similarity = 0.02011
Similarity = 0.00785
Similarity = 0.05405
Similarity = 0.03587
Similarity = 0.01238
Similarity = 0.07349
Similarity = 0.00833
Similarity = 0.01686
Similarity = 0.01148
Similarity = 0.00918
Similarity = 0.04578
Similarity = 0.01249
Similarity = 0.04264
Similarity = 0.03407
Similarity = 0.0383
Similarity = 0.0045
Similarity = 0.03342
Similarity = 0.01103
Similarity = 0.06804
Similarity = 0.04765
Similarity = 0.00278
Similarity = 0.06821
Similarity = 0.03472
Similarity = 0.01984
Similarity = 0.02791
Similarity = 0.01503
Similarity = 0.00879
Similarity = 0.01774
Similarity = 0.03502
Similarity = 0.01033
Similarity = 0.01778
Similarity = 0.04329
Similarity = 0.04391
Similarity = 0.03187
Similarity = 0.03398
Similarity = 0.01009
Similarity = 0.07714
Similarity = 0.08093
Similarity = 0.02803
Similarity = 0.05707
Similarity = 0.00736
Similarity = 0.02768
Similarity = 0.04475
Similarity = 0.01609
Similarity = 0.01949
Similarity = 0.07834
Similarity = 0.00729
Similarity = 0.04725
Similarity = 0.00663
Similarity = 0.04815
Similarity = 0.01377
Similarity = 0.04634
Similarity = 0.04592
Similarity = 0.03031
Similarity = 0.02034
Similarity = 0.10451
Similarity = 0.0932
Similarity = 0.01468
Similarity = 0.01209
Similarity = 0.02096
Similarity = 0.079
Similarity = 0.02149
Similarity = 0.05592
Similarity = 0.04653
Similarity = 0.2172
Similarity = 9e-05
Similarity = 0.02379
Similarity = 0.03238
Similarity = 0.04765
Similarity = 0.0141
Similarity = 0.02707
Similarity = 0.08902
Similarity = 0.07192
Similarity = 0.06024
Similarity = 0.01621
Similarity = 0.02566
Similarity = 0.07313
Similarity = 0.03393
Similarity = 0.02066
Similarity = 0.03391
Similarity = 0.00441
Similarity = 0.1107
Similarity = 0.02491
Similarity = 0.01051
Similarity = 0.02006
Similarity = 0.02029
Similarity = 0.01137
Similarity = 0.00282
Similarity = 0.00227
Similarity = 0.02019
Similarity = 0.00429
Similarity = 0.03925
Similarity = 0.01994
Similarity = 0.00553
Similarity = 0.00294
Similarity = 0.0426
Similarity = 0.02101
Similarity = 0.02798
Similarity = 0.00579
Similarity = 0.05565
Similarity = 0.00573
Similarity = 0.02198
Similarity = 0.05596
Similarity = 0.01548
Similarity = 0.00804
Similarity = 0.05424
Similarity = 0.0209
Similarity = 0.01867
Similarity = 0.00804
Similarity = 0.00555
Similarity = 0.00321
Similarity = 0.00968
Similarity = 0.08344
Similarity = 0.0637
Similarity = 0.04366
Similarity = 0.00111
Similarity = 0.00597
Similarity = 0.02831
Similarity = 0.04357
Similarity = 0.03063
Similarity = 0.00693
Similarity = 0.05263
Similarity = 0.08613
Similarity = 0.00657
Similarity = 0.00486
Similarity = 0.00909
Similarity = 0.02032
Similarity = 0.0182
Similarity = 0.00927
Similarity = 0.01039
Similarity = 0.00087
Similarity = 0.02597
Similarity = 0.02278
Similarity = 0.09152
Similarity = 0.06681
Similarity = 0.00554
Similarity = 0.04704
Similarity = 0.13858
Similarity = 0.02079
Similarity = 0.00531
Similarity = 0.00568
Similarity = 0.00372
Similarity = 0.06384
Similarity = 0.04129
Similarity = 0.0149
Similarity = 0.07582
Similarity = 0.00629
Similarity = 0.00985
Similarity = 0.00477
Similarity = 0.03982
Similarity = 0.01295
Similarity = 0.01466
Similarity = 0.05353
Similarity = 0.02401
Similarity = 0.00492
Similarity = 0.10985
Similarity = 0.02456
Similarity = 0.00935
Similarity = 0.04144
Similarity = 0.01253
Similarity = 0.04685
Similarity = 0.02825
Similarity = 0.0113
Similarity = 0.01305
Similarity = 0.22574
Similarity = 0.02124
Similarity = 0.01949
Similarity = 0.00515
Similarity = 0.02524
Similarity = 0.00236
Similarity = 0.00391
Similarity = 0.06892
Similarity = 0.05666
Similarity = 0.05198
Similarity = 0.03152
Similarity = 0.00463
Similarity = 0.01457
Similarity = 0.00979
Similarity = 0.03115
Similarity = 0.00788
Similarity = 0.01481
Similarity = 0.03785
Similarity = 0.01189
Similarity = 0.01312
Similarity = 0.01921
Similarity = 0.00569
Similarity = 0.0306
Similarity = 0.01594
Similarity = 0.00373
Similarity = 0.04909
Similarity = 0.00451
Similarity = 0.01275
Similarity = 0.02457
Similarity = 0.01728
Similarity = 0.00746
Similarity = 0.03867
Similarity = 0.00732
Similarity = 0.06058
Similarity = 0.01602
Similarity = 0.06049
Similarity = 0.02689
Similarity = 0.09592
Similarity = 0.05426
Similarity = 0.01741
Similarity = 0.00238
Similarity = 0.17389
Similarity = 0.04006
Similarity = 0.00641
Similarity = 0.01493
Similarity = 0.03798
Similarity = 0.00888
Similarity = 0.01844
Similarity = 0.05782
Similarity = 0.01737
Similarity = 0.10278
Similarity = 0.01206
Similarity = 0.01461
Similarity = 0.01297
Similarity = 0.00532
Similarity = 0.01066
Similarity = 0.01189
Similarity = 0.03434
Similarity = 0.02186
Similarity = 0.01586
Similarity = 0.00499
Similarity = 0.02724
Similarity = 0.106
Similarity = 0.01854
Similarity = 0.03612
Similarity = 0.0134
Similarity = 0.01289
Similarity = 0.01244
Similarity = 0.07763
Similarity = 0.04618
Similarity = 0.02181
Similarity = 0.02853
Similarity = 0.01231
Similarity = 0.02229
Similarity = 0.01367
Similarity = 0.00992
Similarity = 0.00186
Similarity = 0.00802
Similarity = 0.01423
Similarity = 0.03277
Similarity = 0.00227
Similarity = 0.04287
Similarity = 0.00503
Similarity = 0.00682
Similarity = 0.0006
Similarity = 0.04493
Similarity = 0.00162
Similarity = 0.0294
Similarity = 0.01094
Similarity = 0.005
Similarity = 0.00401
Similarity = 0.03046
Similarity = 0.02702
Similarity = 0.00149
Similarity = 0.03142
Similarity = 0.01838
Similarity = 0.01435
Similarity = 0.01853
Similarity = 0.01798
Similarity = 0.02888
Similarity = 0.04225
Similarity = 0.00448
Similarity = 0.05343
Similarity = 0.00498
Similarity = 0.00585
Similarity = 0.00289
Similarity = 0.00348
Similarity = 0.02
Similarity = 0.04793
Similarity = 0.01287
Similarity = 0.00182
Similarity = 0.00715
Similarity = 4e-05
Similarity = 0.00625
Similarity = 0.00923
Similarity = 0.00493
Similarity = 0.04061
Similarity = 0.0032
Similarity = 0.00638
Similarity = 0.07286
Similarity = 0.0124
Similarity = 0.01136
Similarity = 0.02541
Similarity = 0.0029
Similarity = 0.02585
Similarity = 0.02257
Similarity = 0.00412
Similarity = 0.00732
Similarity = 0.03425
Similarity = 0.00865
Similarity = 0.0234
Similarity = 0.01794
Similarity = 0.00079
Similarity = 0.01859
Similarity = 0.00218
Similarity = 0.01614
Similarity = 0.00855
Similarity = 0.0132
Similarity = 0.01546
Similarity = 0.01482
Similarity = 0.01454
Similarity = 0.03018
Similarity = 0.03035
Similarity = 0.00698
Similarity = 0.00728
Similarity = 0.00957
Similarity = 0.0065
Similarity = 0.00593
Similarity = 0.02887
Similarity = 0.02941
Similarity = 0.05792
Similarity = 0.00218
Similarity = 0.00449
Similarity = 0.01336
Similarity = 0.01878
Similarity = 0.00423
Similarity = 0.00649
Similarity = 0.01697
Similarity = 0.05684
Similarity = 0.02787
Similarity = 0.00772
Similarity = 0.0065
Similarity = 0.00121
Similarity = 0.03252
Similarity = 0.00746
Similarity = 0.00554
Similarity = 0.00715
Similarity = 0.01097
Similarity = 0.024
Similarity = 0.00618
Similarity = 0.05115
Similarity = 0.00737
Similarity = 0.03176
Similarity = 0.02183
Similarity = 0.01067
Similarity = 0.00374
Similarity = 0.01742
Similarity = 0.01212
Similarity = 0.07871
Similarity = 0.04342
Similarity = 0.00263
Similarity = 0.04677
Similarity = 0.00338
Similarity = 0.02304
Similarity = 0.00259
Similarity = 0.00446
Similarity = 0.00819
Similarity = 0.01769
Similarity = 0.02446
Similarity = 0.01335
Similarity = 0.00163
Similarity = 0.12477
Similarity = 0.02394
Similarity = 0.00979
Similarity = 0.02877
Similarity = 0.00651
Similarity = 0.03997
Similarity = 0.01388
Similarity = 0.01463
Similarity = 0.03148
Similarity = 0.05859
Similarity = 0.00856
Similarity = 0.01202
Similarity = 0.00264
Similarity = 0.01574
Similarity = 0.00808
Similarity = 0.00409
Similarity = 0.05943
Similarity = 0.0458
Similarity = 0.01054
Similarity = 0.00656
Similarity = 0.00508
Similarity = 0.00235
Similarity = 0.03102
Similarity = 0.00383
Similarity = 0.01895
Similarity = 0.00319
Similarity = 0.01004
Similarity = 0.00214
Similarity = 0.05904
Similarity = 0.00895
Similarity = 0.01112
Similarity = 0.01206
Similarity = 0.00917
Similarity = 0.00628
Similarity = 0.02731
Similarity = 0.01596
Similarity = 0.00251
Similarity = 0.01678
Similarity = 0.01397
Similarity = 0.00629
Similarity = 0.0285
Similarity = 0.00263
Similarity = 0.00642
Similarity = 0.0014
Similarity = 0.02468
Similarity = 0.00617
Similarity = 0.01195
Similarity = 0.00867
Similarity = 0.00715
Similarity = 0.0
Similarity = 0.0424
Similarity = 0.0319
Similarity = 0.00387
Similarity = 0.01478
Similarity = 0.00752
Similarity = 0.00903
Similarity = 0.0235
Similarity = 0.01191
Similarity = 0.00849
Similarity = 0.10835
Similarity = 0.00052
Similarity = 0.01199
Similarity = 0.00529
Similarity = 0.00306
Similarity = 0.00089
Similarity = 0.005
Similarity = 0.02266
Similarity = 0.02575
Similarity = 0.07439
Similarity = 0.01298
Similarity = 0.00454
Similarity = 0.01953
Similarity = 0.00609
Similarity = 0.02383
Similarity = 0.00418
Similarity = 0.00961
Similarity = 0.02651
Similarity = 0.01464
Similarity = 0.06819
Similarity = 0.02951
Similarity = 0.00946
Similarity = 0.06831
Similarity = 0.00773
Similarity = 0.03666
Similarity = 0.09761
Similarity = 0.0079
Similarity = 0.01507
Similarity = 0.00982
Similarity = 0.00661
Similarity = 0.02944
Similarity = 0.02423
Similarity = 0.00999
Similarity = 0.00782
Similarity = 0.00802
Similarity = 0.01811
Similarity = 0.0225
Similarity = 0.00515
Similarity = 0.05962
Similarity = 0.06315
Similarity = 0.00254
Similarity = 0.04546
Similarity = 0.03219
Similarity = 0.01636
Similarity = 0.00602
Similarity = 0.00773
Similarity = 0.04406
Similarity = 0.01178
Similarity = 0.10571
Similarity = 0.0203
Similarity = 0.07219
Similarity = 0.00032
Similarity = 0.03013
Similarity = 0.0118
Similarity = 0.01962
Similarity = 0.01146
Similarity = 0.00597
Similarity = 0.05651
Similarity = 0.04121
Similarity = 0.02355
Similarity = 0.01132
Similarity = 0.00822
Similarity = 0.01399
Similarity = 0.01607
Similarity = 0.01697
Similarity = 0.03003
Similarity = 0.0048
Similarity = 0.01613
Similarity = 0.00642
Similarity = 0.03247
Similarity = 0.04044
Similarity = 0.01391
Similarity = 0.01136
Similarity = 0.06801
Similarity = 0.00507
Similarity = 0.01165
Similarity = 0.0006
Similarity = 0.01992
Similarity = 0.03769
Similarity = 0.03299
Similarity = 0.00237
Similarity = 0.01301
Similarity = 0.01256
Similarity = 0.0131
Similarity = 0.00107
Similarity = 0.00805
Similarity = 0.02321
Similarity = 0.0045
Similarity = 0.04464
Similarity = 0.00659
Similarity = 0.00743
Similarity = 0.04479
Similarity = 0.01608
Similarity = 0.00059
Similarity = 0.01888
Similarity = 0.00789
Similarity = 0.0255
Similarity = 0.01554
Similarity = 0.00482
Similarity = 0.01125
Similarity = 0.02898
Similarity = 0.00365
Similarity = 0.02518
Similarity = 0.0089
Similarity = 0.00124
Similarity = 0.01272
Similarity = 0.00421
Similarity = 0.02275
Similarity = 0.00348
Similarity = 0.00065
Similarity = 0.0544
Similarity = 0.00602
Similarity = 0.01063
Similarity = 0.01389
Similarity = 0.0137
Similarity = 0.01208
Similarity = 0.01534
Similarity = 0.04664
Similarity = 0.01072
Similarity = 0.00271
Similarity = 0.02419
Similarity = 0.06397
Similarity = 0.03763
Similarity = 0.0188
Similarity = 0.00932
Similarity = 0.0227
Similarity = 0.00827
Similarity = 0.00708
Similarity = 0.03825
Similarity = 0.02236
Similarity = 0.00412
Similarity = 0.02981
Similarity = 0.00974
Similarity = 0.04099
Similarity = 0.00379
Similarity = 0.05053
Similarity = 0.01616
Similarity = 0.01883
Similarity = 0.0457
Similarity = 0.025
Similarity = 0.00489
Similarity = 0.08212
Similarity = 0.02557
Similarity = 0.01175
Similarity = 0.01836
Similarity = 0.00386
Similarity = 0.02887
Similarity = 0.00586
Similarity = 0.03921
Similarity = 0.02118
Similarity = 0.04116
Similarity = 0.00901
Similarity = 0.02667
Similarity = 0.02224
Similarity = 0.01945
Similarity = 0.02351
Similarity = 0.00652
Similarity = 0.02666
Similarity = 0.05449
Similarity = 0.00911
Similarity = 0.02471
Similarity = 0.01323
Similarity = 0.00528
Similarity = 0.02743
Similarity = 0.01468
Similarity = 0.01771
Similarity = 0.00133
Similarity = 0.03869
Similarity = 0.00271
Similarity = 0.00053
Similarity = 0.00624
Similarity = 0.00303
Similarity = 0.00107
Similarity = 0.06302
Similarity = 0.00295
Similarity = 0.00059
Similarity = 0.02032
Similarity = 0.01423
Similarity = 0.00076
Similarity = 0.00425
Similarity = 0.0
Similarity = 0.03883
Similarity = 0.00014
Similarity = 0.02634
Similarity = 0.00015
Similarity = 0.0009
Similarity = 0.01714
Similarity = 0.01805
Similarity = 0.03904
Similarity = 0.00453
Similarity = 0.0
Similarity = 0.06934
Similarity = 0.00035
Similarity = 0.01238
Similarity = 0.00342
Similarity = 0.0
Similarity = 0.02971
Similarity = 0.01323
Similarity = 0.01547
Similarity = 0.02257
Similarity = 0.04908
Similarity = 0.00012
Similarity = 0.06341
Similarity = 0.0
Similarity = 0.0
Similarity = 0.00125
Similarity = 0.00046
Similarity = 0.06794
Similarity = 0.00504
Similarity = 0.00177
Similarity = 0.00432
Similarity = 0.00038
Similarity = 0.0005
Similarity = 0.0003
Similarity = 0.0014
Similarity = 0.00446
Similarity = 0.01378
Similarity = 0.01509
Similarity = 0.03673
Similarity = 0.08205
Similarity = 0.00329
Similarity = 0.01141
Similarity = 0.01924
Similarity = 0.00704
Similarity = 0.06828
Similarity = 0.03428
Similarity = 0.00329
Similarity = 0.00739
Similarity = 0.01481
Similarity = 0.01312
Similarity = 0.01262
Similarity = 0.02251
Similarity = 0.00066
Similarity = 0.00781
Similarity = 0.00604
Similarity = 0.01822
Similarity = 0.00296
Similarity = 0.01243
Similarity = 0.01825
Similarity = 8e-05
Similarity = 0.00722
Similarity = 0.04507
Similarity = 0.0997
Similarity = 0.00394
Similarity = 0.01533
Similarity = 0.02436
Similarity = 0.03118
Similarity = 0.0424
Similarity = 0.01233
Similarity = 0.03152
Similarity = 0.16273
Similarity = 0.00133
Similarity = 0.01741
Similarity = 0.00622
Similarity = 0.01137
Similarity = 0.0
Similarity = 0.01588
Similarity = 0.02953
Similarity = 0.02295
Similarity = 0.01994
Similarity = 0.00961
Similarity = 0.00569
Similarity = 6e-05
Similarity = 0.01799
Similarity = 0.02234
Similarity = 0.01238
Similarity = 0.00224
Similarity = 0.02805
Similarity = 0.02327
Similarity = 0.00603
Similarity = 0.00245
Similarity = 0.00319
Similarity = 0.01888
Similarity = 0.01227
Similarity = 0.00281
Similarity = 0.00106
Similarity = 0.0037
Similarity = 0.00052
Similarity = 0.00352
Similarity = 0.00043
Similarity = 0.01796
Similarity = 0.02732
Similarity = 0.01295
Similarity = 0.0209
Similarity = 0.00079
Similarity = 0.02787
Similarity = 0.00316
Similarity = 0.01318
Similarity = 0.02347
Similarity = 0.01661
Similarity = 0.00132
Similarity = 0.04379
Similarity = 0.0026
Similarity = 0.01397
Similarity = 0.00702
Similarity = 0.00327
Similarity = 0.01448
Similarity = 0.02647
Similarity = 0.09262
Similarity = 0.00992
Similarity = 0.03244
Similarity = 0.01304
Similarity = 0.00228
Similarity = 0.02809
Similarity = 0.01912
Similarity = 0.01252
Similarity = 0.00625
Similarity = 0.03443
Similarity = 0.01817
Similarity = 0.02602
Similarity = 0.01298
Similarity = 0.00132
Similarity = 0.06
Similarity = 0.01366
Similarity = 0.00731
Similarity = 0.00146
Similarity = 0.0052
Similarity = 0.01574
Similarity = 0.03314
Similarity = 0.01236
Similarity = 0.01491
Similarity = 0.00922
Similarity = 0.0184
Similarity = 0.00151
Similarity = 0.0115
Similarity = 0.01137
Similarity = 0.00933
Similarity = 0.00343
Similarity = 0.01135
Similarity = 0.02832
Similarity = 0.00255
Similarity = 0.02505
Similarity = 0.00841
Similarity = 0.0466
Similarity = 0.02447
Similarity = 0.0293
Similarity = 0.00741
Similarity = 0.07217
Similarity = 0.02176
Similarity = 0.0319
Similarity = 0.01343
Similarity = 0.05244
Similarity = 0.02934
Similarity = 0.01125
Similarity = 0.01876
Similarity = 0.00424
Similarity = 0.02066
Similarity = 0.0137
Similarity = 0.03804
Similarity = 0.02866
Similarity = 0.04411
Similarity = 0.00131
Similarity = 0.0045
Similarity = 0.01943
Similarity = 0.02136
Similarity = 0.01505
Similarity = 0.00316
Similarity = 0.04735
Similarity = 0.04451
Similarity = 0.02791
Similarity = 0.00969
Similarity = 0.01947
Similarity = 0.00545
Similarity = 0.02629
Similarity = 0.01634
Similarity = 0.01231
Similarity = 0.0069
Similarity = 0.00035
Similarity = 0.00917
Similarity = 0.13185
Similarity = 0.00856
Similarity = 0.00467
Similarity = 0.02174
Similarity = 0.00133
Similarity = 0.0
Similarity = 0.05136
Similarity = 0.011
Similarity = 0.0022
Similarity = 0.0
Similarity = 0.00456
Similarity = 0.00659
Similarity = 0.01504
Similarity = 0.00385
Similarity = 0.00837
Similarity = 0.00129
Similarity = 0.00287
Similarity = 0.00071
Similarity = 0.02075
Similarity = 0.01952
Similarity = 0.02615
Similarity = 0.01577
Similarity = 0.03951
Similarity = 0.14038
Similarity = 0.0
Similarity = 0.02456
Similarity = 0.00433
Similarity = 0.0011
Similarity = 0.02107
Similarity = 0.04451
Similarity = 0.03159
Similarity = 0.06757
Similarity = 0.00229
Similarity = 0.00697
Similarity = 0.00088
Similarity = 0.00735
Similarity = 0.00687
Similarity = 0.00321
Similarity = 0.03273
Similarity = 0.00183
Similarity = 0.00104
Similarity = 0.0029
Similarity = 0.00094
Similarity = 0.03551
Similarity = 0.01566
Similarity = 0.00135
Similarity = 0.00102
0.025429432000000012
