Files are 20_newsgroups/talk.politics.guns  20_newsgroups/talk.religion.misc
Similarity = 0.04939
Similarity = 0.00796
Similarity = 0.02467
Similarity = 0.04097
Similarity = 0.03089
Similarity = 0.02414
Similarity = 0.03417
Similarity = 0.02759
Similarity = 0.03563
Similarity = 0.04696
Similarity = 0.02635
Similarity = 0.03457
Similarity = 0.00164
Similarity = 0.04746
Similarity = 0.01398
Similarity = 0.05289
Similarity = 0.02279
Similarity = 0.03513
Similarity = 0.02701
Similarity = 0.05034
Similarity = 0.03795
Similarity = 0.03217
Similarity = 0.01658
Similarity = 0.0202
Similarity = 0.04544
Similarity = 0.05109
Similarity = 0.0334
Similarity = 0.04305
Similarity = 0.02524
Similarity = 0.01628
Similarity = 0.02133
Similarity = 0.02016
Similarity = 0.04321
Similarity = 0.01481
Similarity = 0.0193
Similarity = 0.08147
Similarity = 0.04345
Similarity = 0.05087
Similarity = 0.00291
Similarity = 0.01
Similarity = 0.02496
Similarity = 0.06024
Similarity = 0.047
Similarity = 0.03235
Similarity = 0.02729
Similarity = 0.02301
Similarity = 0.04071
Similarity = 0.05515
Similarity = 0.06341
Similarity = 0.02546
Similarity = 0.03131
Similarity = 0.00911
Similarity = 1.0
Similarity = 0.02357
Similarity = 0.0051
Similarity = 0.00777
Similarity = 0.01192
Similarity = 0.07477
Similarity = 0.02793
Similarity = 0.02773
Similarity = 0.03513
Similarity = 0.00709
Similarity = 0.00098
Similarity = 0.03264
Similarity = 0.00443
Similarity = 0.00972
Similarity = 0.00045
Similarity = 0.0056
Similarity = 0.00803
Similarity = 0.0244
Similarity = 0.01305
Similarity = 0.02368
Similarity = 0.01804
Similarity = 0.00638
Similarity = 0.01045
Similarity = 0.01442
Similarity = 0.01758
Similarity = 0.11068
Similarity = 0.01385
Similarity = 0.0074
Similarity = 0.00891
Similarity = 0.00094
Similarity = 0.01722
Similarity = 0.03358
Similarity = 0.01148
Similarity = 0.02852
Similarity = 0.01502
Similarity = 0.02561
Similarity = 0.00376
Similarity = 0.01561
Similarity = 0.00571
Similarity = 0.03489
Similarity = 0.09907
Similarity = 0.03555
Similarity = 0.00847
Similarity = 0.06349
Similarity = 0.01331
Similarity = 0.0195
Similarity = 0.02698
Similarity = 0.00453
Similarity = 0.01856
Similarity = 0.0058
Similarity = 0.01182
Similarity = 0.01046
Similarity = 0.0027
Similarity = 0.01283
Similarity = 0.01588
Similarity = 0.00633
Similarity = 0.01173
Similarity = 0.01745
Similarity = 0.02074
Similarity = 0.02632
Similarity = 0.0
Similarity = 0.00647
Similarity = 0.00363
Similarity = 0.02322
Similarity = 0.02232
Similarity = 0.0073
Similarity = 0.02959
Similarity = 0.01069
Similarity = 0.00296
Similarity = 0.01256
Similarity = 0.00334
Similarity = 0.00707
Similarity = 0.0073
Similarity = 0.00653
Similarity = 0.03345
Similarity = 0.0202
Similarity = 0.01526
Similarity = 0.00955
Similarity = 0.00263
Similarity = 0.01627
Similarity = 0.02749
Similarity = 0.00895
Similarity = 0.00643
Similarity = 0.01938
Similarity = 0.02273
Similarity = 0.00446
Similarity = 0.0
Similarity = 0.00175
Similarity = 0.01574
Similarity = 0.02328
Similarity = 0.02232
Similarity = 0.01027
Similarity = 0.02221
Similarity = 0.01288
Similarity = 0.00974
Similarity = 0.0158
Similarity = 0.01655
Similarity = 0.00042
Similarity = 0.0377
Similarity = 0.02094
Similarity = 0.02846
Similarity = 0.06177
Similarity = 0.03071
Similarity = 0.01296
Similarity = 0.05626
Similarity = 0.0228
Similarity = 0.04448
Similarity = 0.06593
Similarity = 0.03579
Similarity = 0.07606
Similarity = 0.00271
Similarity = 0.03011
Similarity = 0.01528
Similarity = 0.02504
Similarity = 0.02123
Similarity = 0.03141
Similarity = 0.03185
Similarity = 0.06137
Similarity = 0.02684
Similarity = 0.03565
Similarity = 0.03722
Similarity = 0.04466
Similarity = 0.02613
Similarity = 0.04739
Similarity = 0.04803
Similarity = 0.05053
Similarity = 0.03937
Similarity = 0.04183
Similarity = 0.03445
Similarity = 0.03703
Similarity = 0.06029
Similarity = 0.02685
Similarity = 0.0305
Similarity = 0.05538
Similarity = 0.08673
Similarity = 0.04869
Similarity = 0.01583
Similarity = 0.01672
Similarity = 0.04803
Similarity = 0.07172
Similarity = 0.08272
Similarity = 0.04331
Similarity = 0.02905
Similarity = 0.02665
Similarity = 0.02314
Similarity = 0.0373
Similarity = 0.05267
Similarity = 0.02224
Similarity = 0.03263
Similarity = 0.00603
Similarity = 0.04248
Similarity = 0.02659
Similarity = 0.02322
Similarity = 0.01703
Similarity = 0.03327
Similarity = 0.01538
Similarity = 0.04304
Similarity = 0.08316
Similarity = 0.09702
Similarity = 0.05182
Similarity = 0.00344
Similarity = 0.03688
Similarity = 0.00831
Similarity = 0.03449
Similarity = 0.02523
Similarity = 0.02746
Similarity = 0.0264
Similarity = 0.03609
Similarity = 0.03147
Similarity = 0.03549
Similarity = 0.02557
Similarity = 0.03326
Similarity = 0.07245
Similarity = 0.05066
Similarity = 0.05489
Similarity = 0.03578
Similarity = 0.01616
Similarity = 0.03392
Similarity = 0.05369
Similarity = 0.01856
Similarity = 0.03838
Similarity = 0.01376
Similarity = 0.02672
Similarity = 0.06396
Similarity = 0.0506
Similarity = 0.04016
Similarity = 0.01377
Similarity = 0.01055
Similarity = 0.03402
Similarity = 0.05756
Similarity = 0.08338
Similarity = 0.04726
Similarity = 0.01885
Similarity = 0.01899
Similarity = 0.03333
Similarity = 0.09797
Similarity = 0.03096
Similarity = 0.02703
Similarity = 0.01175
Similarity = 0.00556
Similarity = 0.01806
Similarity = 0.01813
Similarity = 0.01631
Similarity = 0.05206
Similarity = 0.01712
Similarity = 0.00692
Similarity = 0.01811
Similarity = 0.02484
Similarity = 0.01602
Similarity = 0.05421
Similarity = 0.00159
Similarity = 0.01891
Similarity = 0.00843
Similarity = 0.01294
Similarity = 0.01066
Similarity = 0.01529
Similarity = 0.011
Similarity = 0.03109
Similarity = 0.00772
Similarity = 0.01747
Similarity = 0.01354
Similarity = 0.01859
Similarity = 0.00738
Similarity = 0.01379
Similarity = 0.01835
Similarity = 0.02538
Similarity = 0.01243
Similarity = 0.02312
Similarity = 0.01264
Similarity = 0.0324
Similarity = 0.02457
Similarity = 0.02433
Similarity = 0.02565
Similarity = 0.019
Similarity = 0.03338
Similarity = 0.01594
Similarity = 0.01111
Similarity = 0.00829
Similarity = 0.01125
Similarity = 0.0229
Similarity = 0.03141
Similarity = 0.02043
Similarity = 0.01776
Similarity = 0.0172
Similarity = 0.00986
Similarity = 0.016
Similarity = 0.01901
Similarity = 0.0445
Similarity = 0.01341
Similarity = 0.00522
Similarity = 0.00734
Similarity = 0.02955
Similarity = 0.0616
Similarity = 0.00949
Similarity = 0.0229
Similarity = 0.01172
Similarity = 0.01764
Similarity = 0.02669
Similarity = 0.03269
Similarity = 0.09452
Similarity = 0.00465
Similarity = 0.0113
Similarity = 0.0093
Similarity = 0.02421
Similarity = 0.01173
Similarity = 0.02818
Similarity = 0.0261
Similarity = 0.0257
Similarity = 0.02702
Similarity = 0.01369
Similarity = 0.00738
Similarity = 0.02111
Similarity = 0.01339
Similarity = 0.01951
Similarity = 0.01748
Similarity = 0.02971
Similarity = 0.01806
Similarity = 0.02745
Similarity = 0.01037
Similarity = 0.0397
Similarity = 0.02471
Similarity = 0.00518
Similarity = 0.01493
Similarity = 0.02272
Similarity = 0.07019
Similarity = 0.03831
Similarity = 0.00642
Similarity = 0.00115
Similarity = 0.01832
Similarity = 0.04516
Similarity = 0.05236
Similarity = 0.01645
Similarity = 0.01072
Similarity = 0.00724
Similarity = 0.0212
Similarity = 0.01784
Similarity = 0.03697
Similarity = 0.00878
Similarity = 0.03329
Similarity = 0.00823
Similarity = 0.01408
Similarity = 0.03372
Similarity = 0.01392
Similarity = 0.01301
Similarity = 0.04697
Similarity = 0.00201
Similarity = 0.01481
Similarity = 0.03125
Similarity = 0.01449
Similarity = 0.01642
Similarity = 0.00285
Similarity = 0.00216
Similarity = 0.00221
Similarity = 0.01441
Similarity = 0.01466
Similarity = 0.01593
Similarity = 0.01709
Similarity = 0.04052
Similarity = 0.04689
Similarity = 0.01294
Similarity = 0.04011
Similarity = 0.01343
Similarity = 0.08466
Similarity = 0.02936
Similarity = 0.01438
Similarity = 0.0328
Similarity = 0.01968
Similarity = 0.0504
Similarity = 0.01626
Similarity = 0.0195
Similarity = 0.02168
Similarity = 0.03418
Similarity = 0.01664
Similarity = 0.03652
Similarity = 0.04525
Similarity = 0.01972
Similarity = 0.01364
Similarity = 0.00427
Similarity = 0.00643
Similarity = 0.03763
Similarity = 0.05885
Similarity = 0.01843
Similarity = 0.02303
Similarity = 0.00503
Similarity = 0.04561
Similarity = 0.03741
Similarity = 0.03044
Similarity = 0.01945
Similarity = 0.01066
Similarity = 0.01316
Similarity = 0.01603
Similarity = 0.00766
Similarity = 0.00704
Similarity = 0.00362
Similarity = 0.00605
Similarity = 0.00459
Similarity = 0.00716
Similarity = 0.01645
Similarity = 0.01864
Similarity = 0.02113
Similarity = 0.0
Similarity = 0.03079
Similarity = 0.00553
Similarity = 0.00327
Similarity = 0.0081
Similarity = 0.0021
Similarity = 0.01727
Similarity = 0.05553
Similarity = 0.00555
Similarity = 0.00698
Similarity = 0.01415
Similarity = 0.01482
Similarity = 0.00404
Similarity = 0.01265
Similarity = 0.01901
Similarity = 0.0154
Similarity = 0.01211
Similarity = 0.01527
Similarity = 0.01272
Similarity = 0.00872
Similarity = 0.00563
Similarity = 0.00052
Similarity = 0.00481
Similarity = 0.01656
Similarity = 0.01298
Similarity = 0.03436
Similarity = 0.00275
Similarity = 0.00101
Similarity = 0.00097
Similarity = 0.01927
Similarity = 0.01143
Similarity = 0.00292
Similarity = 0.00378
Similarity = 0.02082
Similarity = 0.00288
Similarity = 0.01432
Similarity = 0.01377
Similarity = 0.01004
Similarity = 0.04774
Similarity = 0.01817
Similarity = 0.03355
Similarity = 0.06336
Similarity = 0.04358
Similarity = 0.01714
Similarity = 0.07076
Similarity = 0.01904
Similarity = 0.0606
Similarity = 0.09267
Similarity = 0.08388
Similarity = 0.07365
Similarity = 0.01557
Similarity = 0.02983
Similarity = 0.0161
Similarity = 0.05205
Similarity = 0.01988
Similarity = 0.04171
Similarity = 0.03777
Similarity = 0.08262
Similarity = 0.04342
Similarity = 0.05161
Similarity = 0.05736
Similarity = 0.06506
Similarity = 0.0554
Similarity = 0.06477
Similarity = 0.05976
Similarity = 0.05935
Similarity = 0.04538
Similarity = 0.05164
Similarity = 0.07564
Similarity = 0.01794
Similarity = 0.06889
Similarity = 0.03008
Similarity = 0.04435
Similarity = 0.10324
Similarity = 0.08328
Similarity = 0.06991
Similarity = 0.03415
Similarity = 0.02069
Similarity = 0.03704
Similarity = 0.06944
Similarity = 0.12906
Similarity = 0.05836
Similarity = 0.03728
Similarity = 0.03299
Similarity = 0.05123
Similarity = 0.06852
Similarity = 0.05901
Similarity = 0.02769
Similarity = 0.01946
Similarity = 0.01391
Similarity = 0.0206
Similarity = 0.02288
Similarity = 0.01435
Similarity = 0.00921
Similarity = 0.03534
Similarity = 0.00715
Similarity = 0.02234
Similarity = 0.0232
Similarity = 0.00665
Similarity = 0.0447
Similarity = 0.0
Similarity = 0.01388
Similarity = 0.01101
Similarity = 0.01413
Similarity = 0.01345
Similarity = 0.01017
Similarity = 0.03446
Similarity = 0.02935
Similarity = 0.01414
Similarity = 0.01829
Similarity = 0.03374
Similarity = 0.01763
Similarity = 0.04348
Similarity = 0.03759
Similarity = 0.03737
Similarity = 0.03625
Similarity = 0.0088
Similarity = 0.03273
Similarity = 0.00971
Similarity = 0.00856
Similarity = 0.0292
Similarity = 0.0073
Similarity = 0.02714
Similarity = 0.01417
Similarity = 0.04462
Similarity = 0.0215
Similarity = 0.03246
Similarity = 0.00594
Similarity = 0.02548
Similarity = 0.03567
Similarity = 0.02846
Similarity = 0.01947
Similarity = 0.02166
Similarity = 0.01724
Similarity = 0.01503
Similarity = 0.01427
Similarity = 0.02213
Similarity = 0.03646
Similarity = 0.03635
Similarity = 0.01281
Similarity = 0.04767
Similarity = 0.04287
Similarity = 0.04191
Similarity = 0.02148
Similarity = 0.00833
Similarity = 0.01198
Similarity = 0.03698
Similarity = 0.04108
Similarity = 0.02531
Similarity = 0.06728
Similarity = 0.0
Similarity = 0.01581
Similarity = 0.00548
Similarity = 0.02342
Similarity = 0.01558
Similarity = 0.02518
Similarity = 0.03878
Similarity = 0.02589
Similarity = 0.00996
Similarity = 0.03151
Similarity = 0.01535
Similarity = 0.02755
Similarity = 0.00892
Similarity = 0.02096
Similarity = 0.01786
Similarity = 0.02743
Similarity = 0.0383
Similarity = 0.02854
Similarity = 0.0427
Similarity = 0.01555
Similarity = 0.04508
Similarity = 0.00465
Similarity = 0.01604
Similarity = 0.02543
Similarity = 0.05341
Similarity = 0.01852
Similarity = 0.02644
Similarity = 0.01185
Similarity = 0.01714
Similarity = 0.05102
Similarity = 0.11504
Similarity = 0.02202
Similarity = 0.01991
Similarity = 0.00683
Similarity = 0.01311
Similarity = 0.03795
Similarity = 0.03524
Similarity = 0.01195
Similarity = 0.02756
Similarity = 0.01433
Similarity = 0.01368
Similarity = 0.02949
Similarity = 0.05414
Similarity = 0.01153
Similarity = 0.01579
Similarity = 0.01342
Similarity = 0.03715
Similarity = 0.04598
Similarity = 0.0221
Similarity = 0.15927
Similarity = 0.01191
Similarity = 0.0235
Similarity = 0.00729
Similarity = 0.02546
Similarity = 0.02086
Similarity = 0.02644
Similarity = 0.02711
Similarity = 0.04146
Similarity = 0.01416
Similarity = 0.03962
Similarity = 0.01625
Similarity = 0.02548
Similarity = 0.01677
Similarity = 0.03742
Similarity = 0.0257
Similarity = 0.04873
Similarity = 0.02151
Similarity = 0.02157
Similarity = 0.0256
Similarity = 0.03731
Similarity = 0.03817
Similarity = 0.01484
Similarity = 0.01675
Similarity = 0.04606
Similarity = 0.06939
Similarity = 0.01991
Similarity = 0.01142
Similarity = 0.01176
Similarity = 0.03022
Similarity = 0.05178
Similarity = 0.04738
Similarity = 0.03084
Similarity = 0.02699
Similarity = 0.01454
Similarity = 0.01045
Similarity = 0.02354
Similarity = 0.0299
Similarity = 0.00658
Similarity = 0.02414
Similarity = 0.00942
Similarity = 0.04304
Similarity = 0.03372
Similarity = 0.01977
Similarity = 0.08648
Similarity = 0.02651
Similarity = 0.02141
Similarity = 0.04133
Similarity = 0.04103
Similarity = 0.04179
Similarity = 0.05492
Similarity = 0.00077
Similarity = 0.01648
Similarity = 0.00598
Similarity = 0.02228
Similarity = 0.01073
Similarity = 0.01655
Similarity = 0.0101
Similarity = 0.02894
Similarity = 0.01664
Similarity = 0.03815
Similarity = 0.00798
Similarity = 0.02541
Similarity = 0.03513
Similarity = 0.02262
Similarity = 0.0408
Similarity = 0.04707
Similarity = 0.02796
Similarity = 0.02073
Similarity = 0.01194
Similarity = 0.01406
Similarity = 0.02478
Similarity = 0.01752
Similarity = 0.01182
Similarity = 0.02262
Similarity = 0.02157
Similarity = 0.01829
Similarity = 0.02318
Similarity = 0.00976
Similarity = 0.01486
Similarity = 0.04119
Similarity = 0.07751
Similarity = 0.03287
Similarity = 0.02979
Similarity = 0.02331
Similarity = 0.0224
Similarity = 0.0233
Similarity = 0.02655
Similarity = 0.03769
Similarity = 0.01737
Similarity = 0.02062
Similarity = 0.01758
Similarity = 0.01695
Similarity = 0.0701
Similarity = 0.01468
Similarity = 0.02544
Similarity = 0.0114
Similarity = 0.00847
Similarity = 0.02393
Similarity = 0.01715
Similarity = 0.02707
Similarity = 0.00633
Similarity = 0.01372
Similarity = 0.00664
Similarity = 0.01507
Similarity = 0.00621
Similarity = 0.0156
Similarity = 0.00975
Similarity = 0.0318
Similarity = 0.01504
Similarity = 0.01702
Similarity = 0.02051
Similarity = 0.01698
Similarity = 0.01811
Similarity = 0.03777
Similarity = 0.0172
Similarity = 0.04156
Similarity = 0.01498
Similarity = 0.01675
Similarity = 0.00368
Similarity = 0.03311
Similarity = 0.02426
Similarity = 0.00158
Similarity = 0.03052
Similarity = 0.02172
Similarity = 0.02532
Similarity = 0.01184
Similarity = 0.00088
Similarity = 0.00295
Similarity = 0.01817
Similarity = 0.0287
Similarity = 0.02699
Similarity = 0.01811
Similarity = 0.01131
Similarity = 0.00734
Similarity = 0.01306
Similarity = 0.01436
Similarity = 0.02476
Similarity = 0.00249
Similarity = 0.02332
Similarity = 0.00406
Similarity = 0.00803
Similarity = 0.2071
Similarity = 0.01084
Similarity = 0.0101
Similarity = 0.01598
Similarity = 0.011
Similarity = 0.01323
Similarity = 0.02075
Similarity = 0.02094
Similarity = 0.04449
Similarity = 0.0012
Similarity = 0.01302
Similarity = 0.00253
Similarity = 0.03345
Similarity = 0.04022
Similarity = 0.01019
Similarity = 1.0
Similarity = 0.03879
Similarity = 0.00881
Similarity = 0.03203
Similarity = 0.01483
Similarity = 0.06165
Similarity = 0.01621
Similarity = 0.00747
Similarity = 0.04115
Similarity = 0.01813
Similarity = 0.02192
Similarity = 0.01534
Similarity = 0.00451
Similarity = 0.00523
Similarity = 0.05706
Similarity = 0.0073
Similarity = 0.03178
Similarity = 0.0254
Similarity = 0.02067
Similarity = 0.02444
Similarity = 0.02658
Similarity = 0.00797
Similarity = 0.02849
Similarity = 0.02055
Similarity = 0.02028
Similarity = 0.01365
Similarity = 0.04332
Similarity = 0.01995
Similarity = 0.00842
Similarity = 0.01344
Similarity = 0.01414
Similarity = 0.01149
Similarity = 0.01747
Similarity = 0.00857
Similarity = 0.00564
Similarity = 0.02098
Similarity = 0.00812
Similarity = 0.00651
Similarity = 0.0
Similarity = 0.0
Similarity = 0.00135
Similarity = 0.00595
Similarity = 0.01134
Similarity = 0.00122
Similarity = 0.0
Similarity = 0.00543
Similarity = 0.0
Similarity = 0.00833
Similarity = 0.0
Similarity = 0.0
Similarity = 0.00952
Similarity = 0.00541
Similarity = 0.00644
Similarity = 0.0
Similarity = 0.0
Similarity = 0.0
Similarity = 0.0107
Similarity = 0.00786
Similarity = 0.0
Similarity = 0.00628
Similarity = 0.01155
Similarity = 0.00955
Similarity = 0.00183
Similarity = 0.0
Similarity = 0.0
Similarity = 0.00976
Similarity = 0.00283
Similarity = 0.02141
Similarity = 0.00923
Similarity = 0.02193
Similarity = 0.0
Similarity = 0.0
Similarity = 0.00095
Similarity = 0.02817
Similarity = 0.00701
Similarity = 0.00055
Similarity = 0.01521
Similarity = 0.00505
Similarity = 0.00509
Similarity = 0.02759
Similarity = 0.01035
Similarity = 0.00818
Similarity = 0.03313
Similarity = 0.01095
Similarity = 0.00802
Similarity = 0.01208
Similarity = 0.04801
Similarity = 0.01895
Similarity = 0.02804
Similarity = 0.02495
Similarity = 0.02456
Similarity = 0.03399
Similarity = 0.0085
Similarity = 0.01416
Similarity = 0.0
Similarity = 0.02075
Similarity = 0.0026
Similarity = 0.01839
Similarity = 0.00861
Similarity = 0.02543
Similarity = 0.00668
Similarity = 0.04503
Similarity = 0.01681
Similarity = 0.01506
Similarity = 0.00736
Similarity = 0.02684
Similarity = 0.02131
Similarity = 0.01375
Similarity = 0.01586
Similarity = 0.02937
Similarity = 0.00821
Similarity = 0.02664
Similarity = 0.03287
Similarity = 0.01624
Similarity = 0.03707
Similarity = 0.00471
Similarity = 0.01286
Similarity = 0.08853
Similarity = 0.04661
Similarity = 0.03086
Similarity = 0.00077
Similarity = 0.01467
Similarity = 0.01479
Similarity = 0.02935
Similarity = 0.02687
Similarity = 0.02723
Similarity = 0.02072
Similarity = 0.00906
Similarity = 0.02701
Similarity = 0.01937
Similarity = 0.0206
Similarity = 0.01471
Similarity = 0.02954
Similarity = 0.01171
Similarity = 0.01873
Similarity = 0.05106
Similarity = 0.00837
Similarity = 0.00787
Similarity = 0.04979
Similarity = 0.01097
Similarity = 0.0215
Similarity = 0.02907
Similarity = 0.00809
Similarity = 0.04275
Similarity = 0.0
Similarity = 0.00694
Similarity = 0.00771
Similarity = 0.01915
Similarity = 0.01465
Similarity = 0.02144
Similarity = 0.02397
Similarity = 0.0318
Similarity = 0.03374
Similarity = 0.02477
Similarity = 0.01761
Similarity = 0.01962
Similarity = 0.01697
Similarity = 0.02503
Similarity = 0.02168
Similarity = 0.02987
Similarity = 0.01927
Similarity = 0.02494
Similarity = 0.01851
Similarity = 0.01092
Similarity = 0.04606
Similarity = 0.00743
Similarity = 0.0219
Similarity = 0.02627
Similarity = 0.05258
Similarity = 0.02668
Similarity = 0.00458
Similarity = 0.01021
Similarity = 0.01978
Similarity = 0.03687
Similarity = 0.04203
Similarity = 0.01671
Similarity = 0.02299
Similarity = 0.01006
Similarity = 0.01779
Similarity = 0.02853
Similarity = 0.03423
Similarity = 0.00569
Similarity = 0.00594
Similarity = 0.00323
Similarity = 0.00121
Similarity = 0.00103
Similarity = 0.00449
Similarity = 0.00707
Similarity = 0.00185
Similarity = 0.00053
Similarity = 0.0019
Similarity = 0.00416
Similarity = 0.0
Similarity = 0.0
Similarity = 0.0
Similarity = 0.0024
Similarity = 0.02052
Similarity = 0.02584
Similarity = 0.00531
Similarity = 0.00078
Similarity = 0.06229
Similarity = 0.00541
Similarity = 0.0049
Similarity = 0.00198
Similarity = 0.00702
Similarity = 0.00319
Similarity = 0.00489
Similarity = 0.0071
Similarity = 0.02138
Similarity = 0.00122
Similarity = 0.00663
Similarity = 0.00699
Similarity = 0.00139
Similarity = 0.00195
Similarity = 0.00257
Similarity = 0.00399
Similarity = 0.00235
Similarity = 0.00029
Similarity = 0.0083
Similarity = 0.00796
Similarity = 0.0
Similarity = 0.00197
Similarity = 0.01049
Similarity = 0.00011
Similarity = 0.00206
Similarity = 0.00064
Similarity = 0.10421
Similarity = 0.03655
Similarity = 0.00133
Similarity = 0.00128
Similarity = 0.01972
Similarity = 0.0024
Similarity = 0.01358
Similarity = 0.00838
Similarity = 0.02668
Similarity = 0.02847
Similarity = 0.02559
Similarity = 0.0133
Similarity = 0.01251
Similarity = 0.01457
Similarity = 0.01657
Similarity = 0.01789
Similarity = 0.01139
Similarity = 0.03824
Similarity = 0.0
Similarity = 0.01235
Similarity = 0.00135
Similarity = 0.00944
Similarity = 0.00167
Similarity = 0.00243
Similarity = 0.01502
Similarity = 0.02197
Similarity = 0.01025
Similarity = 0.01406
Similarity = 0.01386
Similarity = 0.00874
Similarity = 0.00823
Similarity = 0.01459
Similarity = 0.03235
Similarity = 0.02831
Similarity = 0.01217
Similarity = 0.00832
Similarity = 0.03223
Similarity = 0.00579
Similarity = 0.01604
Similarity = 0.00128
Similarity = 0.00739
Similarity = 0.01537
Similarity = 0.01302
Similarity = 0.01513
Similarity = 0.00062
Similarity = 0.00074
Similarity = 0.01223
Similarity = 0.02185
Similarity = 0.03854
Similarity = 0.00991
Similarity = 0.00533
Similarity = 0.02349
Similarity = 0.00917
Similarity = 0.02484
Similarity = 0.01644
Similarity = 0.00846
Similarity = 0.03508
Similarity = 0.02037
Similarity = 0.01343
Similarity = 0.04108
Similarity = 0.05272
Similarity = 0.01145
Similarity = 0.06463
Similarity = 0.03222
Similarity = 0.01855
Similarity = 0.05456
Similarity = 0.03515
Similarity = 0.02875
Similarity = 0.00989
Similarity = 0.01183
Similarity = 0.00741
Similarity = 0.02294
Similarity = 0.01041
Similarity = 0.02423
Similarity = 0.00881
Similarity = 0.05366
Similarity = 0.02133
Similarity = 0.01886
Similarity = 0.03004
Similarity = 0.0453
Similarity = 0.03413
Similarity = 0.04794
Similarity = 0.04348
Similarity = 0.04731
Similarity = 0.02963
Similarity = 0.038
Similarity = 0.03068
Similarity = 0.02311
Similarity = 0.0449
Similarity = 0.02086
Similarity = 0.02791
Similarity = 0.04358
Similarity = 0.05478
Similarity = 0.03864
Similarity = 0.01822
Similarity = 0.00821
Similarity = 0.0092
Similarity = 0.06593
Similarity = 0.08993
Similarity = 0.02382
Similarity = 0.03559
Similarity = 0.01802
Similarity = 0.02963
Similarity = 0.03991
Similarity = 0.04691
Similarity = 0.01331
Similarity = 0.05166
Similarity = 0.01089
Similarity = 0.06813
Similarity = 0.04075
Similarity = 0.07285
Similarity = 0.03467
Similarity = 0.04472
Similarity = 0.02871
Similarity = 0.05648
Similarity = 0.08162
Similarity = 0.03419
Similarity = 0.03113
Similarity = 0.00467
Similarity = 0.02824
Similarity = 0.01229
Similarity = 0.03829
Similarity = 0.0355
Similarity = 0.02518
Similarity = 0.03469
Similarity = 0.06593
Similarity = 0.0324
Similarity = 0.03782
Similarity = 0.04188
Similarity = 0.05006
Similarity = 0.03756
Similarity = 0.05056
Similarity = 0.06997
Similarity = 0.04814
Similarity = 0.05098
Similarity = 0.0494
Similarity = 0.04191
Similarity = 0.01818
Similarity = 0.04023
Similarity = 0.00671
Similarity = 0.04003
Similarity = 0.05765
Similarity = 0.07207
Similarity = 0.0508
Similarity = 0.03038
Similarity = 0.02299
Similarity = 0.04043
Similarity = 0.05636
Similarity = 0.13446
Similarity = 0.05412
Similarity = 0.01795
Similarity = 0.03166
Similarity = 0.0499
Similarity = 0.0515
Similarity = 0.0532
Similarity = 0.02709
Similarity = 0.05808
Similarity = 0.02533
Similarity = 0.02674
Similarity = 0.06562
Similarity = 0.05151
Similarity = 0.02043
Similarity = 0.03881
Similarity = 0.02163
Similarity = 0.03755
Similarity = 0.07567
Similarity = 0.05467
Similarity = 0.03625
Similarity = 0.01547
Similarity = 0.10995
Similarity = 0.02299
Similarity = 0.04665
Similarity = 0.06505
Similarity = 0.03503
Similarity = 0.02956
Similarity = 0.05544
Similarity = 0.02451
Similarity = 0.04551
Similarity = 0.0244
Similarity = 0.0379
Similarity = 0.05834
Similarity = 0.03366
Similarity = 0.03235
Similarity = 0.06923
Similarity = 0.04731
Similarity = 0.02901
Similarity = 0.04146
Similarity = 0.02328
Similarity = 0.04825
Similarity = 0.01045
Similarity = 0.04037
Similarity = 0.05083
Similarity = 0.09496
Similarity = 0.06028
Similarity = 0.03189
Similarity = 0.011
Similarity = 0.0419
Similarity = 0.07472
Similarity = 0.08698
Similarity = 0.03308
Similarity = 0.03453
Similarity = 0.0342
Similarity = 0.0292
Similarity = 0.05204
Similarity = 0.08309
Similarity = 0.02286
Similarity = 0.02611
Similarity = 0.00757
Similarity = 0.02055
Similarity = 0.05969
Similarity = 0.0642
Similarity = 0.07204
Similarity = 0.03036
Similarity = 0.03647
Similarity = 0.05403
Similarity = 0.07582
Similarity = 0.02189
Similarity = 0.03343
Similarity = 0.00368
Similarity = 0.02172
Similarity = 0.02291
Similarity = 0.03586
Similarity = 0.05011
Similarity = 0.04384
Similarity = 0.02448
Similarity = 0.06384
Similarity = 0.03659
Similarity = 0.04446
Similarity = 0.06187
Similarity = 0.05037
Similarity = 0.08047
Similarity = 0.06729
Similarity = 0.04947
Similarity = 0.07358
Similarity = 0.04085
Similarity = 0.03222
Similarity = 0.0344
Similarity = 0.03155
Similarity = 0.04688
Similarity = 0.00376
Similarity = 0.03132
Similarity = 0.03028
Similarity = 0.07963
Similarity = 0.05219
Similarity = 0.01356
Similarity = 0.0222
Similarity = 0.04308
Similarity = 0.07144
Similarity = 0.07501
Similarity = 0.05973
Similarity = 0.03189
Similarity = 0.03159
Similarity = 0.04295
Similarity = 0.03777
Similarity = 0.05175
Similarity = 0.00671
Similarity = 0.0195
Similarity = 0.01623
Similarity = 0.06558
Similarity = 0.02774
Similarity = 0.02364
Similarity = 0.02647
Similarity = 0.04474
Similarity = 0.00905
Similarity = 0.02648
Similarity = 0.05233
Similarity = 0.02948
Similarity = 0.03567
Similarity = 0.00081
Similarity = 0.03014
Similarity = 0.00618
Similarity = 0.03354
Similarity = 0.02125
Similarity = 0.0355
Similarity = 0.03397
Similarity = 0.03805
Similarity = 0.01981
Similarity = 0.02193
Similarity = 0.01356
Similarity = 0.03024
Similarity = 0.05188
Similarity = 0.03066
Similarity = 0.03834
Similarity = 0.03572
Similarity = 0.01578
Similarity = 0.01603
Similarity = 0.03675
Similarity = 0.01889
Similarity = 0.04975
Similarity = 0.00403
Similarity = 0.02043
Similarity = 0.03143
Similarity = 0.06069
Similarity = 0.02685
Similarity = 0.05362
Similarity = 0.00737
Similarity = 0.01739
Similarity = 0.06635
Similarity = 0.1202
Similarity = 0.03562
Similarity = 0.0151
Similarity = 0.01325
Similarity = 0.02897
Similarity = 0.03483
Similarity = 0.05334
Similarity = 0.02338
Similarity = 0.01308
Similarity = 0.02217
Similarity = 0.08439
Similarity = 0.01357
Similarity = 0.02177
Similarity = 0.02595
Similarity = 0.03994
Similarity = 0.01046
Similarity = 0.0199
Similarity = 0.05562
Similarity = 0.02865
Similarity = 0.03888
Similarity = 0.01887
Similarity = 0.01071
Similarity = 0.00689
Similarity = 0.03372
Similarity = 0.03031
Similarity = 0.01507
Similarity = 0.02697
Similarity = 0.0296
Similarity = 0.01201
Similarity = 0.00616
Similarity = 0.01046
Similarity = 0.02526
Similarity = 0.01694
Similarity = 0.01302
Similarity = 0.01365
Similarity = 0.03806
Similarity = 0.02215
Similarity = 0.03037
Similarity = 0.03806
Similarity = 0.01838
Similarity = 0.02423
Similarity = 0.01632
Similarity = 0.01423
Similarity = 0.02595
Similarity = 0.03972
Similarity = 0.02978
Similarity = 0.0509
Similarity = 0.00966
Similarity = 0.00201
Similarity = 0.02939
Similarity = 0.11022
Similarity = 0.01888
Similarity = 0.03924
Similarity = 0.01675
Similarity = 0.0145
Similarity = 0.02094
Similarity = 0.02899
Similarity = 0.01797
Similarity = 0.00348
Similarity = 0.00095
Similarity = 0.00376
Similarity = 0.00668
Similarity = 0.00614
Similarity = 0.0004
Similarity = 0.01066
Similarity = 0.00257
Similarity = 0.00478
Similarity = 0.07059
Similarity = 0.00046
Similarity = 0.02358
Similarity = 0.00686
Similarity = 0.00284
Similarity = 0.00077
Similarity = 0.01626
Similarity = 0.02077
Similarity = 0.00746
Similarity = 0.02658
Similarity = 0.00833
Similarity = 0.0034
Similarity = 0.00584
Similarity = 0.00718
Similarity = 0.00131
Similarity = 0.00771
Similarity = 0.0152
Similarity = 0.01214
Similarity = 0.01799
Similarity = 0.0085
Similarity = 0.00688
Similarity = 0.00182
Similarity = 0.00353
Similarity = 0.01687
Similarity = 0.0007
Similarity = 0.01664
Similarity = 0.00169
Similarity = 0.00875
Similarity = 0.00419
Similarity = 1.0
Similarity = 0.00349
Similarity = 0.00153
Similarity = 0.00842
Similarity = 0.0415
Similarity = 0.00574
Similarity = 0.00491
Similarity = 0.0035
Similarity = 0.00429
Similarity = 0.00598
Similarity = 0.0088
Similarity = 0.00413
Similarity = 0.01238
Similarity = 0.0025
Similarity = 0.0214
Similarity = 0.02256
Similarity = 0.00117
Similarity = 0.00028
Similarity = 0.01354
Similarity = 0.003
Similarity = 0.01384
Similarity = 0.03497
Similarity = 0.01491
Similarity = 0.02977
Similarity = 0.00403
Similarity = 7e-05
Similarity = 0.0009
Similarity = 0.01456
Similarity = 0.00318
Similarity = 0.00611
Similarity = 0.02139
Similarity = 0.01953
Similarity = 0.00253
Similarity = 0.00778
Similarity = 0.00228
Similarity = 0.00804
Similarity = 0.00797
Similarity = 0.00636
Similarity = 0.0211
Similarity = 0.01466
Similarity = 0.02204
Similarity = 0.00718
Similarity = 0.00244
Similarity = 0.00155
Similarity = 0.03528
Similarity = 0.00207
Similarity = 0.00212
Similarity = 0.01437
Similarity = 0.01858
Similarity = 0.03476
Similarity = 0.0296
Similarity = 0.00669
Similarity = 0.01648
Similarity = 0.01851
Similarity = 0.03533
Similarity = 0.00754
Similarity = 0.00833
Similarity = 0.00189
Similarity = 0.006
Similarity = 0.01002
Similarity = 0.01809
Similarity = 0.00048
Similarity = 0.01647
Similarity = 0.00225
Similarity = 0.01575
Similarity = 0.01122
Similarity = 0.02337
Similarity = 0.00703
Similarity = 0.0083
Similarity = 0.00327
Similarity = 0.05512
Similarity = 0.01088
Similarity = 0.01312
Similarity = 0.05918
Similarity = 0.00049
Similarity = 0.02497
Similarity = 0.00948
Similarity = 0.00898
Similarity = 0.00336
Similarity = 0.00699
Similarity = 0.00517
Similarity = 0.01313
Similarity = 0.00988
Similarity = 0.00739
Similarity = 0.0169
Similarity = 0.00611
Similarity = 0.00624
Similarity = 0.01765
Similarity = 0.01084
Similarity = 0.00918
Similarity = 0.00625
Similarity = 0.00779
Similarity = 0.00717
Similarity = 0.00885
Similarity = 0.00816
Similarity = 0.00211
Similarity = 0.00964
Similarity = 0.03583
Similarity = 0.01354
Similarity = 0.03138
Similarity = 0.00023
Similarity = 0.00701
Similarity = 0.0073
Similarity = 0.01605
Similarity = 0.02883
Similarity = 0.00577
Similarity = 0.00304
Similarity = 0.00549
Similarity = 0.006
Similarity = 0.01138
Similarity = 0.01325
Similarity = 0.00593
Similarity = 0.02009
Similarity = 0.00516
Similarity = 0.01308
Similarity = 0.03322
Similarity = 0.00893
Similarity = 0.01229
Similarity = 0.02631
Similarity = 0.00464
Similarity = 0.00763
Similarity = 0.01633
Similarity = 0.0051
Similarity = 0.00719
Similarity = 0.0047
Similarity = 0.01458
Similarity = 0.00157
Similarity = 0.0083
Similarity = 0.0083
Similarity = 0.00258
Similarity = 0.00574
Similarity = 0.01471
Similarity = 0.00785
Similarity = 0.01333
Similarity = 0.01916
Similarity = 0.01058
Similarity = 0.02026
Similarity = 0.02303
Similarity = 0.02079
Similarity = 0.01233
Similarity = 0.01526
Similarity = 0.01385
Similarity = 0.00721
Similarity = 0.00614
Similarity = 0.01735
Similarity = 0.00433
Similarity = 0.01004
Similarity = 0.00728
Similarity = 0.01805
Similarity = 0.01954
Similarity = 0.01158
Similarity = 0.0054
Similarity = 0.00671
Similarity = 0.03597
Similarity = 0.02064
Similarity = 0.02317
Similarity = 0.00753
Similarity = 0.00526
Similarity = 0.00715
Similarity = 0.02099
Similarity = 0.04035
Similarity = 0.01229
Similarity = 0.03209
Similarity = 0.0007
Similarity = 0.02864
Similarity = 0.02401
Similarity = 0.01685
Similarity = 0.00303
Similarity = 0.0192
Similarity = 0.00236
Similarity = 0.00836
Similarity = 0.02277
Similarity = 0.01791
Similarity = 0.01606
Similarity = 0.00686
Similarity = 0.00349
Similarity = 0.00158
Similarity = 0.00958
Similarity = 0.01133
Similarity = 0.02875
Similarity = 0.00718
Similarity = 0.01378
Similarity = 0.01883
Similarity = 0.00697
Similarity = 0.00122
Similarity = 0.01352
Similarity = 0.01406
Similarity = 0.00884
Similarity = 0.0095
Similarity = 0.01535
Similarity = 0.01462
Similarity = 0.00563
Similarity = 0.00483
Similarity = 0.00342
Similarity = 0.00859
Similarity = 0.0
Similarity = 0.00524
Similarity = 0.04804
Similarity = 0.04995
Similarity = 0.01785
Similarity = 0.01724
Similarity = 0.00688
Similarity = 0.00889
Similarity = 0.02025
Similarity = 0.0379
Similarity = 0.00618
Similarity = 0.00381
Similarity = 0.00182
Similarity = 0.01014
Similarity = 0.00913
Similarity = 0.01698
Similarity = 0.0033
Similarity = 0.03331
Similarity = 0.01773
Similarity = 0.02289
Similarity = 0.03216
Similarity = 0.06243
Similarity = 0.03409
Similarity = 0.02196
Similarity = 0.02529
Similarity = 0.04124
Similarity = 0.04671
Similarity = 0.02669
Similarity = 0.0231
Similarity = 0.00692
Similarity = 0.01472
Similarity = 0.01371
Similarity = 0.02647
Similarity = 0.02261
Similarity = 0.03299
Similarity = 0.01916
Similarity = 0.05334
Similarity = 0.02589
Similarity = 0.05103
Similarity = 0.03299
Similarity = 0.04992
Similarity = 0.04151
Similarity = 0.04993
Similarity = 0.03401
Similarity = 0.04844
Similarity = 0.04081
Similarity = 0.04611
Similarity = 0.03135
Similarity = 0.03871
Similarity = 0.03628
Similarity = 0.01641
Similarity = 0.02743
Similarity = 0.04783
Similarity = 0.06042
Similarity = 0.02748
Similarity = 0.00759
Similarity = 0.01464
Similarity = 0.02391
Similarity = 0.06128
Similarity = 0.06384
Similarity = 0.05036
Similarity = 0.04176
Similarity = 0.02589
Similarity = 0.02252
Similarity = 0.03216
Similarity = 0.04736
Similarity = 0.01435
Similarity = 0.00714
Similarity = 0.04955
Similarity = 0.00222
Similarity = 0.00697
Similarity = 0.01062
Similarity = 0.00836
Similarity = 0.00875
Similarity = 0.00859
Similarity = 0.01646
Similarity = 0.01182
Similarity = 0.00601
Similarity = 0.02272
Similarity = 0.01568
Similarity = 0.00537
Similarity = 0.00338
Similarity = 0.00945
Similarity = 0.00331
Similarity = 0.0239
Similarity = 0.01326
Similarity = 0.01308
Similarity = 0.01053
Similarity = 0.00515
Similarity = 0.00694
Similarity = 0.00682
Similarity = 0.00997
Similarity = 0.01201
Similarity = 0.01833
Similarity = 0.00921
Similarity = 0.00439
Similarity = 0.01775
Similarity = 0.00238
Similarity = 0.00587
Similarity = 0.00916
Similarity = 0.00273
Similarity = 0.0084
Similarity = 0.00641
Similarity = 0.01851
Similarity = 0.00436
Similarity = 0.00221
Similarity = 0.0064
Similarity = 0.01045
Similarity = 0.0136
Similarity = 0.01755
Similarity = 0.00819
Similarity = 0.00865
Similarity = 0.00556
Similarity = 0.03351
Similarity = 0.00807
Similarity = 0.0094
Similarity = 0.01064
Similarity = 0.01529
Similarity = 0.01937
Similarity = 0.0227
Similarity = 0.0223
Similarity = 0.01414
Similarity = 0.00997
Similarity = 0.01991
Similarity = 0.00771
Similarity = 0.00816
Similarity = 0.02749
Similarity = 0.01844
Similarity = 0.0107
Similarity = 0.00238
Similarity = 0.01445
Similarity = 0.00347
Similarity = 0.01148
Similarity = 0.01486
Similarity = 0.03816
Similarity = 0.01511
Similarity = 0.03142
Similarity = 0.04316
Similarity = 0.01019
Similarity = 0.01151
Similarity = 0.01741
Similarity = 0.05483
Similarity = 0.02143
Similarity = 0.00623
Similarity = 0.03242
Similarity = 0.0104
Similarity = 0.02377
Similarity = 0.00916
Similarity = 0.00875
Similarity = 0.05798
Similarity = 0.00764
Similarity = 0.0059
Similarity = 0.01885
Similarity = 0.06197
Similarity = 0.03251
Similarity = 0.0009
Similarity = 0.01175
Similarity = 0.03578
Similarity = 0.04623
Similarity = 0.0691
Similarity = 0.01919
Similarity = 0.02924
Similarity = 0.00672
Similarity = 0.02961
Similarity = 0.03344
Similarity = 0.02738
Similarity = 0.01312
Similarity = 0.02477
Similarity = 0.0175
Similarity = 0.07802
Similarity = 0.05779
Similarity = 0.05692
Similarity = 0.02857
Similarity = 0.04886
Similarity = 0.03024
Similarity = 0.04827
Similarity = 0.05787
Similarity = 0.03969
Similarity = 0.04905
Similarity = 0.00415
Similarity = 0.02182
Similarity = 0.00988
Similarity = 0.03492
Similarity = 0.02055
Similarity = 0.02774
Similarity = 0.03873
Similarity = 0.05432
Similarity = 0.03153
Similarity = 0.0387
Similarity = 0.0228
Similarity = 0.07105
Similarity = 0.02319
Similarity = 0.02073
Similarity = 0.04676
Similarity = 0.05477
Similarity = 0.03726
Similarity = 0.03286
Similarity = 0.01733
Similarity = 0.01507
Similarity = 0.04223
Similarity = 0.00433
Similarity = 0.01516
Similarity = 0.03879
Similarity = 0.0595
Similarity = 0.04912
Similarity = 0.01654
Similarity = 0.03509
Similarity = 0.04697
Similarity = 0.04636
Similarity = 0.17201
Similarity = 0.03094
Similarity = 0.01259
Similarity = 0.01196
Similarity = 0.02444
Similarity = 0.03443
Similarity = 0.04444
Similarity = 0.01266
Similarity = 0.03715
Similarity = 0.01459
Similarity = 0.01796
Similarity = 0.0372
Similarity = 0.05353
Similarity = 0.02869
Similarity = 0.02915
Similarity = 0.02312
Similarity = 0.06173
Similarity = 0.05078
Similarity = 0.02743
Similarity = 0.02169
Similarity = 0.00378
Similarity = 0.01718
Similarity = 0.01422
Similarity = 0.02115
Similarity = 0.02268
Similarity = 0.02806
Similarity = 0.01808
Similarity = 0.06634
Similarity = 0.02368
Similarity = 0.04255
Similarity = 0.06155
Similarity = 0.05799
Similarity = 0.02206
Similarity = 0.05892
Similarity = 0.0455
Similarity = 0.04562
Similarity = 0.04924
Similarity = 0.03958
Similarity = 0.02636
Similarity = 0.02888
Similarity = 0.03384
Similarity = 0.01273
Similarity = 0.0248
Similarity = 0.05108
Similarity = 0.06076
Similarity = 0.02493
Similarity = 0.00901
Similarity = 0.01714
Similarity = 0.03753
Similarity = 0.06153
Similarity = 0.05944
Similarity = 0.04479
Similarity = 0.03887
Similarity = 0.02326
Similarity = 0.02001
Similarity = 0.03227
Similarity = 0.05234
Similarity = 0.01376
Similarity = 0.0479
Similarity = 0.00369
Similarity = 0.00302
Similarity = 0.0081
Similarity = 0.00724
Similarity = 0.00555
Similarity = 0.00877
Similarity = 0.0113
Similarity = 0.01688
Similarity = 0.01678
Similarity = 0.01151
Similarity = 0.00413
Similarity = 0.00103
Similarity = 0.01693
Similarity = 0.00123
Similarity = 0.00606
Similarity = 0.01043
Similarity = 0.00784
Similarity = 0.0073
Similarity = 0.01854
Similarity = 0.01304
Similarity = 0.0026
Similarity = 0.01935
Similarity = 0.01302
Similarity = 0.0106
Similarity = 0.0181
Similarity = 0.01178
Similarity = 0.00966
Similarity = 0.02299
Similarity = 0.01297
Similarity = 0.00163
Similarity = 0.00416
Similarity = 0.00415
Similarity = 0.0036
Similarity = 0.00221
Similarity = 0.09735
Similarity = 0.03143
Similarity = 0.00941
Similarity = 0.00037
Similarity = 0.00807
Similarity = 0.00676
Similarity = 0.01826
Similarity = 0.01234
Similarity = 0.01374
Similarity = 0.0188
Similarity = 0.02629
Similarity = 0.00497
Similarity = 0.013
Similarity = 0.02025
Similarity = 0.00368
Similarity = 0.00538
Similarity = 0.00464
Similarity = 0.00058
Similarity = 0.00573
Similarity = 0.01542
Similarity = 0.00918
Similarity = 0.00869
Similarity = 0.02208
Similarity = 0.00715
Similarity = 0.00527
Similarity = 0.02294
Similarity = 0.00366
Similarity = 0.0
Similarity = 0.00226
Similarity = 0.00381
Similarity = 0.00967
Similarity = 0.0039
Similarity = 0.00171
Similarity = 0.02207
Similarity = 0.01518
Similarity = 0.00583
Similarity = 0.00624
Similarity = 0.00289
Similarity = 0.0
Similarity = 0.00141
Similarity = 0.00415
Similarity = 0.00827
Similarity = 0.00727
Similarity = 0.02524
Similarity = 0.0129
Similarity = 0.0012
Similarity = 0.00533
Similarity = 0.00982
Similarity = 0.0
Similarity = 0.00305
Similarity = 0.01715
Similarity = 0.02866
Similarity = 0.01396
Similarity = 0.03043
Similarity = 0.00592
Similarity = 0.00309
Similarity = 0.00462
Similarity = 0.02391
Similarity = 0.01801
Similarity = 0.00434
Similarity = 0.02957
Similarity = 0.00686
Similarity = 0.00462
Similarity = 0.00835
Similarity = 0.00254
Similarity = 0.04089
Similarity = 0.01697
Similarity = 0.02274
Similarity = 0.04498
Similarity = 0.03336
Similarity = 0.02474
Similarity = 0.06434
Similarity = 0.05054
Similarity = 0.03992
Similarity = 0.0789
Similarity = 0.08119
Similarity = 0.04162
Similarity = 0.01369
Similarity = 0.04657
Similarity = 0.01879
Similarity = 0.0477
Similarity = 0.02163
Similarity = 0.03739
Similarity = 0.04609
Similarity = 0.06061
Similarity = 0.03318
Similarity = 0.03252
Similarity = 0.03396
Similarity = 0.04095
Similarity = 0.0578
Similarity = 0.03418
Similarity = 0.03423
Similarity = 0.04596
Similarity = 0.04789
Similarity = 0.03793
Similarity = 0.03487
Similarity = 0.00892
Similarity = 0.03555
Similarity = 0.01861
Similarity = 0.02058
Similarity = 0.08719
Similarity = 0.09464
Similarity = 0.05266
Similarity = 0.04152
Similarity = 0.01429
Similarity = 0.0353
Similarity = 0.07058
Similarity = 0.08947
Similarity = 0.03533
Similarity = 0.01879
Similarity = 0.01962
Similarity = 0.03638
Similarity = 0.04726
Similarity = 0.07515
Similarity = 0.02544
Similarity = 0.01123
Similarity = 0.0004
Similarity = 0.03615
Similarity = 0.00069
Similarity = 0.05115
Similarity = 0.00499
Similarity = 0.04456
Similarity = 0.02018
Similarity = 0.01199
Similarity = 0.03519
Similarity = 0.01805
Similarity = 0.00303
Similarity = 0.0
Similarity = 0.00541
Similarity = 0.01452
Similarity = 0.011
Similarity = 0.00384
Similarity = 0.00928
Similarity = 0.02539
Similarity = 0.01253
Similarity = 0.01862
Similarity = 0.00666
Similarity = 0.0076
Similarity = 0.00172
Similarity = 0.01209
Similarity = 0.01312
Similarity = 0.0187
Similarity = 0.02252
Similarity = 0.00756
Similarity = 0.01198
Similarity = 0.03108
Similarity = 0.0051
Similarity = 0.00748
Similarity = 0.0
Similarity = 0.01493
Similarity = 0.02336
Similarity = 0.02177
Similarity = 0.00611
Similarity = 0.02233
Similarity = 0.00256
Similarity = 0.01145
Similarity = 0.01557
Similarity = 0.06765
Similarity = 0.00648
Similarity = 0.0
Similarity = 0.02377
Similarity = 0.00568
Similarity = 0.0143
Similarity = 0.01523
Similarity = 0.0142
Similarity = 0.03188
Similarity = 0.01118
Similarity = 0.02498
Similarity = 0.02471
Similarity = 0.01773
Similarity = 0.01799
Similarity = 0.02874
Similarity = 0.01014
Similarity = 0.02844
Similarity = 0.03287
Similarity = 0.02477
Similarity = 0.04422
Similarity = 0.0
Similarity = 0.01126
Similarity = 0.00112
Similarity = 0.00973
Similarity = 0.01849
Similarity = 0.04195
Similarity = 0.01598
Similarity = 0.02758
Similarity = 0.05243
Similarity = 0.00623
Similarity = 0.02237
Similarity = 0.03784
Similarity = 0.07592
Similarity = 0.01809
Similarity = 0.02767
Similarity = 0.02009
Similarity = 0.03616
Similarity = 0.0276
Similarity = 0.01524
Similarity = 0.00836
Similarity = 0.03042
Similarity = 0.0095
Similarity = 0.03531
Similarity = 0.02487
Similarity = 0.03496
Similarity = 0.02843
Similarity = 0.00434
Similarity = 0.01467
Similarity = 0.00481
Similarity = 0.0302
Similarity = 0.03146
Similarity = 0.03438
Similarity = 0.01961
Similarity = 0.01142
Similarity = 0.02231
Similarity = 0.02752
Similarity = 0.02714
Similarity = 0.01361
Similarity = 0.01743
Similarity = 0.01316
Similarity = 0.01346
Similarity = 0.01366
Similarity = 0.01677
Similarity = 0.02303
Similarity = 0.01614
Similarity = 0.00942
Similarity = 0.01204
Similarity = 0.01951
Similarity = 0.00823
Similarity = 0.01867
Similarity = 0.00748
Similarity = 0.01432
Similarity = 0.01452
Similarity = 0.00961
Similarity = 0.01173
Similarity = 0.03137
Similarity = 0.01723
Similarity = 0.02144
Similarity = 0.01324
Similarity = 0.0249
Similarity = 0.01596
Similarity = 0.01144
Similarity = 0.01716
Similarity = 0.02417
Similarity = 0.01586
Similarity = 0.03318
Similarity = 0.02472
Similarity = 0.02748
Similarity = 0.01198
Similarity = 0.03151
Similarity = 0.04017
Similarity = 0.01697
Similarity = 0.05808
Similarity = 0.01608
Similarity = 0.02226
Similarity = 0.0284
Similarity = 0.00583
Similarity = 0.01033
Similarity = 0.02038
Similarity = 0.02797
Similarity = 0.0161
Similarity = 0.02997
Similarity = 0.03042
Similarity = 0.01194
Similarity = 0.03077
Similarity = 0.01475
Similarity = 0.02506
Similarity = 0.01181
Similarity = 0.00435
Similarity = 0.0
Similarity = 0.00985
Similarity = 0.01217
Similarity = 0.0
Similarity = 0.00222
Similarity = 0.0
Similarity = 0.0
Similarity = 0.00167
Similarity = 0.00314
Similarity = 0.0
Similarity = 0.00138
Similarity = 0.0
Similarity = 0.0
Similarity = 0.00053
Similarity = 0.00044
Similarity = 0.00614
Similarity = 0.0
Similarity = 0.01155
Similarity = 0.00304
Similarity = 0.00114
Similarity = 0.0
Similarity = 0.00094
Similarity = 0.0
Similarity = 0.0
Similarity = 0.0
Similarity = 0.00419
Similarity = 0.00068
Similarity = 0.00503
Similarity = 0.00209
Similarity = 0.0
Similarity = 0.0
Similarity = 0.02516
Similarity = 0.0
Similarity = 0.00103
Similarity = 0.00388
Similarity = 0.00764
Similarity = 0.0
Similarity = 0.0
Similarity = 0.0
Similarity = 0.0
Similarity = 0.00983
Similarity = 0.01889
Similarity = 0.00062
Similarity = 0.00163
Similarity = 0.0
Similarity = 0.00107
Similarity = 0.00787
Similarity = 0.00076
Similarity = 0.0
Similarity = 0.02621
Similarity = 0.01154
Similarity = 0.02211
Similarity = 0.01861
Similarity = 0.0373
Similarity = 0.00622
Similarity = 0.02939
Similarity = 0.0319
Similarity = 0.05928
Similarity = 0.04106
Similarity = 0.02285
Similarity = 0.03885
Similarity = 0.00238
Similarity = 0.0191
Similarity = 0.00939
Similarity = 0.02206
Similarity = 0.02693
Similarity = 0.02221
Similarity = 0.02127
Similarity = 0.04975
Similarity = 0.01922
Similarity = 0.03051
Similarity = 0.04617
Similarity = 0.02284
Similarity = 0.04889
Similarity = 0.05883
Similarity = 0.04433
Similarity = 0.04298
Similarity = 0.02658
Similarity = 0.0318
Similarity = 0.01955
Similarity = 0.09538
Similarity = 0.04429
Similarity = 0.00385
Similarity = 0.02794
Similarity = 0.02888
Similarity = 0.03419
Similarity = 0.04162
Similarity = 0.00643
Similarity = 0.032
Similarity = 0.0138
Similarity = 0.05478
Similarity = 0.04317
Similarity = 0.05234
Similarity = 0.0259
Similarity = 0.01958
Similarity = 0.02862
Similarity = 0.0293
Similarity = 0.04392
Similarity = 0.0157
Similarity = 0.02707
Similarity = 0.00542
Similarity = 0.05988
Similarity = 0.04033
Similarity = 0.03931
Similarity = 0.01791
Similarity = 0.01667
Similarity = 0.02872
Similarity = 0.02942
Similarity = 0.04681
Similarity = 0.02633
Similarity = 0.03234
Similarity = 0.00166
Similarity = 0.01621
Similarity = 0.0068
Similarity = 0.02665
Similarity = 0.02784
Similarity = 0.03217
Similarity = 0.03165
Similarity = 0.03791
Similarity = 0.01452
Similarity = 0.02523
Similarity = 0.01395
Similarity = 0.02573
Similarity = 0.0257
Similarity = 0.03482
Similarity = 0.0405
Similarity = 0.05739
Similarity = 0.02153
Similarity = 0.02678
Similarity = 0.01892
Similarity = 0.01564
Similarity = 0.02688
Similarity = 0.01654
Similarity = 0.02097
Similarity = 0.04115
Similarity = 0.04122
Similarity = 0.02752
Similarity = 0.02339
Similarity = 0.00989
Similarity = 0.01841
Similarity = 0.04941
Similarity = 0.21626
Similarity = 0.03344
Similarity = 0.01596
Similarity = 0.02896
Similarity = 0.02017
Similarity = 0.02873
Similarity = 0.04946
Similarity = 0.01232
Similarity = 0.02721
Similarity = 0.01349
Similarity = 0.07125
Similarity = 0.01969
Similarity = 0.03215
Similarity = 0.00864
Similarity = 0.0326
Similarity = 0.02293
Similarity = 0.02463
Similarity = 0.01958
Similarity = 0.01835
Similarity = 0.01395
Similarity = 0.0
Similarity = 0.01187
Similarity = 0.00513
Similarity = 0.01384
Similarity = 0.02821
Similarity = 0.02059
Similarity = 0.01539
Similarity = 0.03003
Similarity = 0.0223
Similarity = 0.01297
Similarity = 0.02288
Similarity = 0.02786
Similarity = 0.02539
Similarity = 0.022
Similarity = 0.02607
Similarity = 0.02199
Similarity = 0.02127
Similarity = 0.00934
Similarity = 0.02488
Similarity = 0.02795
Similarity = 0.01411
Similarity = 0.00915
Similarity = 0.02615
Similarity = 0.03101
Similarity = 0.04136
Similarity = 0.01885
Similarity = 0.00412
Similarity = 0.01319
Similarity = 0.00675
Similarity = 0.03101
Similarity = 0.08677
Similarity = 0.0281
Similarity = 0.00691
Similarity = 0.0036
Similarity = 0.02327
Similarity = 0.02952
Similarity = 0.02126
Similarity = 0.02274
Similarity = 0.02206
Similarity = 0.0138
Similarity = 0.0071
Similarity = 0.02827
Similarity = 0.02191
Similarity = 0.01158
Similarity = 0.01453
Similarity = 0.01319
Similarity = 0.0233
Similarity = 0.02089
Similarity = 0.0116
Similarity = 0.03154
Similarity = 0.0
Similarity = 0.00989
Similarity = 0.00486
Similarity = 0.02154
Similarity = 0.01572
Similarity = 0.019
Similarity = 0.02165
Similarity = 0.03698
Similarity = 0.01136
Similarity = 0.02591
Similarity = 0.00861
Similarity = 0.01493
Similarity = 0.01139
Similarity = 0.01145
Similarity = 0.02573
Similarity = 0.02159
Similarity = 0.01885
Similarity = 0.02008
Similarity = 0.01096
Similarity = 0.05817
Similarity = 0.03211
Similarity = 0.00926
Similarity = 0.05148
Similarity = 0.03606
Similarity = 0.02136
Similarity = 0.02806
Similarity = 0.00748
Similarity = 0.02666
Similarity = 0.01126
Similarity = 0.02626
Similarity = 0.02359
Similarity = 0.01613
Similarity = 0.03199
Similarity = 0.01128
Similarity = 0.01905
Similarity = 0.01684
Similarity = 0.01899
Similarity = 0.01145
Similarity = 0.06228
Similarity = 0.01326
Similarity = 0.03514
Similarity = 0.05838
Similarity = 0.02734
Similarity = 0.013
Similarity = 0.0508
Similarity = 0.02477
Similarity = 0.05034
Similarity = 0.05006
Similarity = 0.01469
Similarity = 0.0833
Similarity = 0.01056
Similarity = 0.0152
Similarity = 0.00799
Similarity = 0.01345
Similarity = 0.02261
Similarity = 0.03149
Similarity = 0.03291
Similarity = 0.06096
Similarity = 0.02699
Similarity = 0.02362
Similarity = 0.04867
Similarity = 0.04084
Similarity = 0.02997
Similarity = 0.05459
Similarity = 0.04515
Similarity = 0.04329
Similarity = 0.03237
Similarity = 0.04597
Similarity = 0.03067
Similarity = 0.02314
Similarity = 0.06141
Similarity = 0.01295
Similarity = 0.03782
Similarity = 0.09057
Similarity = 0.0745
Similarity = 0.06057
Similarity = 0.0172
Similarity = 0.01774
Similarity = 0.03091
Similarity = 0.05118
Similarity = 0.06806
Similarity = 0.05923
Similarity = 0.05329
Similarity = 0.02587
Similarity = 0.02452
Similarity = 0.04622
Similarity = 0.04193
Similarity = 0.00899
Similarity = 0.0286
Similarity = 0.00473
Similarity = 0.00835
Similarity = 0.01613
Similarity = 0.00277
Similarity = 0.02355
Similarity = 0.00355
Similarity = 0.01118
Similarity = 0.00083
Similarity = 0.04762
Similarity = 0.0108
Similarity = 0.04049
Similarity = 0.0093
Similarity = 0.01483
Similarity = 0.00056
Similarity = 0.01085
Similarity = 0.02063
Similarity = 0.01509
Similarity = 0.0365
Similarity = 0.01396
Similarity = 0.00313
Similarity = 0.01309
Similarity = 0.00248
Similarity = 0.00291
Similarity = 0.01065
Similarity = 0.01946
Similarity = 0.02386
Similarity = 0.01711
Similarity = 0.01994
Similarity = 0.01259
Similarity = 0.00555
Similarity = 0.00676
Similarity = 0.03151
Similarity = 0.00036
Similarity = 0.03556
Similarity = 0.05592
Similarity = 0.01353
Similarity = 0.01339
Similarity = 0.03521
Similarity = 0.00764
Similarity = 0.02383
Similarity = 0.02963
Similarity = 0.01866
Similarity = 0.02218
Similarity = 0.00459
Similarity = 0.00354
Similarity = 0.00544
Similarity = 0.02222
Similarity = 0.02778
Similarity = 0.01188
0.02505876000000008
